Year,Month,Day,Hour,Minute,Second,Millisecond,Current,Voltage,ActivePwr,ReactvPwr,Frequency,State
2016,5,6,15,3,8,715709,3.0699,224.8,628.52,1.76,60.048,4
2016,5,6,15,3,8,779151,3.0699,224.8,628.45,1.88,60.048,4
2016,5,6,15,3,8,851327,3.0715,224.8,628.97,1.72,60.074,4
2016,5,6,15,3,8,913976,3.0723,225.0,629.45,1.82,60.048,4
2016,5,6,15,3,8,979004,3.074,224.9,629.73,1.72,60.098,4
2016,5,6,15,3,9,115002,3.0715,224.9,629.15,1.79,60.048,4
2016,5,6,15,3,9,180098,3.0715,224.9,629.1,1.85,60.048,4
2016,5,6,15,3,9,315663,3.0731,225.0,629.73,1.8,60.048,4
2016,5,6,15,3,9,380345,3.0723,224.9,629.34,1.77,60.074,4
2016,5,6,15,3,9,516245,3.0731,224.9,629.67,1.71,60.048,4
2016,5,6,15,3,9,581638,3.0731,224.9,629.43,1.75,60.048,4
2016,5,6,15,3,9,646289,3.069,224.7,628.27,1.7,60.048,4
2016,5,6,15,3,9,724876,3.069,224.7,628.06,1.75,60.048,4
2016,5,6,15,3,9,779375,3.0707,224.8,628.81,1.83,60.048,4
2016,5,6,15,3,9,916127,3.0715,224.9,629.08,1.8,60.048,4
2016,5,6,15,3,9,981377,3.0731,225.0,629.66,1.84,60.048,4
2016,5,6,15,3,10,45891,3.0731,225.0,629.84,1.82,60.074,4
2016,5,6,15,3,10,182937,3.0715,225.0,629.31,1.8,60.048,4
2016,5,6,15,3,10,248104,3.0723,225.0,629.46,1.84,60.048,4
2016,5,6,15,3,10,312520,3.0731,225.0,629.78,1.86,60.048,4
2016,5,6,15,3,10,448071,3.0739,225.1,630.2,1.79,60.048,4
2016,5,6,15,3,10,513318,3.0739,225.1,630.22,1.82,60.048,4
2016,5,6,15,3,10,649608,3.0763,225.3,631.08,1.83,60.048,4
2016,5,6,15,3,10,714553,3.0755,225.3,631.04,1.87,60.048,4
2016,5,6,15,3,10,779437,3.0755,225.3,631.12,1.78,60.048,4
2016,5,6,15,3,10,844982,3.0755,225.2,630.73,1.84,60.048,4
2016,5,6,15,3,10,982548,3.0755,225.2,630.77,1.8,60.048,4
2016,5,6,15,3,11,46784,3.0763,225.3,631.14,1.83,60.048,4
2016,5,6,15,3,11,182993,3.0772,225.3,631.27,1.79,60.048,4
2016,5,6,15,3,11,247398,3.0772,225.3,631.38,1.76,60.048,4
2016,5,6,15,3,11,311682,3.0772,225.3,631.33,1.68,60.048,4
2016,5,6,15,3,11,447650,3.0763,225.3,631.27,1.8,60.048,4
2016,5,6,15,3,11,511597,3.0772,225.3,631.46,1.82,60.023999999999994,4
2016,5,6,15,3,11,648213,3.0780000000000003,225.5,631.99,1.82,60.048,4
2016,5,6,15,3,11,712177,3.0780000000000003,225.4,631.8,1.77,60.048,4
2016,5,6,15,3,11,848357,3.0763,225.3,631.31,1.85,60.023999999999994,4
2016,5,6,15,3,11,916907,3.0747,225.3,630.74,1.82,60.023999999999994,4
2016,5,6,15,3,11,982189,3.0747,225.3,630.73,1.84,60.048,4
2016,5,6,15,3,12,47752,3.0739,225.3,630.6,1.69,60.048,4
2016,5,6,15,3,12,111939,3.0755,225.3,631.07,1.84,60.048,4
2016,5,6,15,3,12,247595,3.0747,225.3,630.77,1.75,60.048,4
2016,5,6,15,3,12,311856,3.0739,225.3,630.68,1.84,60.023999999999994,4
2016,5,6,15,3,12,447555,3.0747,225.3,630.83,1.77,60.023999999999994,4
2016,5,6,15,3,12,512661,3.0746,225.3,630.95,1.83,59.998000000000005,4
2016,5,6,15,3,12,650045,3.073,225.3,630.44,1.89,59.998000000000005,4
2016,5,6,15,3,12,714767,3.0747,225.3,630.78,1.79,60.048,4
2016,5,6,15,3,12,779471,3.0747,225.3,630.9,1.94,60.048,4
2016,5,6,15,3,12,915952,3.0699,225.0,629.18,1.8,60.023999999999994,4
2016,5,6,15,3,12,987230,3.0707,225.0,629.38,1.79,60.023999999999994,4
2016,5,6,15,3,13,51389,3.0715,225.1,629.75,1.83,60.048,4
2016,5,6,15,3,13,115981,3.0707,225.0,629.33,1.79,60.048,4
2016,5,6,15,3,13,179618,3.0707,225.1,629.63,1.75,60.023999999999994,4
2016,5,6,15,3,13,315201,3.0723,225.1,629.95,1.68,60.048,4
2016,5,6,15,3,13,380016,3.0722,225.2,630.12,1.76,59.998000000000005,4
2016,5,6,15,3,13,516173,3.0723,225.1,629.81,1.77,60.048,4
2016,5,6,15,3,13,581228,3.0723,225.2,630.11,1.77,60.048,4
2016,5,6,15,3,13,645486,3.0747,225.3,630.79,1.73,60.023999999999994,4
2016,5,6,15,3,13,782214,3.0763,225.5,631.76,1.83,60.048,4
2016,5,6,15,3,13,846896,3.0772,225.5,631.86,1.78,60.048,4
2016,5,6,15,3,13,982645,3.0763,225.4,631.51,1.82,60.048,4
2016,5,6,15,3,14,69198,3.0763,225.4,631.67,1.79,60.048,4
2016,5,6,15,3,14,112550,3.0755,225.4,631.09,1.81,60.048,4
2016,5,6,15,3,14,250765,3.0739,225.3,630.91,1.75,60.048,4
2016,5,6,15,3,14,315679,3.0731,225.2,630.37,1.86,60.048,4
2016,5,6,15,3,14,380915,3.0731,225.3,630.43,1.73,60.048,4
2016,5,6,15,3,14,517108,3.0731,225.2,630.23,1.82,60.048,4
2016,5,6,15,3,14,582316,3.0723,225.2,630.13,1.9,60.048,4
2016,5,6,15,3,14,646852,3.0723,225.2,629.89,1.8,60.048,4
2016,5,6,15,3,14,782354,3.0723,225.2,630.0,1.66,60.048,4
2016,5,6,15,3,14,846954,3.0715,225.1,629.48,1.73,60.048,4
2016,5,6,15,3,14,983600,3.0739,225.3,630.76,1.77,60.048,4
2016,5,6,15,3,15,47660,3.0739,225.2,630.46,1.69,60.048,4
2016,5,6,15,3,15,112535,3.0731,225.2,630.3,1.74,60.048,4
2016,5,6,15,3,15,185668,3.0739,225.3,630.57,1.74,60.048,4
2016,5,6,15,3,15,250430,3.0747,225.3,630.84,1.79,60.048,4
2016,5,6,15,3,15,315061,3.0731,225.3,630.35,1.75,60.048,4
2016,5,6,15,3,15,379732,3.0739,225.3,630.67,1.72,60.048,4
2016,5,6,15,3,15,516307,3.0731,225.3,630.4,1.84,60.048,4
2016,5,6,15,3,15,581536,3.0731,225.3,630.35,1.84,60.048,4
2016,5,6,15,3,15,646231,3.0739,225.3,630.78,1.81,60.048,4
2016,5,6,15,3,15,782817,3.0747,225.4,630.88,1.67,60.048,4
2016,5,6,15,3,15,847621,3.0739,225.3,630.76,1.8,60.048,4
2016,5,6,15,3,15,983811,3.0747,225.3,630.83,1.72,60.048,4
2016,5,6,15,3,16,48107,3.0739,225.3,630.64,1.69,60.048,4
2016,5,6,15,3,16,112704,3.0731,225.2,630.3,1.7,60.048,4
2016,5,6,15,3,16,252139,3.0723,225.2,630.04,1.62,60.048,4
2016,5,6,15,3,16,316038,3.0715,225.1,629.49,1.74,60.048,4
2016,5,6,15,3,16,380615,3.0715,225.2,629.87,1.76,60.048,4
2016,5,6,15,3,16,515665,3.0715,225.1,629.68,1.75,60.048,4
2016,5,6,15,3,16,580454,3.0715,225.1,629.7,1.8,60.048,4
2016,5,6,15,3,16,716115,3.0707,225.1,629.44,1.77,60.048,4
2016,5,6,15,3,16,779763,3.0722,225.3,630.34,1.72,59.998000000000005,4
2016,5,6,15,3,16,915616,3.9674,224.4,838.9,83.66,60.048,11
2016,5,6,15,3,16,980308,3.7126,224.7,783.42,43.02,60.048,11
2016,5,6,15,3,17,116603,3.5568,224.5,746.45,23.92,60.023999999999994,11
2016,5,6,15,3,17,181347,3.5259,224.6,739.36,20.46,60.048,11
2016,5,6,15,3,17,246036,3.5039999999999996,224.7,734.22,18.17,60.048,11
2016,5,6,15,3,17,334843,3.4878,224.7,730.45,16.77,60.023999999999994,11
2016,5,6,15,3,17,451374,3.4634,224.5,724.1,14.83,60.023999999999994,11
2016,5,6,15,3,17,514868,3.4569,224.4,722.52,14.4,60.048,11
2016,5,6,15,3,17,580000,3.4529,224.5,721.7,13.98,60.048,11
2016,5,6,15,3,17,715544,3.4488,224.6,720.99,13.52,60.023999999999994,11
2016,5,6,15,3,17,779644,3.4504,224.8,721.7,13.48,60.048,11
2016,5,6,15,3,17,915034,3.4456,224.6,720.09,13.41,60.048,11
2016,5,6,15,3,17,979878,3.448,224.7,720.99,13.46,60.048,11
2016,5,6,15,3,18,116771,3.4488,224.7,721.36,13.66,60.048,11
2016,5,6,15,3,18,181645,3.4513,224.9,722.28,13.53,60.048,11
2016,5,6,15,3,18,246457,3.4521,224.9,722.5,13.58,60.048,11
2016,5,6,15,3,18,382365,3.4529,224.8,722.38,13.86,60.048,11
2016,5,6,15,3,18,448752,3.4529,224.8,722.5,13.85,60.048,11
2016,5,6,15,3,18,513695,3.4537,224.8,722.59,13.79,60.048,11
2016,5,6,15,3,18,650112,3.4521,224.6,721.66,13.8,60.048,11
2016,5,6,15,3,18,715412,3.4529,224.7,722.12,13.89,60.048,11
2016,5,6,15,3,18,780021,3.4537,224.7,722.33,13.98,60.048,11
2016,5,6,15,3,18,916364,3.4561,224.7,723.09,14.09,60.048,11
2016,5,6,15,3,18,981481,3.4561,224.7,723.12,14.08,60.048,11
2016,5,6,15,3,19,117633,3.4561,224.7,723.05,13.98,60.048,11
2016,5,6,15,3,19,182638,3.4553,224.7,722.75,14.15,60.048,11
2016,5,6,15,3,19,247665,3.4553,224.6,722.7,14.25,60.048,11
2016,5,6,15,3,19,384095,3.4561,224.6,722.79,14.11,60.048,11
2016,5,6,15,3,19,448949,3.4545,224.5,722.26,14.18,60.048,11
2016,5,6,15,3,19,516026,3.4561,224.6,722.85,14.17,60.048,11
2016,5,6,15,3,19,579604,3.4586,224.8,723.74,14.2,60.048,11
2016,5,6,15,3,19,717879,3.4586,224.7,723.64,14.16,60.048,11
2016,5,6,15,3,19,782127,3.4586,224.7,723.42,14.3,60.048,11
2016,5,6,15,3,19,918444,3.4594,224.7,723.79,14.27,60.048,11
2016,5,6,15,3,19,983568,3.4586,224.7,723.55,14.21,60.048,11
2016,5,6,15,3,20,47593,3.4586,224.7,723.51,14.28,60.048,11
2016,5,6,15,3,20,182739,3.4553,224.5,722.31,14.32,60.048,11
2016,5,6,15,3,20,246666,3.4553,224.5,722.28,14.25,60.048,11
2016,5,6,15,3,20,382648,3.4577,224.7,723.34,14.33,60.048,11
2016,5,6,15,3,20,447897,3.4577,224.6,722.97,14.46,60.048,11
2016,5,6,15,3,20,586917,3.4569,224.6,723.0,14.42,60.048,11
2016,5,6,15,3,20,650632,3.4569,224.6,722.91,14.35,60.048,11
2016,5,6,15,3,20,714845,3.4569,224.6,722.71,14.38,60.074,11
2016,5,6,15,3,20,849833,3.4594,224.7,723.63,14.43,60.048,11
2016,5,6,15,3,20,914643,3.4594,224.6,723.45,14.64,60.048,11
2016,5,6,15,3,21,50709,3.4569,224.5,722.76,14.53,60.048,11
2016,5,6,15,3,21,115857,3.4586,224.6,723.27,14.57,60.048,11
2016,5,6,15,3,21,180138,3.4586,224.6,723.1,14.57,60.048,11
2016,5,6,15,3,21,316068,3.4586,224.5,722.99,14.7,60.048,11
2016,5,6,15,3,21,381062,3.4610000000000003,224.6,723.78,14.76,60.048,11
2016,5,6,15,3,21,516750,3.4594,224.5,723.35,14.68,60.048,11
2016,5,6,15,3,21,580590,3.4602,224.6,723.62,14.58,60.048,11
2016,5,6,15,3,21,665513,3.4586,224.5,723.01,14.59,60.048,11
2016,5,6,15,3,21,719427,3.4586,224.5,723.18,14.66,60.048,11
2016,5,6,15,3,21,783806,3.4602,224.6,723.58,14.72,60.048,11
2016,5,6,15,3,21,846968,3.4594,224.6,723.51,14.79,60.048,11
2016,5,6,15,3,21,920773,3.4594,224.6,723.4,14.7,60.048,11
2016,5,6,15,3,21,985263,3.4602,224.6,723.56,14.76,60.048,11
2016,5,6,15,3,22,49737,3.4594,224.5,723.33,14.75,60.048,11
2016,5,6,15,3,22,113713,3.4577,224.4,722.58,14.62,60.048,11
2016,5,6,15,3,22,249549,3.4586,224.5,723.09,14.66,60.048,11
2016,5,6,15,3,22,314169,3.4586,224.5,723.05,14.66,60.048,11
2016,5,6,15,3,22,450579,3.4553,224.3,721.87,14.55,60.048,11
2016,5,6,15,3,22,515674,3.4545,224.2,721.49,14.5,60.048,11
2016,5,6,15,3,22,651809,3.4561,224.3,722.12,14.53,60.048,11
2016,5,6,15,3,22,716452,3.4569,224.4,722.43,14.67,60.048,11
2016,5,6,15,3,22,786976,3.4586,224.4,723.06,14.51,60.048,11
2016,5,6,15,3,22,852403,3.4602,224.6,723.71,14.66,60.048,11
2016,5,6,15,3,22,918946,3.4586,224.4,722.9,14.73,60.048,11
2016,5,6,15,3,22,982859,3.4577,224.4,722.68,14.72,60.048,11
2016,5,6,15,3,23,47822,3.4545,224.2,721.5,14.57,60.048,11
2016,5,6,15,3,23,183505,3.4529,224.2,720.98,14.64,60.048,11
2016,5,6,15,3,23,318757,3.4529,224.1,720.79,14.69,60.048,11
2016,5,6,15,3,23,383256,3.4553,224.2,721.62,14.62,60.048,11
2016,5,6,15,3,23,519328,3.4553,224.2,721.8,14.73,60.048,11
2016,5,6,15,3,23,583308,3.4561,224.3,722.07,14.76,60.048,11
2016,5,6,15,3,23,647822,3.4594,224.4,723.18,14.89,60.048,11
2016,5,6,15,3,23,783947,3.4561,224.2,722.03,14.74,60.048,11
2016,5,6,15,3,23,852866,3.4561,224.2,721.92,14.72,60.048,11
2016,5,6,15,3,23,917435,3.4561,224.2,721.72,14.8,60.048,11
2016,5,6,15,3,23,981861,3.4602,224.4,723.15,14.84,60.048,11
2016,5,6,15,3,24,117533,3.4618,224.5,724.02,14.85,60.048,11
2016,5,6,15,3,24,182609,3.4634,224.6,724.35,14.87,60.048,11
2016,5,6,15,3,24,318911,3.4610000000000003,224.4,723.43,14.87,60.048,11
2016,5,6,15,3,24,383883,3.4610000000000003,224.4,723.3,14.84,60.048,11
2016,5,6,15,3,24,448326,3.4618,224.5,723.91,14.96,60.048,11
2016,5,6,15,3,24,584265,3.4659,224.7,725.4,14.91,60.048,11
2016,5,6,15,3,24,648451,3.4633,224.6,724.71,14.94,59.998000000000005,11
2016,5,6,15,3,24,784288,3.4626,224.5,724.09,14.92,60.048,11
2016,5,6,15,3,24,848197,3.4634,224.6,724.65,15.01,60.048,11
2016,5,6,15,3,24,926277,3.4642,224.6,724.68,14.91,60.048,11
2016,5,6,15,3,25,52108,3.4634,224.6,724.57,14.85,60.048,11
2016,5,6,15,3,25,115367,3.4625,224.6,724.63,14.86,59.998000000000005,11
2016,5,6,15,3,25,252072,3.4617,224.5,723.77,14.9,59.998000000000005,11
2016,5,6,15,3,25,317397,3.4641,224.6,724.7,14.91,59.998000000000005,11
2016,5,6,15,3,25,382071,3.4666,224.8,725.71,14.96,59.998000000000005,11
2016,5,6,15,3,25,518438,3.4641,224.7,724.91,14.94,59.998000000000005,11
2016,5,6,15,3,25,583323,3.4651,224.7,725.13,14.94,60.048,11
2016,5,6,15,3,25,719384,3.4626,224.5,724.09,14.87,60.048,11
2016,5,6,15,3,25,783224,3.4634,224.6,724.54,14.92,60.048,11
2016,5,6,15,3,25,919452,3.4651,224.6,724.89,14.95,60.048,11
2016,5,6,15,3,26,7562,3.4642,224.5,724.73,15.01,60.048,11
2016,5,6,15,3,26,51543,3.4633,224.6,724.48,15.0,59.998000000000005,11
2016,5,6,15,3,26,117462,3.4642,224.6,724.71,14.99,60.048,11
2016,5,6,15,3,26,253866,3.4618,224.4,723.55,14.9,60.023999999999994,11
2016,5,6,15,3,26,318898,3.4642,224.5,724.42,15.06,60.048,11
2016,5,6,15,3,26,383442,3.4649,224.6,724.97,15.04,59.998000000000005,11
2016,5,6,15,3,26,520640,3.4651,224.5,724.75,15.04,60.048,11
2016,5,6,15,3,26,585555,3.4659,224.6,725.17,15.01,60.023999999999994,11
2016,5,6,15,3,26,649671,3.4651,224.5,724.68,15.13,60.023999999999994,11
2016,5,6,15,3,26,784968,3.4641,224.5,724.38,15.04,59.998000000000005,11
2016,5,6,15,3,26,849236,3.4658,224.6,725.09,15.06,59.998000000000005,11
2016,5,6,15,3,26,985286,3.4666,224.5,725.08,15.13,59.998000000000005,11
2016,5,6,15,3,27,118640,3.4641,224.4,724.09,15.17,59.998000000000005,11
2016,5,6,15,3,27,183439,3.4649,224.4,724.44,15.11,59.998000000000005,11
2016,5,6,15,3,27,319528,3.4633,224.4,724.05,15.04,59.998000000000005,11
2016,5,6,15,3,27,384862,3.4659,224.3,724.4,15.15,60.074,11
2016,5,6,15,3,27,520884,3.4641,224.4,724.27,15.05,59.998000000000005,11
2016,5,6,15,3,27,584822,3.4659,224.4,724.59,14.99,60.048,11
2016,5,6,15,3,27,721469,3.4651,224.3,724.19,15.0,60.048,11
2016,5,6,15,3,27,786522,3.4659,224.3,724.33,15.06,60.048,11
2016,5,6,15,3,27,850872,3.4618,224.2,723.0,15.08,60.048,11
2016,5,6,15,3,27,986158,3.4626,224.3,723.49,15.0,60.048,11
2016,5,6,15,3,28,50386,3.4626,224.3,723.54,15.05,60.048,11
2016,5,6,15,3,28,187223,3.4617,224.3,723.44,14.9,59.998000000000005,11
2016,5,6,15,3,28,250927,3.4625,224.3,723.41,14.97,59.998000000000005,11
2016,5,6,15,3,28,387108,3.4633,224.4,723.95,14.97,59.998000000000005,11
2016,5,6,15,3,28,451184,3.4625,224.3,723.43,14.88,59.998000000000005,11
2016,5,6,15,3,28,587291,3.4626,224.3,723.46,14.96,60.048,11
2016,5,6,15,3,28,652553,3.4651,224.4,724.54,14.98,60.048,11
2016,5,6,15,3,28,717379,3.4667,224.5,725.04,15.0,60.048,11
2016,5,6,15,3,28,852732,3.4666,224.6,725.12,14.96,59.998000000000005,11
2016,5,6,15,3,28,988987,3.4674,224.7,725.73,15.09,59.998000000000005,11
2016,5,6,15,3,29,54376,3.4666,224.6,725.47,14.97,59.998000000000005,11
2016,5,6,15,3,29,118928,3.4658,224.6,725.09,14.96,59.998000000000005,11
2016,5,6,15,3,29,258414,3.4682,224.7,725.85,14.95,59.998000000000005,11
2016,5,6,15,3,29,323418,3.4691,224.7,726.17,15.06,60.023999999999994,11
2016,5,6,15,3,29,388004,3.4691,224.7,726.04,14.88,60.048,11
2016,5,6,15,3,29,451009,3.4691,224.7,726.03,14.97,60.048,11
2016,5,6,15,3,29,587490,3.4691,224.7,726.04,15.09,60.048,11
2016,5,6,15,3,29,651540,3.4699,224.7,726.43,15.03,60.048,11
2016,5,6,15,3,29,787146,3.4732,224.9,727.56,15.11,60.048,11
2016,5,6,15,3,29,852151,3.4707,224.7,726.56,15.07,60.048,11
2016,5,6,15,3,29,988559,3.4707,224.7,726.66,15.08,60.023999999999994,11
2016,5,6,15,3,30,53933,3.4715,224.9,727.26,15.09,60.023999999999994,11
2016,5,6,15,3,30,118349,3.4715,224.8,726.94,15.09,60.048,11
2016,5,6,15,3,30,254172,3.4691,224.7,726.22,15.18,60.048,11
2016,5,6,15,3,30,339953,3.4691,224.7,726.18,15.15,60.023999999999994,11
2016,5,6,15,3,30,457476,3.4682,224.6,725.63,15.1,59.998000000000005,11
2016,5,6,15,3,30,520984,3.4667,224.5,725.22,15.04,60.048,11
2016,5,6,15,3,30,586331,3.4667,224.5,724.93,15.13,60.048,11
2016,5,6,15,3,30,722649,3.4618,224.3,723.24,14.93,60.023999999999994,11
2016,5,6,15,3,30,786769,3.4618,224.2,723.08,15.0,60.048,11
2016,5,6,15,3,30,851373,3.4634,224.2,723.53,14.92,60.048,11
2016,5,6,15,3,30,987085,3.4667,224.4,724.75,15.02,60.023999999999994,11
2016,5,6,15,3,31,122491,3.4683,224.6,725.61,15.04,60.048,11
2016,5,6,15,3,31,187213,3.4675,224.6,725.4,15.08,60.048,11
2016,5,6,15,3,31,251581,3.4699,224.7,726.27,15.01,60.023999999999994,11
2016,5,6,15,3,31,387521,3.4715,224.7,726.68,15.17,60.048,11
2016,5,6,15,3,31,452933,3.4707,224.7,726.53,15.08,60.048,11
2016,5,6,15,3,31,518117,3.4691,224.6,725.84,15.05,60.048,11
2016,5,6,15,3,31,655244,3.4707,224.8,726.76,14.98,60.023999999999994,11
2016,5,6,15,3,31,719521,3.4699,224.7,726.27,15.1,60.048,11
2016,5,6,15,3,31,855096,3.4707,224.6,726.23,15.03,60.048,11
2016,5,6,15,3,31,919847,3.4683,224.6,725.46,14.99,60.048,11
2016,5,6,15,3,32,56085,3.4641,224.3,723.67,15.0,59.998000000000005,11
2016,5,6,15,3,32,121249,3.4659,224.4,724.67,14.93,60.048,11
2016,5,6,15,3,32,185203,3.4651,224.4,724.31,14.92,60.048,11
2016,5,6,15,3,32,320602,3.4659,224.4,724.38,15.03,60.048,11
2016,5,6,15,3,32,385381,3.4642,224.3,723.69,15.0,60.048,11
2016,5,6,15,3,32,522332,3.4626,224.2,723.27,14.98,60.048,11
2016,5,6,15,3,32,586351,3.4610000000000003,224.1,722.47,14.97,60.048,11
2016,5,6,15,3,32,722503,3.4625,224.2,723.1,15.0,59.998000000000005,11
2016,5,6,15,3,32,787412,3.4641,224.3,723.76,15.12,59.998000000000005,11
2016,5,6,15,3,32,851506,3.4659,224.4,724.47,15.07,60.023999999999994,11
2016,5,6,15,3,32,925304,3.4642,224.2,723.64,15.17,60.048,11
2016,5,6,15,3,32,988901,3.4659,224.3,724.24,15.22,60.048,11
2016,5,6,15,3,33,52791,3.4618,224.2,722.98,15.05,60.023999999999994,11
2016,5,6,15,3,33,189535,3.4610000000000003,224.0,722.34,15.16,60.048,11
2016,5,6,15,3,33,254318,3.4633,224.2,723.54,15.06,59.998000000000005,11
2016,5,6,15,3,33,318733,3.4626,224.2,723.09,15.27,60.023999999999994,11
2016,5,6,15,3,33,455814,3.4609,224.1,722.58,15.04,59.998000000000005,11
2016,5,6,15,3,33,520936,3.4610000000000003,224.0,722.29,15.19,60.023999999999994,11
2016,5,6,15,3,33,586563,3.4634,224.2,723.28,15.33,60.048,11
2016,5,6,15,3,33,788418,3.4618,224.1,722.86,15.27,60.048,11
2016,5,6,15,3,33,854006,3.4626,224.1,722.86,15.36,60.048,11
2016,5,6,15,3,33,918556,3.4610000000000003,224.0,722.36,15.32,60.048,11
2016,5,6,15,3,34,55444,3.4675,224.4,724.88,15.36,60.048,11
2016,5,6,15,3,34,120551,3.4675,224.4,724.87,15.28,60.048,11
2016,5,6,15,3,34,256823,3.4699,224.6,725.98,15.4,60.048,11
2016,5,6,15,3,34,321737,3.4715,224.7,726.5,15.41,60.048,11
2016,5,6,15,3,34,386111,3.4707,224.6,726.26,15.39,60.048,11
2016,5,6,15,3,34,522651,3.4691,224.5,725.46,15.43,60.048,11
2016,5,6,15,3,34,587985,3.4683,224.5,725.3,15.41,60.048,11
2016,5,6,15,3,34,673598,3.4675,224.4,724.88,15.42,60.048,11
2016,5,6,15,3,34,788921,3.4691,224.5,725.46,15.41,60.048,11
2016,5,6,15,3,34,852896,3.4675,224.5,725.16,15.34,60.048,11
2016,5,6,15,3,34,989803,3.4667,224.4,724.58,15.36,60.048,11
2016,5,6,15,3,35,54912,3.0812,224.7,632.56,3.62,60.048,4
2016,5,6,15,3,35,119313,3.0642,224.7,626.99,1.6,60.048,4
2016,5,6,15,3,35,256252,3.065,224.7,627.34,1.69,60.048,4
2016,5,6,15,3,35,321548,3.0634,224.6,626.65,1.73,60.048,4
2016,5,6,15,3,35,385610,3.0642,224.6,626.9,1.73,60.048,4
2016,5,6,15,3,35,522558,3.0649,224.8,627.68,1.74,59.998000000000005,4
2016,5,6,15,3,35,588330,3.0666,224.8,627.98,1.74,60.048,4
2016,5,6,15,3,35,652578,3.0674,224.9,628.39,1.73,60.048,4
2016,5,6,15,3,35,791609,3.0682,224.9,628.59,1.73,60.048,4
2016,5,6,15,3,35,856785,3.0682,224.9,628.45,1.77,60.048,4
2016,5,6,15,3,35,922161,3.0666,224.8,628.04,1.79,60.048,4
2016,5,6,15,3,35,986719,3.0674,224.9,628.45,1.82,60.048,4
2016,5,6,15,3,36,122961,3.069,225.0,629.02,1.75,60.023999999999994,4
2016,5,6,15,3,36,186938,3.0682,224.9,628.7,1.94,60.023999999999994,4
2016,5,6,15,3,36,323116,3.0642,224.7,627.14,1.75,60.048,4
2016,5,6,15,3,36,388210,3.0642,224.7,627.03,1.8,60.048,4
2016,5,6,15,3,36,452942,3.0682,225.0,628.78,1.66,60.048,4
2016,5,6,15,3,36,589514,3.0666,224.8,628.02,1.74,60.048,4
2016,5,6,15,3,36,654329,3.0682,224.9,628.58,1.74,60.048,4
2016,5,6,15,3,36,790921,3.0666,224.8,628.0,1.81,60.048,4
2016,5,6,15,3,36,859032,3.0658,224.8,627.93,1.73,60.048,4
2016,5,6,15,3,36,923442,3.0666,224.9,628.04,1.75,60.048,4
2016,5,6,15,3,36,989993,3.0674,224.9,628.2,1.76,60.048,4
2016,5,6,15,3,37,52780,3.0699,225.1,629.26,1.78,60.048,4
2016,5,6,15,3,37,189293,3.0682,225.0,628.75,1.87,60.048,4
2016,5,6,15,3,37,254629,3.0674,224.9,628.48,1.73,60.048,4
2016,5,6,15,3,37,391786,3.0658,224.8,627.77,1.84,60.048,4
2016,5,6,15,3,37,457234,3.0658,224.9,627.94,1.78,60.048,4
2016,5,6,15,3,37,521819,3.0666,224.9,628.21,1.83,60.048,4
2016,5,6,15,3,37,586444,3.0674,225.0,628.49,1.74,60.048,4
2016,5,6,15,3,37,722396,3.0642,224.7,627.06,1.81,60.048,4
2016,5,6,15,3,37,786295,3.065,224.8,627.6,1.81,60.048,4
2016,5,6,15,3,37,935826,3.0658,224.7,627.58,1.76,60.048,4
2016,5,6,15,3,37,990348,3.0642,224.7,627.09,1.72,60.048,4
2016,5,6,15,3,38,54577,3.0666,224.8,628.05,1.72,60.048,4
2016,5,6,15,3,38,119234,3.0682,225.0,628.64,1.81,60.048,4
2016,5,6,15,3,38,254810,3.069,225.0,628.96,1.72,60.048,4
2016,5,6,15,3,38,390756,3.0699,225.1,629.44,1.77,60.048,4
2016,5,6,15,3,38,455695,3.0699,225.0,629.23,1.78,60.048,4
2016,5,6,15,3,38,520444,3.0682,225.0,628.61,1.8,60.048,4
2016,5,6,15,3,38,657641,3.0699,225.1,629.33,1.91,60.048,4
2016,5,6,15,3,38,722702,3.069,225.0,628.97,1.85,60.048,4
2016,5,6,15,3,38,787003,3.0666,224.9,628.14,1.64,60.048,4
2016,5,6,15,3,38,922886,3.0658,224.8,627.82,1.83,60.074,4
2016,5,6,15,3,38,987509,3.0666,224.8,627.92,1.76,60.048,4
2016,5,6,15,3,39,59578,3.0674,224.9,628.38,1.7,60.048,4
2016,5,6,15,3,39,124883,3.0666,224.8,627.93,1.71,60.048,4
2016,5,6,15,3,39,189726,3.0666,224.8,627.96,1.82,60.048,4
2016,5,6,15,3,39,254291,3.065,224.7,627.47,1.65,60.048,4
2016,5,6,15,3,39,390486,3.065,224.7,627.28,1.8,60.048,4
2016,5,6,15,3,39,455012,3.0642,224.7,627.05,1.79,60.048,4
2016,5,6,15,3,39,519347,3.0642,224.7,627.27,1.71,60.048,4
2016,5,6,15,3,39,655783,3.0625,224.6,626.52,1.64,60.048,4
2016,5,6,15,3,39,720503,3.0617,224.5,626.09,1.75,60.048,4
2016,5,6,15,3,39,857345,3.0609,224.4,625.76,1.73,60.048,4
2016,5,6,15,3,39,921548,3.0609,224.4,625.74,1.72,60.048,4
2016,5,6,15,3,40,56836,3.0625,224.5,626.27,1.7,60.048,4
2016,5,6,15,3,40,126661,3.0634,224.6,626.78,1.81,60.048,4
2016,5,6,15,3,40,191018,3.0625,224.6,626.54,1.63,60.048,4
2016,5,6,15,3,40,255204,3.0642,224.6,626.84,1.66,60.048,4
2016,5,6,15,3,40,391173,3.065,224.7,627.54,1.84,60.048,4
2016,5,6,15,3,40,454961,3.0658,224.8,627.79,1.68,60.048,4
2016,5,6,15,3,40,591093,3.0674,224.9,628.25,1.77,60.048,4
2016,5,6,15,3,40,656129,3.0658,224.9,627.95,1.75,60.048,4
2016,5,6,15,3,40,720683,3.0666,224.8,627.98,1.78,60.048,4
2016,5,6,15,3,40,857400,3.0682,224.9,628.62,1.66,60.048,4
2016,5,6,15,3,40,922280,3.0674,224.9,628.31,1.91,60.048,4
2016,5,6,15,3,40,987352,3.0666,224.9,628.21,1.75,60.048,4
2016,5,6,15,3,41,122998,3.0674,224.8,628.19,1.66,60.048,4
2016,5,6,15,3,41,199192,3.065,224.7,627.3,1.76,60.048,4
2016,5,6,15,3,41,253553,3.0658,224.8,627.53,1.65,60.048,4
2016,5,6,15,3,41,389749,3.0667,224.8,627.93,1.67,60.098,4
2016,5,6,15,3,41,453726,3.0667,224.8,627.8,1.68,60.098,4
2016,5,6,15,3,41,590302,3.0682,224.9,628.59,1.75,60.074,4
2016,5,6,15,3,41,655333,3.069,224.9,628.66,1.65,60.074,4
2016,5,6,15,3,41,720112,3.069,225.0,628.87,1.67,60.048,4
2016,5,6,15,3,41,857399,3.0634,224.6,626.47,1.81,60.048,4
2016,5,6,15,3,41,922020,3.0634,224.6,626.77,1.68,60.048,4
2016,5,6,15,3,42,57274,3.0675,224.8,628.16,1.75,60.098,4
2016,5,6,15,3,42,122107,3.0666,224.8,627.86,1.78,60.074,4
2016,5,6,15,3,42,186524,3.0658,224.8,627.63,1.76,60.074,4
2016,5,6,15,3,42,324999,3.0659,224.6,627.31,1.79,60.098,4
2016,5,6,15,3,42,389801,3.0666,224.7,627.48,1.63,60.074,4
2016,5,6,15,3,42,453711,3.0666,224.8,628.03,1.72,60.048,4
2016,5,6,15,3,42,590525,3.0682,224.9,628.6,1.74,60.048,4
2016,5,6,15,3,42,655724,3.0682,225.0,628.78,1.66,60.048,4
2016,5,6,15,3,42,720796,3.0682,224.9,628.43,1.77,60.074,4
2016,5,6,15,3,42,857396,3.0667,224.8,627.83,1.65,60.098,4
2016,5,6,15,3,42,922171,3.0691,224.9,628.57,1.63,60.098,4
2016,5,6,15,3,42,987255,3.0651,224.7,627.11,1.68,60.098,4
2016,5,6,15,3,43,123955,3.0683,224.9,628.57,1.65,60.098,4
2016,5,6,15,3,43,189251,3.0699,225.0,629.21,1.72,60.098,4
2016,5,6,15,3,43,253204,3.0707,225.1,629.41,1.67,60.023999999999994,4
2016,5,6,15,3,43,392511,3.0682,225.0,628.93,1.63,60.048,4
2016,5,6,15,3,43,457418,3.0699,225.0,629.27,1.59,60.048,4
2016,5,6,15,3,43,522447,3.0682,224.9,628.56,1.62,60.048,4
2016,5,6,15,3,43,586326,3.0682,225.0,628.7,1.77,60.048,4
2016,5,6,15,3,43,723141,3.069,225.0,629.11,1.62,60.048,4
2016,5,6,15,3,43,788062,3.0699,225.0,629.29,1.78,60.048,4
2016,5,6,15,3,43,852714,3.069,225.0,628.99,1.68,60.048,4
2016,5,6,15,3,43,990199,3.0699,225.0,629.05,1.63,60.074,4
2016,5,6,15,3,44,55083,3.0699,225.0,629.01,1.62,60.098,4
2016,5,6,15,3,44,119944,3.0674,224.8,628.22,1.77,60.048,4
2016,5,6,15,3,44,256764,3.0643,224.7,627.2,1.65,60.098,4
2016,5,6,15,3,44,322120,3.0651,224.7,627.18,1.74,60.098,4
2016,5,6,15,3,44,386774,3.0651,224.7,627.26,1.77,60.098,4
2016,5,6,15,3,44,463282,3.0626,224.6,626.47,1.85,60.098,4
2016,5,6,15,3,44,590582,3.0643,224.6,626.95,1.76,60.098,4
2016,5,6,15,3,44,653679,3.0642,224.7,627.15,1.77,60.074,4
2016,5,6,15,3,44,790114,3.0601,224.4,625.66,1.88,60.023999999999994,4
2016,5,6,15,3,44,855274,3.0601,224.4,625.43,1.74,60.048,4
2016,5,6,15,3,44,919771,3.0617,224.5,626.02,1.9,60.048,4
2016,5,6,15,3,45,56551,3.8018,223.8,800.78,58.03,60.074,11
2016,5,6,15,3,45,121593,3.642,223.9,764.87,35.56,60.074,11
2016,5,6,15,3,45,186397,3.5673,223.8,746.8,26.49,60.074,11
2016,5,6,15,3,45,322340,3.5024,224.1,732.17,19.33,60.048,11
2016,5,6,15,3,45,386429,3.487,224.1,728.68,17.69,60.048,11
2016,5,6,15,3,45,545566,3.4732,224.4,726.14,16.05,60.048,11
2016,5,6,15,3,45,589244,3.4691,224.4,725.08,15.54,60.048,11
2016,5,6,15,3,45,654076,3.4651,224.4,724.09,15.23,60.048,11
2016,5,6,15,3,45,790957,3.4611,224.3,722.94,14.9,60.123999999999995,11
2016,5,6,15,3,45,856171,3.4626,224.4,723.61,14.97,60.048,11
2016,5,6,15,3,45,920865,3.4610000000000003,224.4,723.21,15.03,60.048,11
2016,5,6,15,3,45,985694,3.4594,224.3,722.57,14.96,60.048,11
2016,5,6,15,3,46,121486,3.4594,224.2,722.41,14.91,60.074,11
2016,5,6,15,3,46,256971,3.4611,224.3,722.82,14.97,60.098,11
2016,5,6,15,3,46,321995,3.4602,224.3,722.84,14.93,60.048,11
2016,5,6,15,3,46,386787,3.4610000000000003,224.3,722.95,14.9,60.048,11
2016,5,6,15,3,46,523372,3.4626,224.4,723.74,14.86,60.048,11
2016,5,6,15,3,46,587929,3.4651,224.6,724.82,14.99,60.048,11
2016,5,6,15,3,46,656701,3.4691,224.8,726.31,15.01,60.048,11
2016,5,6,15,3,46,720425,3.4699,224.8,726.38,15.07,60.048,11
2016,5,6,15,3,46,789684,3.4683,224.7,725.9,15.04,60.048,11
2016,5,6,15,3,46,852998,3.4691,224.7,726.11,14.99,60.048,11
2016,5,6,15,3,46,988810,3.4642,224.5,724.23,14.85,60.074,11
2016,5,6,15,3,47,53634,3.4652,224.5,724.64,14.95,60.098,11
2016,5,6,15,3,47,189897,3.4691,224.7,725.86,14.84,60.074,11
2016,5,6,15,3,47,255298,3.4691,224.8,726.17,14.78,60.048,11
2016,5,6,15,3,47,320244,3.4683,224.7,725.69,14.94,60.048,11
2016,5,6,15,3,47,385720,3.4667,224.6,725.03,14.9,60.048,11
2016,5,6,15,3,47,521757,3.4684,224.7,725.67,14.85,60.098,11
2016,5,6,15,3,47,585545,3.4684,224.6,725.49,14.95,60.098,11
2016,5,6,15,3,47,725461,3.4684,224.5,725.27,14.98,60.098,11
2016,5,6,15,3,47,790006,3.4676,224.6,725.3,14.94,60.098,11
2016,5,6,15,3,47,854600,3.4668,224.4,724.78,14.93,60.098,11
2016,5,6,15,3,47,918896,3.4667,224.5,724.8,14.95,60.048,11
2016,5,6,15,3,48,55801,3.4683,224.6,725.6,15.05,60.048,11
2016,5,6,15,3,48,120791,3.4691,224.6,725.75,15.12,60.048,11
2016,5,6,15,3,48,185833,3.4707,224.7,726.19,15.14,60.048,11
2016,5,6,15,3,48,321336,3.4683,224.6,725.55,15.25,60.048,11
2016,5,6,15,3,48,385265,3.4684,224.5,725.3,15.18,60.098,11
2016,5,6,15,3,48,521339,3.4691,224.6,725.79,15.2,60.048,11
2016,5,6,15,3,48,586085,3.4683,224.4,725.08,15.23,60.074,11
2016,5,6,15,3,48,722640,3.4699,224.6,725.86,15.14,60.048,11
2016,5,6,15,3,48,815658,3.4707,224.6,726.03,15.25,60.048,11
2016,5,6,15,3,48,921710,3.4691,224.6,725.64,15.29,60.048,11
2016,5,6,15,3,48,985234,3.4675,224.5,725.05,15.34,60.074,11
2016,5,6,15,3,49,122101,3.4659,224.3,724.1,15.25,60.048,11
2016,5,6,15,3,49,186122,3.4651,224.2,723.72,15.26,60.074,11
2016,5,6,15,3,49,321818,3.4626,224.1,722.99,15.27,60.048,11
2016,5,6,15,3,49,386704,3.4634,224.1,723.18,15.24,60.048,11
2016,5,6,15,3,49,522618,3.4626,224.1,722.82,15.35,60.048,11
2016,5,6,15,3,49,586963,3.4642,224.2,723.44,15.34,60.048,11
2016,5,6,15,3,49,723189,3.4651,224.2,723.6,15.31,60.074,11
2016,5,6,15,3,49,788167,3.4642,224.1,723.1,15.38,60.074,11
2016,5,6,15,3,49,852222,3.4651,224.2,723.74,15.3,60.048,11
2016,5,6,15,3,49,921461,3.4651,224.2,723.77,15.32,60.074,11
2016,5,6,15,3,49,985394,3.4642,224.1,723.14,15.32,60.074,11
2016,5,6,15,3,50,121161,3.4642,224.2,723.42,15.39,60.048,11
2016,5,6,15,3,50,184965,3.4635,224.0,722.83,15.41,60.123999999999995,11
2016,5,6,15,3,50,321331,3.4626,224.0,722.43,15.4,60.074,11
2016,5,6,15,3,50,386148,3.4651,224.1,723.36,15.44,60.074,11
2016,5,6,15,3,50,521825,3.4667,224.2,724.21,15.54,60.048,11
2016,5,6,15,3,50,585598,3.4683,224.3,724.75,15.68,60.048,11
2016,5,6,15,3,50,721355,3.4668,224.2,723.98,15.53,60.098,11
2016,5,6,15,3,50,786389,3.4643,224.1,723.29,15.59,60.098,11
2016,5,6,15,3,50,922351,3.4684,224.3,724.58,15.49,60.098,11
2016,5,6,15,3,50,989441,3.466,224.2,724.05,15.41,60.098,11
2016,5,6,15,3,51,54108,3.4652,224.1,723.44,15.54,60.098,11
2016,5,6,15,3,51,119448,3.4659,224.1,723.68,15.61,60.074,11
2016,5,6,15,3,51,254596,3.4659,224.2,723.77,15.61,60.048,11
2016,5,6,15,3,51,318562,3.4691,224.3,724.92,15.62,60.048,11
2016,5,6,15,3,51,455665,3.4659,224.2,723.83,15.71,60.048,11
2016,5,6,15,3,51,520995,3.4634,224.0,722.73,15.78,60.048,11
2016,5,6,15,3,51,585358,3.4659,224.1,723.76,15.61,60.048,11
2016,5,6,15,3,51,722108,3.4642,224.1,723.2,15.58,60.048,11
2016,5,6,15,3,51,786901,3.4642,224.0,723.05,15.54,60.048,11
2016,5,6,15,3,51,851673,3.4675,224.2,724.19,15.54,60.048,11
2016,5,6,15,3,51,987444,3.4667,224.2,723.97,15.48,60.048,11
2016,5,6,15,3,52,66799,3.4642,224.0,723.09,15.49,60.048,11
2016,5,6,15,3,52,121377,3.4667,224.2,724.2,15.55,60.048,11
2016,5,6,15,3,52,186707,3.4659,224.1,723.55,15.53,60.048,11
2016,5,6,15,3,52,321787,3.4667,224.2,724.15,15.5,60.048,11
2016,5,6,15,3,52,385507,3.4651,224.1,723.17,15.4,60.048,11
2016,5,6,15,3,52,521303,3.4659,224.1,723.53,15.54,60.048,11
2016,5,6,15,3,52,586313,3.4675,224.2,724.11,15.49,60.048,11
2016,5,6,15,3,52,722121,3.4675,224.2,724.1,15.54,60.048,11
2016,5,6,15,3,52,785889,3.4683,224.2,724.46,15.58,60.048,11
2016,5,6,15,3,52,921705,3.4667,224.2,723.95,15.49,60.048,11
2016,5,6,15,3,52,986556,3.4699,224.3,725.09,15.52,60.048,11
2016,5,6,15,3,53,145336,3.4691,224.2,724.68,15.53,60.048,11
2016,5,6,15,3,53,188907,3.4659,224.1,723.43,15.5,60.048,11
2016,5,6,15,3,53,253665,3.4651,224.1,723.33,15.37,60.048,11
2016,5,6,15,3,53,388534,3.4642,224.0,723.02,15.45,60.048,11
2016,5,6,15,3,53,452559,3.4659,224.1,723.56,15.5,60.048,11
2016,5,6,15,3,53,588820,3.4699,224.4,725.27,15.56,60.023999999999994,11
2016,5,6,15,3,53,654168,3.4667,224.1,723.95,15.68,60.048,11
2016,5,6,15,3,53,718712,3.4667,224.1,723.7,15.58,60.048,11
2016,5,6,15,3,53,855641,3.4698,224.3,725.16,15.62,59.998000000000005,11
2016,5,6,15,3,53,920774,3.4699,224.3,724.99,15.56,60.048,11
2016,5,6,15,3,53,985373,3.4707,224.4,725.37,15.74,60.048,11
2016,5,6,15,3,54,121986,3.4732,224.5,726.23,15.7,60.048,11
2016,5,6,15,3,54,187006,3.4724,224.4,726.08,15.74,60.023999999999994,11
2016,5,6,15,3,54,255281,3.4715,224.3,725.6,15.72,60.048,11
2016,5,6,15,3,54,318780,3.4715,224.4,725.7,15.71,60.023999999999994,11
2016,5,6,15,3,54,454595,3.4732,224.5,726.32,15.75,60.048,11
2016,5,6,15,3,54,519894,3.4714,224.4,725.71,15.7,59.998000000000005,11
2016,5,6,15,3,54,656239,3.4748,224.6,727.07,15.72,60.023999999999994,11
2016,5,6,15,3,54,720977,3.4732,224.5,726.52,15.84,60.048,11
2016,5,6,15,3,54,785419,3.4707,224.3,725.4,15.63,60.048,11
2016,5,6,15,3,54,921347,3.4715,224.3,725.63,15.69,60.048,11
2016,5,6,15,3,54,986071,3.4707,224.3,725.38,15.64,60.048,11
2016,5,6,15,3,55,122085,3.4748,224.6,726.85,15.81,60.048,11
2016,5,6,15,3,55,185980,3.4764,224.7,727.63,15.85,60.048,11
2016,5,6,15,3,55,324773,3.4739999999999998,224.6,726.93,15.81,60.023999999999994,11
2016,5,6,15,3,55,389823,3.4764,224.6,727.47,15.89,60.048,11
2016,5,6,15,3,55,454555,3.4764,224.6,727.4,15.91,60.048,11
2016,5,6,15,3,55,590370,3.4763,224.7,727.62,15.76,59.998000000000005,11
2016,5,6,15,3,55,654917,3.4763,224.7,727.84,15.87,59.998000000000005,11
2016,5,6,15,3,55,719609,3.4747,224.6,727.25,15.85,59.998000000000005,11
2016,5,6,15,3,55,856554,3.4772,224.7,727.7,15.8,60.048,11
2016,5,6,15,3,55,921481,3.4764,224.6,727.53,15.78,60.048,11
2016,5,6,15,3,55,986101,3.4772,224.7,727.95,15.82,60.048,11
2016,5,6,15,3,56,124424,3.4748,224.7,727.22,15.75,60.023999999999994,11
2016,5,6,15,3,56,189602,3.4732,224.5,726.39,15.68,60.048,11
2016,5,6,15,3,56,253838,3.4748,224.6,726.99,15.68,60.048,11
2016,5,6,15,3,56,401621,3.4715,224.4,725.7,15.66,60.048,11
2016,5,6,15,3,56,455771,3.4699,224.3,724.91,15.66,60.023999999999994,11
2016,5,6,15,3,56,521149,3.4675,224.2,724.03,15.66,60.023999999999994,11
2016,5,6,15,3,56,655847,3.4724,224.4,725.74,15.79,60.048,11
2016,5,6,15,3,56,720486,3.4706,224.3,725.4,15.82,59.998000000000005,11
2016,5,6,15,3,56,857070,3.4715,224.4,725.63,15.61,60.048,11
2016,5,6,15,3,56,922108,3.4699,224.2,725.05,15.64,60.048,11
2016,5,6,15,3,56,986962,3.4683,224.2,724.38,15.42,60.048,11
2016,5,6,15,3,57,123425,3.4682,224.1,724.19,15.57,59.998000000000005,11
2016,5,6,15,3,57,188218,3.4674,224.1,724.24,15.48,59.998000000000005,11
2016,5,6,15,3,57,252838,3.4666,224.1,723.59,15.51,59.998000000000005,11
2016,5,6,15,3,57,326575,3.4641,223.9,722.53,15.35,59.998000000000005,11
2016,5,6,15,3,57,390181,3.4625,223.8,722.02,15.6,59.998000000000005,11
2016,5,6,15,3,57,453931,3.4659,223.9,723.19,15.46,60.023999999999994,11
2016,5,6,15,3,57,522770,3.4667,224.0,723.6,15.49,60.048,11
2016,5,6,15,3,57,588436,3.4683,224.1,723.91,15.57,60.048,11
2016,5,6,15,3,57,723710,3.4683,224.1,724.11,15.45,60.048,11
2016,5,6,15,3,57,789243,3.4675,224.0,723.73,15.54,60.048,11
2016,5,6,15,3,57,854162,3.4691,224.1,724.4,15.54,60.048,11
2016,5,6,15,3,57,989756,3.4732,224.3,725.86,15.66,60.048,11
2016,5,6,15,3,58,53622,3.4732,224.4,726.02,15.77,60.048,11
2016,5,6,15,3,58,189941,3.4722,224.3,725.87,15.74,59.998000000000005,11
2016,5,6,15,3,58,254922,3.4732,224.5,726.41,15.63,60.023999999999994,11
2016,5,6,15,3,58,319972,3.4739999999999998,224.4,726.34,15.62,60.048,11
2016,5,6,15,3,58,457806,3.4739999999999998,224.4,726.37,15.71,60.048,11
2016,5,6,15,3,58,522360,3.4739999999999998,224.5,726.54,15.63,60.048,11
2016,5,6,15,3,58,592061,3.4756,224.5,726.99,15.74,60.048,11
2016,5,6,15,3,58,656697,3.4739999999999998,224.5,726.6,15.66,60.023999999999994,11
2016,5,6,15,3,58,720155,3.4707,224.3,725.25,15.66,60.023999999999994,11
2016,5,6,15,3,58,855729,3.4714,224.3,725.51,15.83,59.998000000000005,11
2016,5,6,15,3,58,920915,3.2735,224.6,676.15,8.98,60.023999999999994,11
2016,5,6,15,3,59,58042,3.0625,224.6,626.6,1.79,59.998000000000005,4
2016,5,6,15,3,59,122929,3.0641,224.6,626.85,1.65,59.998000000000005,4
2016,5,6,15,3,59,187774,3.0673,224.8,628.12,1.61,59.998000000000005,4
2016,5,6,15,3,59,324174,3.0657,224.7,627.47,1.77,59.998000000000005,4
2016,5,6,15,3,59,389241,3.0681,224.9,628.48,1.77,59.998000000000005,4
2016,5,6,15,3,59,525150,3.0682,224.9,628.41,1.82,60.023999999999994,4
2016,5,6,15,3,59,588841,3.0699,224.9,628.92,1.78,60.048,4
2016,5,6,15,3,59,667801,3.0707,225.0,629.26,1.7,60.048,4
2016,5,6,15,3,59,721521,3.0715,225.0,629.53,1.79,60.048,4
2016,5,6,15,3,59,857871,3.0707,225.0,629.31,1.75,60.048,4
2016,5,6,15,3,59,922776,3.069,225.0,628.92,1.68,60.048,4
2016,5,6,15,3,59,987260,3.0699,225.0,629.18,1.85,60.048,4
2016,5,6,15,4,0,125657,3.0723,225.2,630.13,1.75,60.023999999999994,4
2016,5,6,15,4,0,190776,3.0698,225.1,629.36,1.78,59.998000000000005,4
2016,5,6,15,4,0,254955,3.0715,225.2,629.94,1.72,60.048,4
2016,5,6,15,4,0,392038,3.0674,224.9,628.3,1.84,60.048,4
2016,5,6,15,4,0,456493,3.0682,225.0,628.76,1.88,60.023999999999994,4
2016,5,6,15,4,0,592050,3.0665,224.9,628.28,1.81,59.998000000000005,4
2016,5,6,15,4,0,657170,3.0689,225.1,629.1,1.76,59.998000000000005,4
2016,5,6,15,4,0,721757,3.0698,225.1,629.46,1.8,59.998000000000005,4
2016,5,6,15,4,0,859780,3.0681,224.9,628.55,1.85,59.998000000000005,4
2016,5,6,15,4,0,923624,3.0699,225.1,629.16,1.79,60.023999999999994,4
2016,5,6,15,4,0,988286,3.069,225.0,628.82,1.87,60.048,4
2016,5,6,15,4,1,124310,3.0707,225.1,629.45,1.7,60.048,4
2016,5,6,15,4,1,188221,3.0739,225.3,630.72,1.67,60.048,4
2016,5,6,15,4,1,324027,3.073,225.3,630.71,1.8,59.998000000000005,4
2016,5,6,15,4,1,389727,3.0722,225.2,630.13,1.84,59.998000000000005,4
2016,5,6,15,4,1,526916,3.0722,225.3,630.38,1.83,59.998000000000005,4
2016,5,6,15,4,1,591860,3.0738,225.4,630.82,1.88,59.998000000000005,4
2016,5,6,15,4,1,656266,3.073,225.3,630.5,1.89,59.998000000000005,4
2016,5,6,15,4,1,791656,3.0715,225.2,630.04,1.68,60.048,4
2016,5,6,15,4,1,858621,3.0699,225.0,629.08,1.73,60.048,4
2016,5,6,15,4,1,923361,3.0707,225.1,629.6,1.79,60.048,4
2016,5,6,15,4,1,988317,3.0731,225.3,630.61,1.79,60.023999999999994,4
2016,5,6,15,4,2,62390,3.0739,225.3,630.59,1.82,60.048,4
2016,5,6,15,4,2,127526,3.0714,225.2,630.06,1.85,59.998000000000005,4
2016,5,6,15,4,2,191872,3.0698,225.1,629.35,1.87,59.998000000000005,4
2016,5,6,15,4,2,256219,3.0722,225.3,630.41,1.76,59.998000000000005,4
2016,5,6,15,4,2,392056,3.0754,225.4,631.33,1.88,59.998000000000005,4
2016,5,6,15,4,2,456232,3.0763,225.5,631.91,1.75,59.998000000000005,4
2016,5,6,15,4,2,592618,3.0747,225.5,631.43,1.89,60.074,4
2016,5,6,15,4,2,657534,3.0754,225.4,631.35,1.87,59.998000000000005,4
2016,5,6,15,4,2,722928,3.0754,225.5,631.52,1.86,59.998000000000005,4
2016,5,6,15,4,2,859634,3.0763,225.5,631.68,1.77,60.048,4
2016,5,6,15,4,2,925436,3.0739,225.3,630.61,1.84,60.048,4
2016,5,6,15,4,2,990004,3.0731,225.3,630.6,1.9,60.048,4
2016,5,6,15,4,3,126934,3.0723,225.3,630.34,1.83,60.048,4
2016,5,6,15,4,3,191892,3.0715,225.2,630.02,1.77,60.048,4
2016,5,6,15,4,3,256383,3.0715,225.1,629.8,1.82,60.048,4
2016,5,6,15,4,3,393470,3.0707,225.1,629.46,1.8,60.048,4
2016,5,6,15,4,3,458109,3.0689,225.2,629.36,1.92,59.972,4
2016,5,6,15,4,3,522639,3.0722,225.2,630.13,1.91,59.998000000000005,4
2016,5,6,15,4,3,659321,3.0681,225.0,628.87,1.82,59.998000000000005,4
2016,5,6,15,4,3,724137,3.0689,225.0,629.08,1.74,59.998000000000005,4
2016,5,6,15,4,3,859834,3.0689,225.0,628.98,1.92,59.998000000000005,4
2016,5,6,15,4,3,923534,3.0665,224.9,628.14,1.75,59.998000000000005,4
2016,5,6,15,4,4,12600,3.0658,224.8,627.67,1.85,60.048,4
2016,5,6,15,4,4,56078,3.065,224.8,627.4,1.88,60.048,4
2016,5,6,15,4,4,192829,3.0642,224.7,627.06,1.79,60.048,4
2016,5,6,15,4,4,257975,3.0625,224.6,626.53,1.71,60.048,4
2016,5,6,15,4,4,394087,3.0625,224.6,626.47,1.71,60.048,4
2016,5,6,15,4,4,459038,3.0625,224.6,626.38,1.68,60.048,4
2016,5,6,15,4,4,524281,3.0634,224.7,626.81,1.76,60.048,4
2016,5,6,15,4,4,659539,3.0634,224.6,626.8,1.79,60.048,4
2016,5,6,15,4,4,723405,3.0634,224.6,626.72,1.72,60.048,4
2016,5,6,15,4,4,859725,3.0616,224.6,626.38,1.78,59.998000000000005,4
2016,5,6,15,4,4,924431,3.0617,224.5,626.09,1.73,60.023999999999994,4
2016,5,6,15,4,5,60412,3.0617,224.5,626.05,1.76,60.023999999999994,4
2016,5,6,15,4,5,127773,3.0616,224.5,626.12,1.79,59.998000000000005,4
2016,5,6,15,4,5,192366,3.0634,224.6,626.65,1.8,60.023999999999994,4
2016,5,6,15,4,5,256625,3.0634,224.5,626.4,1.85,60.048,4
2016,5,6,15,4,5,392729,3.0641,224.7,626.91,1.69,59.998000000000005,4
2016,5,6,15,4,5,457687,3.0633,224.7,626.76,1.82,59.998000000000005,4
2016,5,6,15,4,5,593973,3.0657,224.7,627.41,1.81,59.998000000000005,4
2016,5,6,15,4,5,658570,3.0657,224.8,627.6,1.68,59.998000000000005,4
2016,5,6,15,4,5,723280,3.0665,224.8,627.89,1.86,59.998000000000005,4
2016,5,6,15,4,5,859683,3.0674,224.8,627.84,1.84,60.048,4
2016,5,6,15,4,5,924381,3.0682,224.9,628.34,1.93,60.048,4
2016,5,6,15,4,6,60452,3.069,224.9,628.63,1.86,60.048,4
2016,5,6,15,4,6,124612,3.0707,225.0,629.18,1.87,60.048,4
2016,5,6,15,4,6,192683,3.0699,225.0,629.17,1.79,60.048,4
2016,5,6,15,4,6,257374,3.0715,225.1,629.6,1.81,60.048,4
2016,5,6,15,4,6,393447,3.0715,225.2,630.01,1.83,60.048,4
2016,5,6,15,4,6,457328,3.0706,225.2,629.77,1.79,59.998000000000005,4
2016,5,6,15,4,6,594103,3.0699,225.1,629.32,1.85,60.048,4
2016,5,6,15,4,6,659075,3.0689,225.1,629.12,1.84,59.998000000000005,4
2016,5,6,15,4,6,723946,3.0666,224.9,628.23,1.77,60.048,4
2016,5,6,15,4,6,860682,3.0682,225.0,628.85,1.87,60.048,4
2016,5,6,15,4,6,925531,3.0682,225.0,628.85,1.74,60.048,4
2016,5,6,15,4,7,61446,3.0707,225.1,629.57,1.71,60.048,4
2016,5,6,15,4,7,125225,3.0707,225.1,629.45,1.75,60.048,4
2016,5,6,15,4,7,266617,3.0707,225.2,629.88,1.79,60.048,4
2016,5,6,15,4,7,394075,3.0707,225.2,629.79,1.81,60.048,4
2016,5,6,15,4,7,458396,3.0715,225.2,630.06,1.91,60.048,4
2016,5,6,15,4,7,523656,3.0699,225.2,629.57,1.81,60.048,4
2016,5,6,15,4,7,660204,3.069,225.1,629.09,1.76,60.048,4
2016,5,6,15,4,7,725072,3.0707,225.1,629.6,1.75,60.048,4
2016,5,6,15,4,7,861293,3.0715,225.2,629.88,1.72,60.048,4
2016,5,6,15,4,7,925449,3.0715,225.2,629.98,1.91,60.048,4
2016,5,6,15,4,8,62190,3.0731,225.4,630.69,1.82,60.074,4
2016,5,6,15,4,8,127134,3.0724,225.2,630.27,1.85,60.098,4
2016,5,6,15,4,8,191613,3.0739,225.4,631.07,1.79,60.074,4
2016,5,6,15,4,8,354244,3.0731,225.3,630.69,1.76,60.048,4
2016,5,6,15,4,8,461604,3.0715,225.2,630.07,1.85,60.048,4
2016,5,6,15,4,8,525775,3.0707,225.2,629.84,1.9,60.074,4
2016,5,6,15,4,8,590964,3.0707,225.1,629.55,1.88,60.074,4
2016,5,6,15,4,8,728101,3.0707,225.2,629.86,1.85,60.048,4
2016,5,6,15,4,8,793192,3.069,225.0,629.01,1.79,60.048,4
2016,5,6,15,4,8,857966,3.0691,225.0,629.06,1.75,60.098,4
2016,5,6,15,4,8,994404,3.0699,225.1,629.44,1.76,60.048,4
2016,5,6,15,4,9,58992,3.0699,225.0,629.27,1.86,60.074,4
2016,5,6,15,4,9,194633,3.0708,225.1,629.51,1.82,60.098,4
2016,5,6,15,4,9,258869,3.0724,225.1,629.94,1.84,60.098,4
2016,5,6,15,4,9,395970,3.0724,225.3,630.33,1.79,60.098,4
2016,5,6,15,4,9,463083,3.0731,225.3,630.5,1.82,60.074,4
2016,5,6,15,4,9,526906,3.0707,225.2,629.76,1.75,60.048,4
2016,5,6,15,4,9,590625,3.0739,225.4,630.91,1.75,60.048,4
2016,5,6,15,4,9,664334,3.0739,225.4,631.01,1.76,60.048,4
2016,5,6,15,4,9,728484,3.0739,225.4,630.91,1.77,60.048,4
2016,5,6,15,4,9,792319,3.0747,225.4,631.22,1.81,60.048,4
2016,5,6,15,4,9,928708,3.0732,225.3,630.52,1.81,60.098,4
2016,5,6,15,4,9,993696,3.0732,225.3,630.58,1.82,60.098,4
2016,5,6,15,4,10,58240,3.0739,225.3,630.9,1.8,60.074,4
2016,5,6,15,4,10,194561,3.0731,225.4,630.92,1.74,60.048,4
2016,5,6,15,4,10,259183,3.0731,225.4,630.71,1.86,60.048,4
2016,5,6,15,4,10,395301,3.0723,225.3,630.19,1.83,60.048,4
2016,5,6,15,4,10,460508,3.0707,225.2,629.88,1.93,60.048,4
2016,5,6,15,4,10,528086,3.0723,225.3,630.15,1.74,60.048,4
2016,5,6,15,4,10,592225,3.0715,225.3,630.24,1.86,60.048,4
2016,5,6,15,4,10,728887,3.0691,225.1,629.21,1.82,60.123999999999995,4
2016,5,6,15,4,10,792745,3.0716,225.1,629.78,1.86,60.098,4
2016,5,6,15,4,10,928078,3.0708,225.1,629.68,1.78,60.098,4
2016,5,6,15,4,10,993138,3.0699,225.1,629.27,1.71,60.098,4
2016,5,6,15,4,11,57997,3.0723,225.3,630.32,1.67,60.074,4
2016,5,6,15,4,11,195110,3.0715,225.3,630.05,1.6,60.048,4
2016,5,6,15,4,11,260088,3.0731,225.4,630.68,1.82,60.048,4
2016,5,6,15,4,11,324924,3.0739,225.5,631.19,1.85,60.048,4
2016,5,6,15,4,11,461495,3.0732,225.3,630.58,1.81,60.098,4
2016,5,6,15,4,11,526752,3.0716,225.2,629.88,1.83,60.098,4
2016,5,6,15,4,11,614534,3.0724,225.2,630.11,1.77,60.098,4
2016,5,6,15,4,11,657491,3.0716,225.2,629.81,1.67,60.098,4
2016,5,6,15,4,11,725100,3.0699,225.1,629.26,1.84,60.098,4
2016,5,6,15,4,11,860305,3.0707,225.1,629.56,1.87,60.048,4
2016,5,6,15,4,11,925243,3.069,225.1,628.94,1.91,60.048,4
2016,5,6,15,4,12,60954,3.0707,225.2,629.67,1.8,60.048,4
2016,5,6,15,4,12,124911,3.0723,225.4,630.49,1.71,60.048,4
2016,5,6,15,4,12,260702,3.0723,225.3,630.41,1.86,60.074,4
2016,5,6,15,4,12,325446,3.074,225.4,630.93,1.75,60.098,4
2016,5,6,15,4,12,462290,3.0716,225.2,630.0,1.71,60.098,4
2016,5,6,15,4,12,527748,3.0716,225.2,629.93,1.75,60.098,4
2016,5,6,15,4,12,592197,3.0732,225.4,630.76,1.89,60.098,4
2016,5,6,15,4,12,729754,3.0715,225.3,630.19,1.73,60.048,4
2016,5,6,15,4,12,794438,3.0724,225.3,630.39,1.76,60.098,4
2016,5,6,15,4,12,859186,3.0724,225.3,630.27,1.77,60.098,4
2016,5,6,15,4,12,995676,3.0699,225.1,629.34,1.84,60.098,4
2016,5,6,15,4,13,60739,3.0707,225.3,630.06,1.75,60.048,4
2016,5,6,15,4,13,124942,3.0732,225.3,630.34,1.82,60.098,4
2016,5,6,15,4,13,260352,3.0715,225.3,630.14,1.77,60.074,4
2016,5,6,15,4,13,324577,3.0748,225.4,630.99,1.79,60.098,4
2016,5,6,15,4,13,460710,3.0739,225.4,631.1,1.7,60.074,4
2016,5,6,15,4,13,524700,3.0731,225.3,630.71,1.77,60.048,4
2016,5,6,15,4,13,660548,3.0715,225.3,630.1,1.83,60.048,4
2016,5,6,15,4,13,725322,3.0707,225.2,629.8,1.86,60.048,4
