Year,Month,Day,Hour,Minute,Second,Millisecond,Current,Voltage,ActivePwr,ReactvPwr,Frequency,State
2016,5,6,15,44,37,232099,5.5295,223.9,1239.47,2.46,60.023999999999994,5
2016,5,6,15,44,37,296901,5.5303,223.9,1239.93,2.45,60.048,5
2016,5,6,15,44,37,369469,5.5279,223.9,1239.01,2.44,60.048,5
2016,5,6,15,44,37,431184,5.5295,223.9,1239.68,2.49,60.048,5
2016,5,6,15,44,37,566507,5.5254,223.8,1237.92,2.39,60.048,5
2016,5,6,15,44,37,631463,5.5254,223.8,1238.0,2.43,60.048,5
2016,5,6,15,44,37,767354,5.5238,223.7,1237.52,2.44,60.048,5
2016,5,6,15,44,37,831700,5.5254,223.8,1238.24,2.43,60.048,5
2016,5,6,15,44,37,968073,5.5246,223.8,1238.03,2.43,60.023999999999994,5
2016,5,6,15,44,38,33511,5.5287,224.0,1239.75,2.46,60.023999999999994,5
2016,5,6,15,44,38,98199,5.5263,223.9,1238.95,2.32,60.048,5
2016,5,6,15,44,38,237586,5.5269,224.0,1239.4,2.52,59.998000000000005,5
2016,5,6,15,44,38,302827,5.5279,224.0,1239.71,2.46,60.023999999999994,5
2016,5,6,15,44,38,367417,5.5271,224.0,1239.56,2.4,60.048,5
2016,5,6,15,44,38,500425,5.5279,224.0,1239.88,2.5,60.048,5
2016,5,6,15,44,38,565464,5.5271,224.0,1239.51,2.43,60.048,5
2016,5,6,15,44,38,630009,5.5261,224.0,1239.22,2.55,59.998000000000005,5
2016,5,6,15,44,38,766879,5.5108,223.4,1232.58,2.47,60.048,5
2016,5,6,15,44,38,832121,5.5133,223.5,1233.44,2.46,60.048,5
2016,5,6,15,44,38,896415,5.5173,223.6,1235.31,2.42,60.048,5
2016,5,6,15,44,39,32151,5.5181,223.7,1235.84,2.51,60.048,5
2016,5,6,15,44,39,96551,5.5238,223.9,1238.22,2.49,60.048,5
2016,5,6,15,44,39,232833,5.5254,224.0,1239.36,2.45,60.048,5
2016,5,6,15,44,39,308454,5.5222,223.9,1237.75,2.48,60.048,5
2016,5,6,15,44,39,435795,5.5238,223.9,1238.63,2.45,60.048,5
2016,5,6,15,44,39,499179,5.5222,223.9,1237.92,2.45,60.048,5
2016,5,6,15,44,39,634254,5.5181,223.7,1236.24,2.4,60.048,5
2016,5,6,15,44,39,699200,5.5198,223.8,1236.92,2.43,60.048,5
2016,5,6,15,44,39,764350,5.5206,223.8,1237.35,2.46,60.048,5
2016,5,6,15,44,39,901793,5.5238,224.0,1238.65,2.44,60.048,5
2016,5,6,15,44,39,966844,5.5238,224.0,1238.89,2.46,60.048,5
2016,5,6,15,44,40,31475,5.5222,223.9,1237.97,2.51,60.048,5
2016,5,6,15,44,40,168036,5.5214,223.9,1237.79,2.52,60.048,5
2016,5,6,15,44,40,232809,5.5246,224.1,1239.44,2.46,60.048,5
2016,5,6,15,44,40,296907,5.5246,224.0,1239.26,2.47,60.048,5
2016,5,6,15,44,40,434505,5.5238,224.0,1238.91,2.52,60.048,5
2016,5,6,15,44,40,499328,5.5246,224.0,1239.29,2.47,60.048,5
2016,5,6,15,44,40,565050,5.5246,224.1,1239.53,2.5,60.048,5
2016,5,6,15,44,40,700507,6.3451,223.5,1417.67,64.64,60.048,12
2016,5,6,15,44,40,765113,6.1479,223.2,1373.19,38.13,60.048,12
2016,5,6,15,44,40,829778,6.0708,223.4,1357.58,28.18,60.048,12
2016,5,6,15,44,40,966790,5.9856,223.2,1337.32,19.99,60.048,12
2016,5,6,15,44,41,31826,5.9645,223.2,1332.58,18.22,60.074,12
2016,5,6,15,44,41,96350,5.949,223.1,1328.48,16.95,60.048,12
2016,5,6,15,44,41,232013,5.9377,223.2,1326.74,15.98,60.048,12
2016,5,6,15,44,41,297532,5.9377,223.3,1327.21,15.71,60.048,12
2016,5,6,15,44,41,434238,5.9417,223.5,1329.87,15.52,60.074,12
2016,5,6,15,44,41,498516,5.9409,223.5,1329.19,15.5,60.048,12
2016,5,6,15,44,41,563481,5.9385,223.4,1328.43,15.47,60.048,12
2016,5,6,15,44,41,699706,5.9411,223.4,1328.96,15.49,60.098,12
2016,5,6,15,44,41,764882,5.9419,223.5,1329.41,15.65,60.098,12
2016,5,6,15,44,41,829819,5.9427,223.5,1329.45,15.78,60.098,12
2016,5,6,15,44,41,967099,5.9426,223.4,1329.24,16.0,60.048,12
2016,5,6,15,44,42,32326,5.9442,223.4,1329.32,16.18,60.048,12
2016,5,6,15,44,42,96455,5.9474,223.5,1330.8,16.36,60.048,12
2016,5,6,15,44,42,232158,5.9515,223.6,1332.08,16.45,60.074,12
2016,5,6,15,44,42,297142,5.9474,223.4,1330.01,16.47,60.074,12
2016,5,6,15,44,42,432788,5.9507,223.5,1331.31,16.72,60.048,12
2016,5,6,15,44,42,496597,5.9507,223.4,1331.05,16.71,60.048,12
2016,5,6,15,44,42,578339,5.9507,223.4,1331.01,16.88,60.048,12
2016,5,6,15,44,42,632490,5.9499,223.3,1330.56,16.8,60.048,12
2016,5,6,15,44,42,696591,5.946000000000001,223.2,1328.44,16.87,60.123999999999995,12
2016,5,6,15,44,42,832192,5.9482,223.2,1329.19,16.99,60.048,12
2016,5,6,15,44,42,896684,5.949,223.2,1329.62,17.12,60.048,12
2016,5,6,15,44,43,33407,5.949,223.2,1329.27,17.18,60.048,12
2016,5,6,15,44,43,98147,5.9492,223.2,1329.29,17.16,60.098,12
2016,5,6,15,44,43,163179,5.9474,223.1,1328.42,17.23,60.048,12
2016,5,6,15,44,43,300127,5.9555,223.4,1331.97,17.39,60.074,12
2016,5,6,15,44,43,365154,5.9549,223.3,1331.22,17.23,60.098,12
2016,5,6,15,44,43,429908,5.9531,223.3,1330.69,17.42,60.048,12
2016,5,6,15,44,43,566072,5.9565,223.3,1331.72,17.38,60.098,12
2016,5,6,15,44,43,630549,5.9541,223.3,1330.95,17.42,60.098,12
2016,5,6,15,44,43,699304,5.9582,223.4,1332.61,17.51,60.098,12
2016,5,6,15,44,43,764403,5.9606,223.4,1333.22,17.6,60.098,12
2016,5,6,15,44,43,828554,5.9596,223.4,1332.79,17.51,60.074,12
2016,5,6,15,44,43,901961,5.9596,223.4,1332.94,17.69,60.048,12
2016,5,6,15,44,43,966706,5.9604,223.4,1333.25,17.75,60.048,12
2016,5,6,15,44,44,31158,5.9612,223.5,1333.7,17.76,60.048,12
2016,5,6,15,44,44,95192,5.9612,223.5,1333.64,17.92,60.048,12
2016,5,6,15,44,44,230748,5.9614,223.4,1333.46,17.79,60.098,12
2016,5,6,15,44,44,295153,5.9614,223.4,1333.3,17.71,60.098,12
2016,5,6,15,44,44,431606,5.9622,223.5,1333.88,17.68,60.098,12
2016,5,6,15,44,44,496865,5.9637,223.5,1334.42,17.74,60.048,12
2016,5,6,15,44,44,633423,5.9661,223.6,1335.26,17.89,60.048,12
2016,5,6,15,44,44,698398,5.9661,223.6,1335.52,17.97,60.048,12
2016,5,6,15,44,44,767898,5.9661,223.6,1335.36,18.06,60.048,12
2016,5,6,15,44,44,832871,5.9701,223.7,1336.87,18.04,60.048,12
2016,5,6,15,44,44,897657,5.9693,223.6,1336.62,17.95,60.048,12
2016,5,6,15,44,45,33324,5.9645,223.4,1334.26,18.0,60.048,12
2016,5,6,15,44,45,98541,5.9669,223.5,1335.31,18.07,60.048,12
2016,5,6,15,44,45,163034,5.9628,223.4,1333.43,17.97,60.048,12
2016,5,6,15,44,45,300393,5.9645,223.4,1334.08,17.93,60.048,12
2016,5,6,15,44,45,365305,5.9628,223.4,1333.72,18.01,60.048,12
2016,5,6,15,44,45,429823,5.957999999999999,223.2,1331.36,17.9,60.074,12
2016,5,6,15,44,45,565558,5.9604,223.2,1332.1,18.0,60.048,12
2016,5,6,15,44,45,629627,5.9604,223.2,1332.28,18.09,60.048,12
2016,5,6,15,44,45,765602,5.9588,223.2,1331.35,17.97,60.048,12
2016,5,6,15,44,45,842876,5.9596,223.2,1331.95,18.11,60.048,12
2016,5,6,15,44,45,897420,5.9653,223.4,1334.24,18.24,60.048,12
2016,5,6,15,44,45,961605,5.9653,223.4,1334.14,18.03,60.074,12
2016,5,6,15,44,46,99192,5.9685,223.5,1335.63,18.09,60.074,12
2016,5,6,15,44,46,163014,5.9693,223.5,1335.66,18.1,60.048,12
2016,5,6,15,44,46,298257,5.9693,223.5,1335.61,18.12,60.048,12
2016,5,6,15,44,46,362715,5.9701,223.6,1336.21,18.1,60.048,12
2016,5,6,15,44,46,498294,5.971,223.5,1336.26,18.15,60.048,12
2016,5,6,15,44,46,561975,5.9693,223.5,1335.78,18.19,60.074,12
2016,5,6,15,44,46,699280,5.971,223.5,1336.16,18.16,60.048,12
2016,5,6,15,44,46,764537,5.9693,223.5,1335.49,18.09,60.048,12
2016,5,6,15,44,46,828791,5.9734,223.6,1337.51,18.21,60.048,12
2016,5,6,15,44,46,964052,5.9693,223.5,1335.78,18.11,60.048,12
2016,5,6,15,44,47,28616,5.971,223.6,1336.49,18.06,60.048,12
2016,5,6,15,44,47,164852,5.9685,223.5,1335.71,18.08,60.048,12
2016,5,6,15,44,47,229613,5.9718,223.7,1337.25,18.18,60.048,12
2016,5,6,15,44,47,365856,5.9742,223.8,1338.47,18.18,60.048,12
2016,5,6,15,44,47,430445,5.9742,223.8,1338.39,18.1,60.048,12
2016,5,6,15,44,47,494955,5.9791,224.0,1340.63,18.11,60.074,12
2016,5,6,15,44,47,630342,5.9807,224.0,1341.45,18.08,60.048,12
2016,5,6,15,44,47,694907,5.9791,224.0,1340.79,18.08,60.074,12
2016,5,6,15,44,47,830740,5.9736,223.8,1338.29,17.96,60.098,12
2016,5,6,15,44,47,894509,5.975,223.8,1338.79,18.0,60.048,12
2016,5,6,15,44,48,33117,5.971,223.7,1337.11,17.93,60.048,12
2016,5,6,15,44,48,98842,5.9701,223.6,1336.75,17.98,60.048,12
2016,5,6,15,44,48,162694,5.9669,223.5,1335.36,17.97,60.074,12
2016,5,6,15,44,48,297251,5.9701,223.6,1336.72,17.99,60.048,12
2016,5,6,15,44,48,362513,5.9669,223.5,1335.21,17.94,60.074,12
2016,5,6,15,44,48,498848,5.9693,223.6,1336.53,18.03,60.074,12
2016,5,6,15,44,48,563504,5.9663,223.5,1335.08,17.99,60.098,12
2016,5,6,15,44,48,627955,5.9669,223.5,1335.27,18.07,60.048,12
2016,5,6,15,44,48,764776,5.9685,223.6,1335.95,18.01,60.048,12
2016,5,6,15,44,48,829722,5.9685,223.6,1335.98,18.01,60.048,12
2016,5,6,15,44,48,894155,5.9685,223.6,1336.14,17.99,60.048,12
2016,5,6,15,44,49,30502,5.9703,223.7,1336.88,18.05,60.098,12
2016,5,6,15,44,49,99202,5.9728,223.7,1337.76,18.17,60.098,12
2016,5,6,15,44,49,163905,5.9711,223.7,1337.11,17.95,60.098,12
2016,5,6,15,44,49,228819,5.9663,223.5,1334.98,18.03,60.098,12
2016,5,6,15,44,49,301415,5.9653,223.4,1334.53,18.06,60.074,12
2016,5,6,15,44,49,366394,5.9661,223.5,1334.91,18.22,60.048,12
2016,5,6,15,44,49,430708,5.971,223.6,1336.89,18.16,60.048,12
2016,5,6,15,44,49,494868,5.9677,223.5,1335.38,18.21,60.048,12
2016,5,6,15,44,49,630641,5.9663,223.5,1334.67,18.08,60.098,12
2016,5,6,15,44,49,694962,5.971,223.6,1336.79,18.16,60.074,12
2016,5,6,15,44,49,830985,5.9726,223.7,1337.52,18.14,60.048,12
2016,5,6,15,44,49,895005,5.9734,223.7,1338.0,18.17,60.048,12
2016,5,6,15,44,50,30729,5.9718,223.7,1337.37,18.16,60.048,12
2016,5,6,15,44,50,95681,5.9734,223.7,1338.19,18.17,60.048,12
2016,5,6,15,44,50,177594,5.9734,223.7,1337.82,18.21,60.048,12
2016,5,6,15,44,50,231764,5.9718,223.7,1337.39,18.18,60.048,12
2016,5,6,15,44,50,296927,5.971,223.7,1337.04,18.25,60.074,12
2016,5,6,15,44,50,430460,5.971,223.6,1336.93,18.19,60.048,12
2016,5,6,15,44,50,494307,5.971,223.7,1337.1,18.26,60.048,12
2016,5,6,15,44,50,630369,5.971,223.6,1337.0,18.25,60.074,12
2016,5,6,15,44,50,694731,5.9726,223.7,1337.46,18.09,60.048,12
2016,5,6,15,44,50,830428,5.9742,223.8,1338.39,18.26,60.048,12
2016,5,6,15,44,50,895335,5.975,223.8,1338.71,18.18,60.048,12
2016,5,6,15,44,51,32112,5.9628,223.4,1333.51,18.08,60.048,12
2016,5,6,15,44,51,97064,5.9612,223.3,1332.62,18.13,60.048,12
2016,5,6,15,44,51,161998,5.9677,223.5,1335.47,18.16,60.048,12
2016,5,6,15,44,51,299202,5.9726,223.7,1337.58,18.1,60.074,12
2016,5,6,15,44,51,364809,5.9685,223.6,1336.01,18.16,60.048,12
2016,5,6,15,44,51,430433,5.9701,223.6,1336.71,18.09,60.048,12
2016,5,6,15,44,51,494547,5.9693,223.6,1336.33,18.13,60.048,12
2016,5,6,15,44,51,630196,5.9677,223.6,1335.88,18.17,60.048,12
2016,5,6,15,44,51,694035,5.9661,223.5,1335.18,18.17,60.048,12
2016,5,6,15,44,51,830551,5.9718,223.7,1337.39,18.2,60.048,12
2016,5,6,15,44,51,895827,5.9726,223.7,1338.01,18.21,60.048,12
2016,5,6,15,44,52,32714,5.9718,223.7,1337.41,18.13,60.048,12
2016,5,6,15,44,52,97927,5.9718,223.7,1337.5,18.22,60.048,12
2016,5,6,15,44,52,163096,5.971,223.7,1337.07,18.26,60.048,12
2016,5,6,15,44,52,227868,5.9718,223.7,1337.35,18.18,60.048,12
2016,5,6,15,44,52,367017,5.5181,224.1,1238.08,2.49,60.048,5
2016,5,6,15,44,52,432049,5.5165,224.0,1237.53,2.39,60.048,5
2016,5,6,15,44,52,496975,5.5165,224.0,1237.3,2.42,60.048,5
2016,5,6,15,44,52,632966,5.5173,224.1,1237.87,2.43,60.048,5
2016,5,6,15,44,52,698076,5.5165,224.0,1237.35,2.43,60.048,5
2016,5,6,15,44,52,762651,5.5165,224.0,1237.54,2.49,60.048,5
2016,5,6,15,44,52,827692,5.5165,224.0,1237.32,2.44,60.048,5
2016,5,6,15,44,52,963779,5.5181,224.1,1238.04,2.4,60.048,5
2016,5,6,15,44,53,27603,5.5173,224.1,1237.89,2.51,60.048,5
2016,5,6,15,44,53,163777,5.5173,224.1,1238.04,2.47,60.048,5
2016,5,6,15,44,53,228666,5.5214,224.2,1239.7,2.37,60.048,5
2016,5,6,15,44,53,365116,5.5222,224.3,1239.95,2.52,60.048,5
2016,5,6,15,44,53,431184,5.5214,224.2,1239.76,2.52,60.048,5
2016,5,6,15,44,53,496024,5.5222,224.3,1240.11,2.45,60.048,5
2016,5,6,15,44,53,562260,5.5198,224.2,1239.11,2.47,60.048,5
2016,5,6,15,44,53,696291,5.5198,224.2,1238.94,2.52,60.048,5
2016,5,6,15,44,53,761250,5.5181,224.1,1238.23,2.48,60.048,5
2016,5,6,15,44,53,897825,5.5157,224.0,1237.17,2.39,60.048,5
2016,5,6,15,44,53,962917,5.5076,223.7,1233.8,2.45,60.048,5
2016,5,6,15,44,54,27729,5.5043,223.6,1232.13,2.47,60.048,5
2016,5,6,15,44,54,164716,5.5019,223.5,1231.28,2.43,60.048,5
2016,5,6,15,44,54,229636,5.5035,223.5,1231.79,2.47,60.048,5
2016,5,6,15,44,54,293991,5.5068,223.7,1233.14,2.34,60.074,5
2016,5,6,15,44,54,430105,5.5068,223.7,1233.1,2.39,60.048,5
2016,5,6,15,44,54,518060,5.51,223.8,1234.61,2.4,60.048,5
2016,5,6,15,44,54,561495,5.5076,223.7,1233.44,2.45,60.048,5
2016,5,6,15,44,54,699167,5.5149,224.0,1236.93,2.46,60.048,5
2016,5,6,15,44,54,763497,5.5125,223.9,1236.0,2.41,60.048,5
2016,5,6,15,44,54,828785,5.5173,224.1,1237.97,2.43,60.048,5
2016,5,6,15,44,54,965603,5.5181,224.1,1238.18,2.46,60.048,5
2016,5,6,15,44,55,30667,5.5181,224.1,1238.43,2.49,60.048,5
2016,5,6,15,44,55,95788,5.5165,224.1,1237.68,2.47,60.048,5
2016,5,6,15,44,55,160929,5.519,224.2,1238.6,2.45,60.048,5
2016,5,6,15,44,55,297204,5.5167,224.1,1237.56,2.37,60.098,5
2016,5,6,15,44,55,361971,5.5183,224.1,1238.32,2.35,60.098,5
2016,5,6,15,44,55,498164,5.5181,224.1,1238.5,2.51,60.048,5
2016,5,6,15,44,55,563150,5.5165,224.1,1237.68,2.43,60.048,5
2016,5,6,15,44,55,630637,5.5165,224.1,1237.56,2.5,60.048,5
2016,5,6,15,44,55,695694,5.5149,224.0,1236.76,2.32,60.074,5
2016,5,6,15,44,55,763498,5.5165,224.1,1237.56,2.48,60.048,5
2016,5,6,15,44,55,898212,5.5165,224.1,1237.54,2.32,60.074,5
2016,5,6,15,44,55,963142,5.5173,224.1,1237.85,2.5,60.048,5
2016,5,6,15,44,56,27912,5.5157,224.0,1237.33,2.36,60.074,5
2016,5,6,15,44,56,165751,5.5141,224.0,1236.71,2.4,60.048,5
2016,5,6,15,44,56,230922,5.5157,224.0,1237.36,2.45,60.048,5
2016,5,6,15,44,56,295157,5.5157,224.0,1237.29,2.37,60.048,5
2016,5,6,15,44,56,430572,5.5157,224.1,1237.47,2.49,60.048,5
2016,5,6,15,44,56,494852,5.5141,224.0,1236.85,2.45,60.048,5
2016,5,6,15,44,56,630726,5.5165,224.1,1237.57,2.43,60.048,5
2016,5,6,15,44,56,697222,5.5157,224.0,1237.21,2.37,60.074,5
2016,5,6,15,44,56,761586,5.5151,224.0,1236.82,2.43,60.098,5
2016,5,6,15,44,56,897841,5.5165,224.1,1237.93,2.5,60.048,5
2016,5,6,15,44,56,962653,5.5181,224.1,1238.35,2.44,60.048,5
2016,5,6,15,44,57,27329,5.5157,224.0,1237.31,2.49,60.074,5
2016,5,6,15,44,57,163524,5.5159,224.1,1237.59,2.41,60.098,5
2016,5,6,15,44,57,228178,5.5143,224.0,1236.83,2.4,60.098,5
2016,5,6,15,44,57,364585,5.5076,223.7,1233.81,2.42,60.048,5
2016,5,6,15,44,57,429182,5.5003,223.5,1230.69,2.46,60.048,5
2016,5,6,15,44,57,493975,5.4987,223.4,1229.86,2.42,60.048,5
2016,5,6,15,44,57,630949,5.5043,223.6,1232.51,2.46,60.048,5
2016,5,6,15,44,57,695756,5.5011,223.5,1230.8,2.44,60.048,5
2016,5,6,15,44,57,783884,5.5052,223.6,1232.55,2.5,60.048,5
2016,5,6,15,44,57,827041,5.5068,223.7,1233.37,2.39,60.074,5
2016,5,6,15,44,57,963622,5.51,223.8,1234.81,2.46,60.048,5
2016,5,6,15,44,58,27728,5.5076,223.7,1233.83,2.47,60.048,5
2016,5,6,15,44,58,163740,5.5125,223.9,1235.83,2.46,60.048,5
2016,5,6,15,44,58,227635,5.5141,224.0,1236.78,2.47,60.048,5
2016,5,6,15,44,58,364161,5.5134,224.0,1236.54,2.32,60.098,5
2016,5,6,15,44,58,429356,5.5157,224.0,1237.23,2.44,60.048,5
2016,5,6,15,44,58,494273,5.5173,224.1,1238.18,2.43,60.048,5
2016,5,6,15,44,58,631465,5.5134,224.0,1236.23,2.43,60.098,5
2016,5,6,15,44,58,696401,5.5108,223.8,1235.26,2.41,60.048,5
2016,5,6,15,44,58,761353,5.5117,223.9,1235.61,2.41,60.048,5
2016,5,6,15,44,58,964018,5.51,223.8,1234.94,2.48,60.048,5
2016,5,6,15,44,59,28311,5.506,223.7,1233.05,2.53,60.048,5
2016,5,6,15,44,59,162632,5.5125,223.9,1235.93,2.39,60.074,5
2016,5,6,15,44,59,227514,5.51,223.8,1234.83,2.44,60.048,5
2016,5,6,15,44,59,363334,5.5043,223.6,1232.29,2.44,60.048,5
2016,5,6,15,44,59,426954,5.5084,223.8,1234.06,2.44,60.048,5
2016,5,6,15,44,59,563301,5.5092,223.8,1234.49,2.44,60.048,5
2016,5,6,15,44,59,628408,5.5084,223.8,1234.29,2.43,60.074,5
2016,5,6,15,44,59,764238,5.5029,223.5,1231.54,2.39,60.098,5
2016,5,6,15,44,59,828049,5.5069,223.7,1233.28,2.31,60.098,5
2016,5,6,15,44,59,965136,5.506,223.6,1232.89,2.46,60.048,5
2016,5,6,15,45,0,30538,5.5043,223.6,1232.49,2.52,60.048,5
2016,5,6,15,45,0,94977,5.5084,223.8,1234.23,2.46,60.048,5
2016,5,6,15,45,0,229474,5.51,223.8,1235.01,2.35,60.048,5
2016,5,6,15,45,0,294306,5.5092,223.8,1234.52,2.4,60.048,5
2016,5,6,15,45,0,430142,5.5076,223.7,1233.94,2.48,60.048,5
2016,5,6,15,45,0,493886,5.79,223.5,1288.95,37.54,60.074,12
2016,5,6,15,45,0,629730,6.216,223.2,1388.18,48.07,60.048,12
2016,5,6,15,45,0,694871,6.0927,223.2,1361.11,32.36,60.048,12
2016,5,6,15,45,0,759931,6.0343,223.4,1349.34,25.42,60.048,12
2016,5,6,15,45,0,896875,5.9775,223.3,1336.33,19.9,60.048,12
2016,5,6,15,45,0,961379,5.9653,223.3,1333.65,18.68,60.048,12
2016,5,6,15,45,1,32077,5.9572,223.3,1331.47,18.03,60.048,12
2016,5,6,15,45,1,96062,5.9523,223.2,1330.31,17.71,60.048,12
2016,5,6,15,45,1,159764,5.9531,223.3,1331.26,17.45,60.048,12
2016,5,6,15,45,1,232386,5.9531,223.4,1331.47,17.29,60.048,12
2016,5,6,15,45,1,296390,5.9515,223.4,1331.04,17.29,60.048,12
2016,5,6,15,45,1,360177,5.949,223.3,1329.98,17.23,60.048,12
2016,5,6,15,45,1,497329,5.9531,223.4,1331.59,17.33,60.048,12
2016,5,6,15,45,1,562517,5.9521,223.3,1330.8,17.32,59.998000000000005,12
2016,5,6,15,45,1,627720,5.9539,223.4,1331.63,17.48,60.023999999999994,12
2016,5,6,15,45,1,763749,5.9531,223.3,1331.06,17.52,60.048,12
2016,5,6,15,45,1,829307,5.9531,223.3,1330.95,17.56,60.048,12
2016,5,6,15,45,1,893677,5.9547,223.4,1331.63,17.68,60.023999999999994,12
2016,5,6,15,45,2,30031,5.9537,223.3,1331.17,17.65,59.998000000000005,12
2016,5,6,15,45,2,117952,5.9586,223.5,1333.01,17.8,59.998000000000005,12
2016,5,6,15,45,2,161733,5.957000000000001,223.4,1332.29,17.88,59.998000000000005,12
2016,5,6,15,45,2,297631,5.9564,223.3,1331.95,17.81,60.023999999999994,12
2016,5,6,15,45,2,361435,5.957999999999999,223.4,1332.4,17.91,60.048,12
2016,5,6,15,45,2,496848,5.962000000000001,223.5,1334.11,17.86,60.048,12
2016,5,6,15,45,2,561602,5.9604,223.5,1333.56,17.93,60.048,12
2016,5,6,15,45,2,697880,5.9612,223.5,1334.08,17.93,60.048,12
2016,5,6,15,45,2,762494,5.9612,223.5,1333.84,18.02,60.048,12
2016,5,6,15,45,2,827250,5.9604,223.5,1333.61,17.96,60.048,12
2016,5,6,15,45,2,963777,5.9612,223.5,1333.83,18.03,60.048,12
2016,5,6,15,45,3,27646,5.9604,223.5,1333.38,18.08,60.048,12
2016,5,6,15,45,3,163069,5.9612,223.5,1333.64,18.09,60.048,12
2016,5,6,15,45,3,233400,5.9588,223.4,1332.75,18.18,60.023999999999994,12
2016,5,6,15,45,3,299062,5.9612,223.4,1333.4,18.09,60.048,12
2016,5,6,15,45,3,363510,5.9588,223.3,1332.48,18.18,60.048,12
2016,5,6,15,45,3,426700,5.9572,223.3,1331.75,18.14,60.048,12
2016,5,6,15,45,3,563256,5.9564,223.2,1331.2,18.06,60.048,12
2016,5,6,15,45,3,628608,5.9604,223.3,1332.79,18.23,60.048,12
2016,5,6,15,45,3,764717,5.9669,223.6,1335.76,18.15,60.048,12
2016,5,6,15,45,3,828564,5.9701,223.7,1336.91,18.14,60.048,12
2016,5,6,15,45,3,964814,5.971,223.7,1337.27,18.13,60.048,12
2016,5,6,15,45,4,29614,5.9701,223.7,1337.18,18.23,60.048,12
2016,5,6,15,45,4,93800,5.9718,223.8,1337.81,18.17,60.048,12
2016,5,6,15,45,4,229531,5.9701,223.7,1336.98,18.16,60.048,12
2016,5,6,15,45,4,298355,5.971,223.7,1337.11,18.15,60.048,12
2016,5,6,15,45,4,362615,5.9726,223.8,1338.06,18.19,60.048,12
2016,5,6,15,45,4,427036,5.9685,223.6,1336.27,18.16,60.048,12
2016,5,6,15,45,4,500631,5.9701,223.7,1336.79,18.19,60.048,12
2016,5,6,15,45,4,565537,5.9661,223.5,1335.03,18.16,60.048,12
2016,5,6,15,45,4,630868,5.9661,223.5,1335.17,18.19,60.048,12
2016,5,6,15,45,4,695138,5.9701,223.6,1336.69,18.22,60.048,12
2016,5,6,15,45,4,830796,5.9677,223.6,1335.88,18.19,60.048,12
2016,5,6,15,45,4,895572,5.9628,223.4,1333.55,18.13,60.048,12
2016,5,6,15,45,4,960814,5.9588,223.2,1331.65,18.11,60.048,12
2016,5,6,15,45,5,97659,5.9612,223.3,1332.85,18.12,60.048,12
2016,5,6,15,45,5,162233,5.9588,223.2,1331.78,18.11,60.048,12
2016,5,6,15,45,5,298604,5.962000000000001,223.3,1332.92,18.13,60.048,12
2016,5,6,15,45,5,376583,5.9661,223.5,1334.99,18.12,60.048,12
2016,5,6,15,45,5,430855,5.9661,223.5,1335.05,18.16,60.048,12
2016,5,6,15,45,5,495463,5.9661,223.5,1334.82,18.02,60.048,12
2016,5,6,15,45,5,630268,5.957999999999999,223.2,1331.48,17.98,60.048,12
2016,5,6,15,45,5,695397,5.9661,223.5,1334.78,18.15,60.048,12
2016,5,6,15,45,5,832824,5.9693,223.6,1336.45,18.1,60.048,12
2016,5,6,15,45,5,898184,5.9718,223.7,1337.31,18.06,60.048,12
2016,5,6,15,45,5,963330,5.971,223.7,1337.19,18.08,60.048,12
2016,5,6,15,45,6,28302,5.9718,223.7,1337.38,18.13,60.048,12
2016,5,6,15,45,6,164330,5.975,223.8,1339.09,18.06,60.048,12
2016,5,6,15,45,6,229401,5.9775,223.9,1339.98,18.09,60.048,12
2016,5,6,15,45,6,294315,5.9734,223.8,1338.45,18.05,60.048,12
2016,5,6,15,45,6,430587,5.9758,223.9,1339.44,18.02,60.048,12
2016,5,6,15,45,6,496052,5.975,223.9,1339.42,18.0,60.048,12
2016,5,6,15,45,6,632404,5.9645,223.5,1334.73,17.91,60.048,12
2016,5,6,15,45,6,696045,5.9588,223.3,1331.97,17.84,60.048,12
2016,5,6,15,45,6,831988,5.971,223.7,1337.46,17.91,60.048,12
2016,5,6,15,45,6,895826,5.9742,223.9,1339.05,17.92,60.048,12
2016,5,6,15,45,7,31888,5.9661,223.6,1335.5,17.87,60.048,12
2016,5,6,15,45,7,97174,5.9693,223.7,1336.74,17.88,60.048,12
2016,5,6,15,45,7,161897,5.9718,223.8,1337.87,17.96,60.048,12
2016,5,6,15,45,7,297564,5.975,223.9,1339.48,17.93,60.048,12
2016,5,6,15,45,7,361455,5.9758,224.0,1339.8,17.94,60.048,12
2016,5,6,15,45,7,498494,5.9766,224.0,1340.14,17.98,60.048,12
2016,5,6,15,45,7,631852,5.9775,224.0,1340.76,17.93,60.048,12
2016,5,6,15,45,7,697631,5.975,223.9,1339.57,17.88,60.048,12
2016,5,6,15,45,7,832087,5.9742,223.9,1339.36,17.89,60.048,12
2016,5,6,15,45,7,896920,5.9775,224.1,1340.88,17.96,60.048,12
2016,5,6,15,45,7,961949,5.975,224.0,1339.57,17.87,60.048,12
2016,5,6,15,45,8,98465,5.975,224.0,1339.68,17.9,60.048,12
2016,5,6,15,45,8,163153,5.9734,223.9,1339.08,17.8,60.048,12
2016,5,6,15,45,8,299234,5.9758,224.0,1339.95,17.83,60.048,12
2016,5,6,15,45,8,362881,5.9766,224.0,1340.4,17.77,60.048,12
2016,5,6,15,45,8,498482,5.975,224.0,1339.68,17.79,60.048,12
2016,5,6,15,45,8,563229,5.975,224.0,1339.71,17.69,60.048,12
2016,5,6,15,45,8,630104,5.9734,223.9,1339.16,17.76,60.048,12
2016,5,6,15,45,8,765973,5.9669,223.7,1336.21,17.7,60.048,12
2016,5,6,15,45,8,828640,5.9693,223.8,1337.35,17.72,60.048,12
2016,5,6,15,45,8,964069,5.9612,223.5,1333.69,17.63,60.048,12
2016,5,6,15,45,9,28923,5.9645,223.6,1334.93,17.65,60.048,12
2016,5,6,15,45,9,165426,5.9669,223.7,1336.21,17.64,60.048,12
2016,5,6,15,45,9,231572,5.9637,223.6,1334.83,17.58,60.074,12
2016,5,6,15,45,9,296715,5.9637,223.6,1334.92,17.63,60.048,12
2016,5,6,15,45,9,361778,5.9685,223.7,1337.04,17.62,60.048,12
2016,5,6,15,45,9,498957,5.9693,223.8,1337.24,17.57,60.074,12
2016,5,6,15,45,9,564347,5.9663,223.6,1335.92,17.45,60.098,12
2016,5,6,15,45,9,628910,5.9693,223.8,1337.44,17.56,60.048,12
2016,5,6,15,45,9,710307,5.9693,223.8,1337.38,17.69,60.048,12
2016,5,6,15,45,9,765348,5.9726,223.9,1338.64,17.66,60.048,12
2016,5,6,15,45,9,830132,5.9734,223.9,1339.29,17.71,60.048,12
2016,5,6,15,45,9,894827,5.9701,223.8,1337.79,17.65,60.048,12
2016,5,6,15,45,10,31013,5.971,223.8,1338.04,17.59,60.074,12
2016,5,6,15,45,10,95923,5.9677,223.7,1336.57,17.62,60.048,12
2016,5,6,15,45,10,232082,5.9718,223.8,1338.29,17.67,60.048,12
2016,5,6,15,45,10,296000,5.9693,223.8,1337.51,17.72,60.048,12
2016,5,6,15,45,10,431421,5.9693,223.8,1337.45,17.67,60.048,12
2016,5,6,15,45,10,496339,5.9677,223.8,1336.95,17.63,60.048,12
2016,5,6,15,45,10,561684,5.9669,223.7,1336.48,17.62,60.048,12
2016,5,6,15,45,10,699182,5.9661,223.7,1335.88,17.59,60.074,12
2016,5,6,15,45,10,764415,5.9677,223.7,1336.68,17.74,60.048,12
2016,5,6,15,45,10,832002,5.9669,223.7,1336.16,17.76,60.048,12
2016,5,6,15,45,10,896346,5.9701,223.8,1337.66,17.7,60.074,12
2016,5,6,15,45,10,961223,5.9685,223.7,1336.9,17.67,60.074,12
2016,5,6,15,45,11,33929,5.9687,223.7,1336.86,17.64,60.098,12
2016,5,6,15,45,11,98327,5.9701,223.8,1337.71,17.67,60.074,12
2016,5,6,15,45,11,162996,5.9701,223.8,1337.84,17.79,60.048,12
2016,5,6,15,45,11,227583,5.9726,223.9,1338.76,17.81,60.048,12
2016,5,6,15,45,11,363617,5.9718,223.9,1338.46,17.6,60.048,12
2016,5,6,15,45,11,428176,5.9701,223.8,1337.71,17.7,60.048,12
2016,5,6,15,45,11,563726,5.9557,223.3,1331.34,17.48,60.098,12
2016,5,6,15,45,11,628811,5.9646,223.6,1335.25,17.55,60.098,12
2016,5,6,15,45,11,764749,5.9653,223.6,1335.66,17.57,60.074,12
2016,5,6,15,45,11,828788,5.9645,223.6,1335.45,17.69,60.048,12
2016,5,6,15,45,11,965256,5.9653,223.6,1335.57,17.81,60.048,12
2016,5,6,15,45,12,29545,5.9646,223.6,1335.36,17.71,60.098,12
2016,5,6,15,45,12,163664,5.9612,223.5,1334.05,17.62,60.074,12
2016,5,6,15,45,12,228779,5.9612,223.5,1334.12,17.68,60.048,12
2016,5,6,15,45,12,364686,5.9604,223.5,1333.75,17.69,60.074,12
2016,5,6,15,45,12,428463,5.9588,223.4,1332.98,17.49,60.074,12
2016,5,6,15,45,12,564754,5.9612,223.5,1334.26,17.64,60.074,12
2016,5,6,15,45,12,629542,5.9588,223.5,1333.03,17.5,60.048,12
2016,5,6,15,45,12,693838,5.9604,223.5,1333.78,17.56,60.074,12
2016,5,6,15,45,12,829397,5.9572,223.4,1332.52,17.54,60.048,12
2016,5,6,15,45,12,966286,5.9661,223.7,1336.44,17.58,60.074,12
2016,5,6,15,45,13,31025,5.9555,223.4,1332.08,17.32,60.074,12
2016,5,6,15,45,13,95394,5.9653,223.7,1336.09,17.53,60.048,12
2016,5,6,15,45,13,229461,5.9677,223.8,1337.22,17.49,60.048,12
2016,5,6,15,45,13,365449,5.9734,224.0,1339.93,17.49,60.074,12
2016,5,6,15,45,13,430811,5.9701,224.0,1338.52,17.37,60.074,12
2016,5,6,15,45,13,495210,5.9685,223.9,1337.65,17.41,60.048,12
2016,5,6,15,45,13,630865,5.5589,224.3,1247.93,5.68,60.098,5
2016,5,6,15,45,13,695226,5.5214,224.3,1239.95,2.39,60.048,5
2016,5,6,15,45,13,830914,5.519,224.2,1238.91,2.49,60.074,5
2016,5,6,15,45,13,894692,5.5167,224.1,1238.0,2.35,60.098,5
2016,5,6,15,45,14,36425,5.5173,224.1,1238.18,2.45,60.048,5
2016,5,6,15,45,14,163827,5.5157,224.1,1237.56,2.5,60.048,5
2016,5,6,15,45,14,227251,5.5149,224.1,1237.4,2.42,60.048,5
2016,5,6,15,45,14,365290,5.5151,224.1,1237.15,2.45,60.098,5
2016,5,6,15,45,14,430041,5.5165,224.1,1238.06,2.54,60.048,5
2016,5,6,15,45,14,494856,5.5181,224.2,1238.9,2.47,60.048,5
2016,5,6,15,45,14,631136,5.5173,224.2,1238.38,2.5,60.048,5
2016,5,6,15,45,14,696100,5.5151,224.1,1237.19,2.49,60.098,5
2016,5,6,15,45,14,760721,5.5151,224.1,1237.46,2.37,60.098,5
2016,5,6,15,45,14,897856,5.5175,224.2,1238.34,2.39,60.098,5
2016,5,6,15,45,14,962695,5.5167,224.1,1238.0,2.45,60.098,5
2016,5,6,15,45,15,27703,5.5167,224.1,1238.08,2.36,60.098,5
2016,5,6,15,45,15,166288,5.5141,224.1,1237.11,2.42,60.048,5
2016,5,6,15,45,15,231308,5.5173,224.2,1238.39,2.53,60.048,5
2016,5,6,15,45,15,297243,5.5173,224.2,1238.59,2.53,60.048,5
2016,5,6,15,45,15,361165,5.5181,224.2,1238.87,2.41,60.048,5
2016,5,6,15,45,15,498107,5.5181,224.2,1238.81,2.5,60.048,5
2016,5,6,15,45,15,562837,5.5173,224.2,1238.48,2.47,60.048,5
2016,5,6,15,45,15,627682,5.5157,224.1,1237.68,2.45,60.048,5
2016,5,6,15,45,15,764257,5.5118,224.0,1235.9,2.34,60.098,5
2016,5,6,15,45,15,829440,5.5126,224.0,1236.26,2.43,60.098,5
2016,5,6,15,45,15,893907,5.5094,223.9,1235.0,2.38,60.098,5
2016,5,6,15,45,16,29293,5.5118,223.9,1235.81,2.38,60.098,5
2016,5,6,15,45,16,93655,5.5086,223.8,1234.4,2.48,60.098,5
2016,5,6,15,45,16,230547,5.5125,224.0,1236.46,2.44,60.048,5
2016,5,6,15,45,16,294501,5.5117,224.0,1235.99,2.46,60.048,5
2016,5,6,15,45,16,429845,5.5117,224.0,1236.09,2.48,60.048,5
2016,5,6,15,45,16,494935,5.5125,224.0,1236.3,2.49,60.048,5
2016,5,6,15,45,16,559751,5.5141,224.0,1236.92,2.47,60.048,5
2016,5,6,15,45,16,697459,5.5151,224.1,1237.21,2.5,60.098,5
2016,5,6,15,45,16,762544,5.5134,224.0,1236.59,2.44,60.098,5
2016,5,6,15,45,16,827256,5.5126,224.0,1236.45,2.43,60.098,5
2016,5,6,15,45,16,964409,5.5134,224.0,1236.74,2.44,60.098,5
2016,5,6,15,45,17,29386,5.5134,224.0,1236.81,2.42,60.098,5
2016,5,6,15,45,17,94247,5.5141,224.1,1236.96,2.47,60.048,5
2016,5,6,15,45,17,159369,5.5133,224.0,1236.87,2.45,60.048,5
2016,5,6,15,45,17,299048,5.5117,224.0,1235.8,2.5,60.048,5
2016,5,6,15,45,17,363908,5.5108,223.9,1235.5,2.51,60.048,5
2016,5,6,15,45,17,428534,5.51,223.9,1235.29,2.47,60.048,5
2016,5,6,15,45,17,563311,5.5092,223.9,1234.84,2.55,60.048,5
2016,5,6,15,45,17,627148,5.5086,223.8,1234.68,2.52,60.098,5
2016,5,6,15,45,17,763326,5.5078,223.8,1234.07,2.41,60.098,5
2016,5,6,15,45,17,828471,5.5069,223.8,1233.95,2.4,60.098,5
2016,5,6,15,45,17,893092,5.5078,223.8,1234.16,2.4,60.098,5
2016,5,6,15,45,18,28364,5.5078,223.8,1234.25,2.45,60.098,5
2016,5,6,15,45,18,92662,5.5094,223.9,1235.08,2.43,60.098,5
2016,5,6,15,45,18,228345,5.5037,223.6,1232.5,2.46,60.098,5
2016,5,6,15,45,18,378879,5.4964,223.3,1228.97,2.43,60.098,5
2016,5,6,15,45,18,433689,5.4972,223.4,1229.64,2.35,60.098,5
2016,5,6,15,45,18,498069,5.5027,223.6,1232.23,2.55,60.074,5
2016,5,6,15,45,18,560740,5.4988,223.4,1230.04,2.38,60.098,5
2016,5,6,15,45,18,696183,5.5053,223.7,1232.92,2.46,60.098,5
2016,5,6,15,45,18,761519,5.506,223.7,1233.24,2.47,60.048,5
2016,5,6,15,45,18,826265,5.5029,223.6,1231.89,2.39,60.098,5
2016,5,6,15,45,18,962408,5.5035,223.6,1232.36,2.5,60.048,5
2016,5,6,15,45,19,27175,5.5076,223.8,1234.18,2.48,60.074,5
2016,5,6,15,45,19,163542,6.5644,222.7,1457.12,116.31,60.098,12
2016,5,6,15,45,19,227408,6.26,223.0,1396.1,55.02,60.098,12
2016,5,6,15,45,19,363241,6.044,223.3,1351.11,26.73,60.074,12
2016,5,6,15,45,19,427970,6.0101,223.4,1344.35,22.82,60.098,12
2016,5,6,15,45,19,496555,5.9857,223.3,1338.19,20.68,60.098,12
2016,5,6,15,45,19,561873,5.9758,223.4,1336.48,19.59,60.048,12
2016,5,6,15,45,19,625777,5.9669,223.3,1333.93,18.93,60.048,12
2016,5,6,15,45,19,761928,5.962999999999999,223.5,1333.89,18.16,60.098,12
2016,5,6,15,45,19,827009,5.962999999999999,223.5,1334.23,18.0,60.098,12
2016,5,6,15,45,19,963397,5.9533,223.2,1330.54,17.73,60.098,12
2016,5,6,15,45,20,28280,5.9564,223.3,1331.86,17.77,60.048,12
2016,5,6,15,45,20,92659,5.9614,223.6,1334.37,17.71,60.098,12
2016,5,6,15,45,20,228197,5.9604,223.5,1333.76,17.7,60.023999999999994,12
2016,5,6,15,45,20,292586,5.9604,223.5,1333.87,17.7,60.048,12
2016,5,6,15,45,20,429364,5.962000000000001,223.6,1334.94,17.64,60.074,12
2016,5,6,15,45,20,494419,5.9622,223.6,1335.03,17.56,60.098,12
2016,5,6,15,45,20,562639,5.9679,223.9,1337.47,17.55,60.098,12
2016,5,6,15,45,20,626273,5.9646,223.8,1336.42,17.52,60.098,12
2016,5,6,15,45,20,762265,5.9663,223.8,1337.16,17.51,60.098,12
2016,5,6,15,45,20,826255,5.9655,223.8,1336.8,17.49,60.098,12
2016,5,6,15,45,20,962584,5.9685,224.0,1338.44,17.49,60.074,12
2016,5,6,15,45,21,27254,5.9638,223.8,1336.26,17.39,60.098,12
2016,5,6,15,45,21,91834,5.9646,223.8,1336.6,17.42,60.098,12
2016,5,6,15,45,21,229153,5.962000000000001,223.7,1335.55,17.36,60.074,12
2016,5,6,15,45,21,294289,5.9661,223.9,1337.36,17.45,60.074,12
2016,5,6,15,45,21,358664,5.9604,223.7,1334.78,17.29,60.074,12
2016,5,6,15,45,21,494086,5.959,223.6,1334.04,17.32,60.098,12
2016,5,6,15,45,21,558838,5.9588,223.6,1334.31,17.31,60.074,12
2016,5,6,15,45,21,636545,5.9588,223.6,1334.25,17.39,60.048,12
2016,5,6,15,45,21,691282,5.9614,223.7,1335.22,17.38,60.098,12
2016,5,6,15,45,21,827315,5.959,223.6,1334.13,17.3,60.098,12
2016,5,6,15,45,21,891378,5.962999999999999,223.8,1336.09,17.38,60.098,12
2016,5,6,15,45,22,27092,5.9655,223.9,1337.01,17.31,60.098,12
2016,5,6,15,45,22,162827,5.9671,224.0,1338.04,17.32,60.098,12
2016,5,6,15,45,22,228213,5.9655,223.9,1337.28,17.31,60.098,12
2016,5,6,15,45,22,292851,5.9695,224.1,1339.25,17.35,60.098,12
2016,5,6,15,45,22,358048,5.9671,224.0,1338.12,17.27,60.098,12
2016,5,6,15,45,22,494288,5.9646,223.9,1337.03,17.28,60.098,12
2016,5,6,15,45,22,558935,5.9604,223.7,1335.19,17.31,60.074,12
2016,5,6,15,45,22,721188,5.9604,223.7,1335.11,17.39,60.048,12
2016,5,6,15,45,22,765505,5.962000000000001,223.8,1335.61,17.27,60.048,12
2016,5,6,15,45,22,830896,5.9604,223.7,1335.0,17.46,60.048,12
2016,5,6,15,45,22,895257,5.9582,223.6,1333.85,17.24,60.098,12
2016,5,6,15,45,22,958528,5.9596,223.7,1334.78,17.28,60.048,12
2016,5,6,15,45,23,94968,5.9555,223.5,1332.69,17.33,60.074,12
2016,5,6,15,45,23,160062,5.9547,223.5,1332.55,17.27,60.074,12
2016,5,6,15,45,23,224874,5.9541,223.5,1332.29,17.3,60.098,12
2016,5,6,15,45,23,362616,5.95,223.3,1330.42,17.24,60.098,12
2016,5,6,15,45,23,427508,5.9515,223.4,1331.23,17.2,60.074,12
2016,5,6,15,45,23,492396,5.9539,223.5,1331.97,17.22,60.048,12
2016,5,6,15,45,23,557598,5.9531,223.4,1331.63,17.3,60.048,12
2016,5,6,15,45,23,693957,5.9509,223.3,1330.76,17.21,60.098,12
2016,5,6,15,45,23,758702,5.9509,223.3,1330.73,17.11,60.098,12
2016,5,6,15,45,23,825495,5.9492,223.3,1329.93,17.32,60.098,12
2016,5,6,15,45,23,890725,5.9515,223.4,1331.03,17.21,60.074,12
2016,5,6,15,45,23,956460,5.9515,223.3,1330.82,17.29,60.048,12
2016,5,6,15,45,24,29610,5.9531,223.4,1331.59,17.35,60.048,12
2016,5,6,15,45,24,93819,5.9523,223.4,1331.36,17.33,60.048,12
2016,5,6,15,45,24,158472,5.9531,223.4,1331.56,17.35,60.048,12
2016,5,6,15,45,24,294286,5.9547,223.5,1332.55,17.47,60.048,12
2016,5,6,15,45,24,358235,5.9564,223.5,1333.01,17.39,60.048,12
2016,5,6,15,45,24,494385,5.9484,223.3,1329.7,17.25,60.098,12
2016,5,6,15,45,24,559286,5.9484,223.2,1329.48,17.23,60.098,12
2016,5,6,15,45,24,694684,5.9484,223.3,1329.67,17.19,60.098,12
2016,5,6,15,45,24,759510,5.9468,223.2,1328.74,17.19,60.098,12
2016,5,6,15,45,24,824234,5.946000000000001,223.2,1328.45,17.11,60.098,12
2016,5,6,15,45,24,905595,5.946000000000001,223.2,1328.53,17.28,60.098,12
2016,5,6,15,45,24,960280,5.9426,223.1,1327.1,17.07,60.074,12
2016,5,6,15,45,25,25562,5.9466,223.2,1328.97,17.18,60.048,12
2016,5,6,15,45,25,160878,5.9409,223.0,1326.2,17.13,60.048,12
2016,5,6,15,45,25,225811,5.9434,223.1,1327.34,17.17,60.048,12
2016,5,6,15,45,25,290410,5.945,223.1,1328.13,17.25,60.048,12
2016,5,6,15,45,25,426816,5.9507,223.3,1330.63,17.23,60.048,12
2016,5,6,15,45,25,491927,5.9515,223.4,1331.01,17.14,60.048,12
2016,5,6,15,45,25,627612,5.9509,223.4,1330.78,17.12,60.098,12
2016,5,6,15,45,25,691288,5.9525,223.4,1331.46,17.09,60.098,12
2016,5,6,15,45,25,827715,5.9555,223.6,1332.97,17.26,60.048,12
2016,5,6,15,45,25,893281,5.9555,223.6,1333.23,17.16,60.048,12
2016,5,6,15,45,25,957823,5.9564,223.6,1333.38,17.18,60.048,12
2016,5,6,15,45,26,24136,5.9555,223.6,1333.26,17.21,60.048,12
2016,5,6,15,45,26,161899,5.9582,223.7,1334.26,17.13,60.098,12
2016,5,6,15,45,26,225124,5.9565,223.6,1333.68,17.05,60.098,12
2016,5,6,15,45,26,361418,5.9564,223.6,1333.69,17.11,60.074,12
2016,5,6,15,45,26,426568,5.9549,223.6,1332.96,17.09,60.098,12
2016,5,6,15,45,26,491104,5.9539,223.6,1332.59,17.08,60.048,12
2016,5,6,15,45,26,556226,5.9531,223.5,1332.31,17.07,60.048,12
2016,5,6,15,45,26,692410,5.9515,223.5,1331.56,17.08,60.048,12
2016,5,6,15,45,26,757637,5.9507,223.5,1331.25,17.05,60.048,12
2016,5,6,15,45,26,893979,5.9507,223.4,1331.0,17.06,60.048,12
2016,5,6,15,45,26,958552,5.9515,223.4,1331.34,17.06,60.048,12
2016,5,6,15,45,27,23339,5.9499,223.4,1330.73,17.0,60.048,12
2016,5,6,15,45,27,158720,5.9458,223.3,1329.04,17.06,60.048,12
2016,5,6,15,45,27,223483,5.9482,223.3,1330.11,17.02,60.048,12
2016,5,6,15,45,27,296294,5.949,223.4,1330.65,17.1,60.048,12
2016,5,6,15,45,27,361504,5.9474,223.3,1329.96,17.01,60.048,12
2016,5,6,15,45,27,425591,5.9474,223.3,1329.83,16.96,60.048,12
2016,5,6,15,45,27,489275,5.9474,223.3,1329.84,16.97,60.048,12
2016,5,6,15,45,27,625661,5.9458,223.3,1329.13,16.92,60.048,12
2016,5,6,15,45,27,689694,5.9466,223.3,1329.66,16.98,60.048,12
2016,5,6,15,45,27,825527,5.9482,223.4,1330.38,16.87,60.074,12
2016,5,6,15,45,27,889447,5.9474,223.4,1329.98,16.85,60.074,12
2016,5,6,15,45,27,961252,5.9466,223.4,1329.89,16.94,60.048,12
2016,5,6,15,45,28,24643,5.9466,223.3,1329.58,16.82,60.048,12
2016,5,6,15,45,28,165340,5.9474,223.4,1330.17,16.94,60.074,12
2016,5,6,15,45,28,229141,5.9474,223.4,1329.97,16.79,60.048,12
2016,5,6,15,45,28,293402,5.949,223.5,1330.92,16.84,60.048,12
2016,5,6,15,45,28,356534,5.9474,223.4,1330.25,16.86,60.048,12
2016,5,6,15,45,28,490955,5.9458,223.3,1329.59,16.81,60.048,12
2016,5,6,15,45,28,562443,5.9458,223.4,1329.69,16.81,60.074,12
2016,5,6,15,45,28,624111,5.9458,223.3,1329.59,16.68,60.074,12
2016,5,6,15,45,28,758937,5.9523,223.6,1332.67,16.79,60.048,12
2016,5,6,15,45,28,823079,5.9507,223.6,1331.8,16.7,60.048,12
2016,5,6,15,45,28,958442,5.9547,223.7,1333.75,16.75,60.048,12
2016,5,6,15,45,29,93848,5.9539,223.7,1333.37,16.74,60.048,12
2016,5,6,15,45,29,158060,5.9515,223.6,1332.42,16.62,60.048,12
2016,5,6,15,45,29,235423,5.9539,223.7,1333.48,16.77,60.048,12
2016,5,6,15,45,29,361356,5.9531,223.7,1333.45,16.66,60.048,12
2016,5,6,15,45,29,423871,5.9539,223.7,1333.68,16.7,60.048,12
2016,5,6,15,45,29,558813,5.9411,223.3,1328.07,16.55,60.098,12
2016,5,6,15,45,29,622864,5.9417,223.3,1328.46,16.48,60.074,12
2016,5,6,15,45,29,758582,5.5027,223.6,1231.79,2.47,60.048,5
2016,5,6,15,45,29,822496,5.5061,223.7,1233.07,2.42,60.098,5
2016,5,6,15,45,29,958358,5.5052,223.6,1232.73,2.5,60.048,5
2016,5,6,15,45,30,22512,5.5035,223.6,1232.23,2.48,60.048,5
2016,5,6,15,45,30,158357,5.5037,223.6,1232.17,2.36,60.098,5
2016,5,6,15,45,30,305846,5.5076,223.8,1234.01,2.58,60.074,5
2016,5,6,15,45,30,359448,5.5068,223.7,1233.59,2.38,60.074,5
2016,5,6,15,45,30,423551,5.5068,223.7,1233.45,2.56,60.074,5
2016,5,6,15,45,30,560143,5.5125,223.9,1236.0,2.54,60.048,5
2016,5,6,15,45,30,624624,5.5092,223.8,1234.73,2.4,60.074,5
2016,5,6,15,45,30,760158,5.5068,223.7,1233.71,2.46,60.074,5
2016,5,6,15,45,30,824014,5.511,223.9,1235.43,2.43,60.098,5
2016,5,6,15,45,30,960012,5.5118,223.9,1235.69,2.48,60.098,5
2016,5,6,15,45,31,24015,5.5102,223.9,1235.15,2.44,60.098,5
2016,5,6,15,45,31,159696,5.5118,223.9,1235.98,2.42,60.098,5
2016,5,6,15,45,31,223679,5.5141,224.0,1236.95,2.44,60.048,5
2016,5,6,15,45,31,381371,5.5133,224.0,1236.48,2.52,60.048,5
2016,5,6,15,45,31,424681,5.5117,223.9,1235.94,2.55,60.048,5
2016,5,6,15,45,31,560496,5.5133,224.0,1236.6,2.56,60.048,5
2016,5,6,15,45,31,624563,5.5133,224.0,1236.44,2.54,60.048,5
2016,5,6,15,45,31,760324,5.5117,223.9,1235.7,2.57,60.048,5
2016,5,6,15,45,31,824528,5.511,223.9,1235.47,2.37,60.098,5
2016,5,6,15,45,31,960451,5.5134,224.0,1236.49,2.48,60.098,5
2016,5,6,15,45,32,24243,5.5108,223.9,1235.52,2.37,60.048,5
2016,5,6,15,45,32,160550,5.5157,224.1,1237.67,2.51,60.048,5
2016,5,6,15,45,32,224544,5.5143,224.1,1237.28,2.34,60.098,5
2016,5,6,15,45,32,360525,5.5125,224.0,1236.45,2.55,60.048,5
2016,5,6,15,45,32,424653,5.5133,224.0,1236.63,2.46,60.048,5
2016,5,6,15,45,32,491912,5.5125,224.0,1236.39,2.47,60.074,5
2016,5,6,15,45,32,555728,5.5165,224.2,1238.18,2.53,60.048,5
2016,5,6,15,45,32,691422,5.5125,224.0,1236.43,2.51,60.048,5
2016,5,6,15,45,32,755712,5.5173,224.2,1238.43,2.54,60.074,5
2016,5,6,15,45,32,891309,5.5181,224.2,1238.88,2.56,60.048,5
2016,5,6,15,45,33,26906,5.5175,224.2,1238.42,2.43,60.098,5
2016,5,6,15,45,33,90569,5.5151,224.1,1237.33,2.44,60.098,5
2016,5,6,15,45,33,226815,5.519,224.3,1239.26,2.56,60.048,5
2016,5,6,15,45,33,290484,5.5173,224.2,1238.4,2.57,60.048,5
2016,5,6,15,45,33,426268,5.5165,224.2,1238.32,2.51,60.074,5
2016,5,6,15,45,33,490732,5.5165,224.2,1238.27,2.46,60.048,5
2016,5,6,15,45,33,557967,5.519,224.2,1239.2,2.54,60.048,5
2016,5,6,15,45,33,695075,5.5198,224.3,1239.73,2.59,60.048,5
2016,5,6,15,45,33,758001,5.5198,224.3,1239.57,2.59,60.074,5
2016,5,6,15,45,33,893750,5.5214,224.4,1240.42,2.59,60.048,5
2016,5,6,15,45,33,957445,5.5191,224.2,1239.17,2.54,60.098,5
2016,5,6,15,45,34,93346,5.5214,224.3,1240.27,2.62,60.048,5
2016,5,6,15,45,34,157178,5.5222,224.4,1240.55,2.53,60.048,5
2016,5,6,15,45,34,293187,5.5199,224.3,1239.75,2.45,60.098,5
2016,5,6,15,45,34,357274,5.5191,224.3,1239.19,2.49,60.098,5
2016,5,6,15,45,34,493063,5.5198,224.3,1239.62,2.46,60.074,5
2016,5,6,15,45,34,556870,5.5183,224.2,1238.85,2.47,60.098,5
2016,5,6,15,45,34,693382,5.5206,224.3,1239.96,2.6,60.048,5
2016,5,6,15,45,34,757497,5.5181,224.2,1238.92,2.57,60.048,5
2016,5,6,15,45,34,893498,5.5206,224.4,1240.16,2.58,60.048,5
2016,5,6,15,45,34,957150,5.5206,224.3,1240.17,2.55,60.048,5
2016,5,6,15,45,35,92946,5.5181,224.2,1238.97,2.49,60.048,5
2016,5,6,15,45,35,156939,5.5181,224.3,1239.11,2.51,60.048,5
2016,5,6,15,45,35,292789,5.5173,224.2,1238.61,2.47,60.074,5
2016,5,6,15,45,35,356654,5.519,224.3,1239.27,2.52,60.048,5
2016,5,6,15,45,35,492488,5.5159,224.2,1238.15,2.44,60.098,5
2016,5,6,15,45,35,556958,5.5157,224.2,1238.04,2.47,60.048,5
2016,5,6,15,45,35,695351,5.5159,224.1,1237.96,2.48,60.098,5
2016,5,6,15,45,35,759271,5.5149,224.1,1237.73,2.46,60.048,5
2016,5,6,15,45,35,892650,5.5183,224.2,1239.03,2.52,60.098,5
2016,5,6,15,45,35,956019,5.5151,224.1,1237.7,2.37,60.098,5
2016,5,6,15,45,36,93152,5.5126,224.0,1236.51,2.39,60.098,5
2016,5,6,15,45,36,157482,5.5141,224.1,1237.19,2.45,60.074,5
2016,5,6,15,45,36,293621,5.5167,224.2,1238.51,2.51,60.098,5
2016,5,6,15,45,36,357974,5.5157,224.2,1237.95,2.42,60.048,5
2016,5,6,15,45,36,422099,5.5165,224.2,1238.3,2.55,60.048,5
2016,5,6,15,45,36,558628,5.5157,224.2,1238.12,2.6,60.048,5
2016,5,6,15,45,36,622901,5.5125,224.0,1236.36,2.51,60.048,5
2016,5,6,15,45,36,756504,5.5108,224.0,1235.84,2.6,60.048,5
2016,5,6,15,45,36,893296,5.5069,223.8,1233.99,2.39,60.098,5
2016,5,6,15,45,36,955813,5.5061,223.7,1233.61,2.47,60.098,5
2016,5,6,15,45,37,92003,5.5086,223.8,1234.32,2.47,60.098,5
2016,5,6,15,45,37,156437,5.5069,223.7,1233.71,2.47,60.098,5
2016,5,6,15,45,37,292591,5.5068,223.7,1233.66,2.48,60.074,5
2016,5,6,15,45,37,356915,5.5086,223.8,1234.38,2.47,60.098,5
2016,5,6,15,45,37,493158,5.5117,223.9,1235.92,2.56,60.048,5
2016,5,6,15,45,37,557322,5.5108,223.9,1235.54,2.54,60.048,5
2016,5,6,15,45,37,693377,5.5092,223.8,1234.58,2.51,60.048,5
2016,5,6,15,45,37,756998,5.5117,223.9,1235.54,2.51,60.048,5
2016,5,6,15,45,37,829955,5.5117,223.9,1235.66,2.47,60.048,5
2016,5,6,15,45,37,892379,5.5117,223.9,1235.73,2.49,60.048,5
2016,5,6,15,45,37,955090,5.5125,223.9,1236.1,2.56,60.074,5
2016,5,6,15,45,38,27359,5.5118,223.9,1235.47,2.46,60.098,5
2016,5,6,15,45,38,89926,5.5149,224.0,1236.93,2.43,60.074,5
2016,5,6,15,45,38,225030,5.5149,224.0,1237.17,2.47,60.048,5
2016,5,6,15,45,38,360157,5.5157,224.1,1237.36,2.55,60.048,5
2016,5,6,15,45,38,422405,5.5157,224.0,1237.31,2.5,60.048,5
2016,5,6,15,45,38,495705,5.5151,224.0,1237.17,2.51,60.098,5
2016,5,6,15,45,38,557618,5.5133,224.0,1236.2,2.51,60.048,5
2016,5,6,15,45,38,692148,5.5149,224.0,1236.87,2.41,60.048,5
2016,5,6,15,45,38,825646,5.5117,223.9,1235.53,2.5,60.048,5
2016,5,6,15,45,38,959828,5.5133,223.9,1236.08,2.46,60.048,5
2016,5,6,15,45,39,23655,5.5149,224.0,1237.12,2.55,60.048,5
2016,5,6,15,45,39,158652,5.5149,224.0,1236.91,2.43,60.048,5
2016,5,6,15,45,39,222650,5.5149,224.0,1236.94,2.48,60.048,5
2016,5,6,15,45,39,358176,5.5198,224.2,1239.24,2.56,60.048,5
2016,5,6,15,45,39,494083,5.5143,224.0,1236.71,2.46,60.098,5
2016,5,6,15,45,39,555520,5.5165,224.1,1237.64,2.56,60.048,5
2016,5,6,15,45,39,627389,5.5173,224.1,1237.9,2.5,60.048,5
2016,5,6,15,45,39,689839,5.5157,224.0,1237.21,2.45,60.074,5
2016,5,6,15,45,39,825529,5.5159,224.0,1237.25,2.49,60.098,5
2016,5,6,15,45,39,889744,5.5126,223.9,1235.72,2.31,60.098,5
2016,5,6,15,45,39,960383,5.5125,223.9,1235.66,2.42,60.048,5
2016,5,6,15,45,40,24727,5.5125,223.9,1235.67,2.48,60.048,5
2016,5,6,15,45,40,159095,5.5117,223.8,1235.35,2.57,60.048,5
2016,5,6,15,45,40,294269,5.511,223.8,1234.96,2.46,60.098,5
2016,5,6,15,45,40,358173,5.5092,223.8,1234.27,2.39,60.048,5
2016,5,6,15,45,40,494862,5.5108,223.8,1234.94,2.56,60.048,5
2016,5,6,15,45,40,558602,5.5117,223.9,1235.48,2.5,60.048,5
2016,5,6,15,45,40,622412,5.5117,223.8,1235.3,2.46,60.048,5
2016,5,6,15,45,40,759931,5.5141,223.9,1236.26,2.47,60.048,5
2016,5,6,15,45,40,823905,5.5141,224.0,1236.53,2.49,60.048,5
2016,5,6,15,45,40,960186,5.5149,224.0,1236.93,2.48,60.048,5
2016,5,6,15,45,41,92847,5.5157,224.0,1237.16,2.47,60.048,5
2016,5,6,15,45,41,156436,5.5157,224.0,1237.07,2.49,60.074,5
2016,5,6,15,45,41,291153,5.5125,223.9,1235.63,2.47,60.074,5
2016,5,6,15,45,41,355735,5.5149,224.0,1236.64,2.41,60.074,5
2016,5,6,15,45,41,491612,5.5149,224.0,1236.9,2.44,60.048,5
2016,5,6,15,45,41,555693,5.5117,223.8,1235.36,2.45,60.074,5
2016,5,6,15,45,41,692210,5.5108,223.8,1235.03,2.44,60.074,5
2016,5,6,15,45,41,756848,5.5092,223.7,1234.12,2.51,60.048,5
2016,5,6,15,45,41,892753,5.5126,223.9,1235.63,2.41,60.098,5
2016,5,6,15,45,42,28779,5.51,223.8,1234.77,2.48,60.074,5
