Year,Month,Day,Hour,Minute,Second,Millisecond,Current,Voltage,ActivePwr,ReactvPwr,Frequency
2016,05,06,14,54,43,234550,5.5311,221.8,1228.06,2.48,60.024
2016,05,06,14,54,43,298083,5.5246,221.6,1225.72,2.47,60.048
2016,05,06,14,54,43,363974,5.523,221.6,1225.51,2.46,60.048
2016,05,06,14,54,43,499187,5.522,221.7,1225.71,2.51,59.998
2016,05,06,14,54,43,563918,5.5212,221.7,1225.86,2.58,59.998
2016,05,06,14,54,43,699972,5.5164,221.7,1224.41,2.48,59.998
2016,05,06,14,54,43,764825,5.5164,221.8,1224.97,2.47,59.998
2016,05,06,14,54,43,900497,5.5147,221.8,1224.82,2.52,59.998
2016,05,06,14,54,43,965237,5.5155,221.9,1225.43,2.55,59.998
2016,05,06,14,54,44,101497,5.5133,221.9,1225.21,2.39,60.048
2016,05,06,14,54,44,166452,5.5108,221.9,1224.53,2.48,60.024
2016,05,06,14,54,44,230812,5.5117,222.0,1225.16,2.43,60.024
2016,05,06,14,54,44,365349,5.5108,222.0,1225.18,2.43,60.048
2016,05,06,14,54,44,501542,5.5076,222.0,1224.1,2.45,60.024
2016,05,06,14,54,44,566244,5.5091,222.1,1225.09,2.53,59.998
2016,05,06,14,54,44,630278,5.505,222.0,1223.61,2.62,59.998
2016,05,06,14,54,44,766236,5.4987,221.8,1221.12,2.51,60.024
2016,05,06,14,54,44,831348,5.4985,221.9,1221.5,2.38,59.998
2016,05,06,14,54,44,967066,5.493,221.7,1219.53,2.42,60.024
2016,05,06,14,54,45,031531,5.4946,221.8,1220.41,2.49,60.048
2016,05,06,14,54,45,167365,5.4897,221.7,1218.6,2.44,60.048
2016,05,06,14,54,45,231997,5.4865,221.6,1217.44,2.39,60.048
2016,05,06,14,54,45,370288,5.4897,221.8,1218.96,2.49,60.048
2016,05,06,14,54,45,435352,5.4865,221.7,1217.9,2.47,60.048
2016,05,06,14,54,45,499770,5.4832,221.6,1216.5,2.39,60.048
2016,05,06,14,54,45,564273,5.4841,221.6,1216.99,2.45,60.048
2016,05,06,14,54,45,700166,5.4841,221.7,1217.53,2.44,60.048
2016,05,06,14,54,45,765181,5.4839,221.7,1217.51,2.44,59.998
2016,05,06,14,54,45,902068,5.4857,221.9,1218.56,2.39,60.048
2016,05,06,14,54,45,965746,5.4865,221.9,1219.04,2.47,60.024
2016,05,06,14,54,46,101546,5.4865,221.9,1219.09,2.44,60.048
2016,05,06,14,54,46,166740,5.488,222.0,1220.24,2.46,59.998
2016,05,06,14,54,46,231009,5.4871,222.0,1219.99,2.44,59.998
2016,05,06,14,54,46,366281,5.4873,222.1,1220.11,2.37,60.048
2016,05,06,14,54,46,432508,5.4863,222.0,1219.8,2.46,59.998
2016,05,06,14,54,46,497051,5.4841,222.0,1219.02,2.46,60.048
2016,05,06,14,54,46,632662,5.4816,221.9,1217.94,2.42,60.024
2016,05,06,14,54,46,768258,5.4784,221.8,1216.59,2.48,60.048
2016,05,06,14,54,46,832954,5.4784,221.9,1217.03,2.48,60.048
2016,05,06,14,54,46,897739,5.4759,221.7,1215.67,2.37,60.048
2016,05,06,14,54,47,034718,5.4768,221.8,1216.25,2.38,60.024
2016,05,06,14,54,47,099714,5.4776,221.8,1216.73,2.39,60.024
2016,05,06,14,54,47,164586,5.4792,221.9,1217.59,2.41,60.048
2016,05,06,14,54,47,301334,5.48,222.0,1217.92,2.45,60.048
2016,05,06,14,54,47,366406,5.4808,222.0,1218.42,2.45,60.048
2016,05,06,14,54,47,430695,5.48,222.0,1218.09,2.5,60.048
2016,05,06,14,54,47,505653,5.4792,222.0,1217.72,2.42,60.048
2016,05,06,14,54,47,569353,5.48,222.0,1218.39,2.44,60.048
2016,05,06,14,54,47,633243,5.4816,222.1,1218.91,2.42,60.048
2016,05,06,14,54,47,768193,5.4792,222.0,1218.22,2.43,60.048
2016,05,06,14,54,47,833133,5.4816,222.1,1219.21,2.41,60.048
2016,05,06,14,54,47,897918,5.4808,222.1,1219.13,2.41,60.024
2016,05,06,14,54,48,034479,5.4759,221.9,1216.8,2.38,60.024
2016,05,06,14,54,48,099724,5.4743,221.9,1216.42,2.43,60.024
2016,05,06,14,54,48,164904,5.4751,221.9,1216.63,2.37,60.024
2016,05,06,14,54,48,231376,5.4759,222.0,1217.18,2.44,60.048
2016,05,06,14,54,48,368077,5.4735,221.9,1216.19,2.43,60.048
2016,05,06,14,54,48,433323,5.4743,221.9,1216.4,2.4,60.048
2016,05,06,14,54,48,498110,5.4727,221.9,1215.82,2.34,60.048
2016,05,06,14,54,48,637401,5.4743,221.9,1216.48,2.42,60.048
2016,05,06,14,54,48,702502,5.4719,221.9,1215.68,2.46,60.048
2016,05,06,14,54,48,767917,5.4735,221.9,1216.28,2.42,60.048
2016,05,06,14,54,48,833104,5.4735,222.0,1216.42,2.34,60.048
2016,05,06,14,54,48,897754,5.4735,222.0,1216.4,2.35,60.048
2016,05,06,14,54,48,963786,5.4735,222.0,1216.35,2.45,60.024
2016,05,06,14,54,49,099516,5.4703,221.8,1215.03,2.46,60.048
2016,05,06,14,54,49,235343,5.4711,221.9,1215.4,2.38,60.048
2016,05,06,14,54,49,299735,5.4711,221.9,1215.63,2.37,60.048
2016,05,06,14,54,49,363667,5.4695,221.9,1214.96,2.4,60.048
2016,05,06,14,54,49,501503,5.4678,221.8,1214.35,2.37,60.048
2016,05,06,14,54,49,566402,5.4678,221.8,1214.43,2.42,60.048
2016,05,06,14,54,49,703300,5.4646,221.6,1212.8,2.42,60.048
2016,05,06,14,54,49,767888,5.4646,221.7,1212.91,2.44,60.048
2016,05,06,14,54,49,833492,5.4654,221.7,1213.1,2.42,60.048
2016,05,06,14,54,49,897984,5.4638,221.6,1212.66,2.42,60.048
2016,05,06,14,54,50,034191,5.4646,221.7,1212.78,2.51,60.048
2016,05,06,14,54,50,099128,5.467,221.8,1213.92,2.44,60.048
2016,05,06,14,54,50,163680,5.467,221.8,1213.99,2.44,60.048
2016,05,06,14,54,50,300093,5.5936,221.8,1241.95,9.61,60.048
2016,05,06,14,54,50,364652,5.593,221.8,1241.86,9.72,60.124
2016,05,06,14,54,50,500561,5.593,221.8,1241.83,9.72,60.098
2016,05,06,14,54,50,565377,5.5913,221.7,1241.06,9.76,60.098
2016,05,06,14,54,50,702090,5.5871,221.5,1239.42,9.69,60.074
2016,05,06,14,54,50,772875,5.5879,221.6,1239.88,9.53,60.048
2016,05,06,14,54,50,902067,5.5863,221.5,1238.91,9.58,60.048
2016,05,06,14,54,50,965540,5.5847,221.5,1238.39,9.5,60.048
2016,05,06,14,54,51,030237,5.5823,221.4,1237.51,9.54,60.048
2016,05,06,14,54,51,166760,5.5798,221.3,1236.39,9.54,60.048
2016,05,06,14,54,51,232011,5.5798,221.3,1236.48,9.55,60.048
2016,05,06,14,54,51,297164,5.5784,221.3,1235.93,9.63,60.098
2016,05,06,14,54,51,434520,5.5782,221.3,1235.62,9.48,60.048
2016,05,06,14,54,51,499818,5.5808,221.4,1236.94,9.54,60.098
2016,05,06,14,54,51,564496,5.5798,221.4,1236.77,9.61,60.074
2016,05,06,14,54,51,700789,5.5823,221.4,1237.73,9.53,60.048
2016,05,06,14,54,51,765985,5.5823,221.5,1237.83,9.5,60.048
2016,05,06,14,54,51,830358,5.5823,221.5,1237.91,9.51,60.048
2016,05,06,14,54,51,898312,5.5831,221.5,1238.2,9.53,60.048
2016,05,06,14,54,51,964038,5.5855,221.6,1239.25,9.54,60.048
2016,05,06,14,54,52,100269,5.5823,221.5,1237.9,9.65,60.048
2016,05,06,14,54,52,164265,5.5814,221.5,1237.53,9.45,60.048
2016,05,06,14,54,52,300101,5.5839,221.6,1238.95,9.47,60.048
2016,05,06,14,54,52,364863,5.5814,221.5,1237.77,9.6,60.074
2016,05,06,14,54,52,500427,5.5831,221.6,1238.63,9.51,60.048
2016,05,06,14,54,52,564587,5.5823,221.5,1238.22,9.55,60.048
2016,05,06,14,54,52,700170,5.5814,221.5,1237.98,9.48,60.048
2016,05,06,14,54,52,765214,5.5823,221.6,1238.44,9.7,60.074
2016,05,06,14,54,52,900939,5.579,221.4,1236.93,9.65,60.074
2016,05,06,14,54,52,968820,5.5823,221.6,1238.39,9.54,60.048
2016,05,06,14,54,53,033500,5.5798,221.5,1237.47,9.47,60.048
2016,05,06,14,54,53,099499,5.5782,221.4,1236.81,9.61,60.074
2016,05,06,14,54,53,163391,5.5823,221.6,1238.26,9.52,60.048
2016,05,06,14,54,53,298907,5.5798,221.5,1237.54,9.47,60.074
2016,05,06,14,54,53,363515,5.5774,221.4,1236.52,9.6,60.048
2016,05,06,14,54,53,499594,5.5766,221.4,1236.08,9.62,60.074
2016,05,06,14,54,53,564673,5.5774,221.4,1236.22,9.43,60.048
2016,05,06,14,54,53,700451,5.5766,221.4,1236.1,9.49,60.048
2016,05,06,14,54,53,764110,5.5766,221.4,1236.13,9.47,60.074
2016,05,06,14,54,53,899633,5.5743,221.3,1235.26,9.55,60.098
2016,05,06,14,54,53,964663,5.5741,221.3,1234.98,9.48,60.048
2016,05,06,14,54,54,030432,5.5758,221.4,1235.8,9.44,60.048
2016,05,06,14,54,54,166139,5.5733,221.3,1234.89,9.6,60.074
2016,05,06,14,54,54,229569,5.5749,221.3,1235.38,9.53,60.048
2016,05,06,14,54,54,365972,5.5758,221.4,1235.98,9.48,60.074
2016,05,06,14,54,54,430740,5.5727,221.3,1234.59,9.56,60.098
2016,05,06,14,54,54,566959,5.5717,221.2,1233.97,9.53,60.048
2016,05,06,14,54,54,631861,5.5725,221.3,1234.61,9.54,60.048
2016,05,06,14,54,54,696515,5.5749,221.3,1235.44,9.52,60.048
2016,05,06,14,54,54,833232,5.5733,221.3,1234.81,9.51,60.048
2016,05,06,14,54,54,898200,5.5749,221.3,1235.41,9.45,60.048
2016,05,06,14,54,54,963191,5.5758,221.4,1236.0,9.5,60.048
2016,05,06,14,54,55,111618,5.5749,221.4,1235.6,9.46,60.074
2016,05,06,14,54,55,165948,5.5733,221.3,1235.04,9.63,60.074
2016,05,06,14,54,55,231573,5.5758,221.4,1235.91,9.48,60.048
2016,05,06,14,54,55,366741,5.5741,221.3,1235.33,9.49,60.048
2016,05,06,14,54,55,431577,5.5766,221.4,1236.36,9.52,60.048
2016,05,06,14,54,55,496166,5.5749,221.4,1235.7,9.49,60.074
2016,05,06,14,54,55,633323,5.5717,221.2,1234.04,9.5,60.048
2016,05,06,14,54,55,698315,5.5685,221.1,1232.82,9.56,60.048
2016,05,06,14,54,55,763163,5.5676,221.1,1232.36,9.45,60.048
2016,05,06,14,54,55,900136,5.5685,221.1,1233.01,9.6,60.074
2016,05,06,14,54,55,964715,5.5676,221.1,1232.59,9.42,60.048
2016,05,06,14,54,56,029106,5.5662,221.0,1231.71,9.48,60.098
2016,05,06,14,54,56,165254,5.567,221.0,1232.06,9.5,60.098
2016,05,06,14,54,56,234086,5.5654,221.0,1231.54,9.55,60.098
2016,05,06,14,54,56,299448,5.5678,221.1,1232.66,9.56,60.098
2016,05,06,14,54,56,364034,5.5701,221.2,1233.69,9.48,60.074
2016,05,06,14,54,56,499724,5.5701,221.2,1233.66,9.46,60.048
2016,05,06,14,54,56,565105,5.5709,221.2,1234.09,9.51,60.048
2016,05,06,14,54,56,629389,5.5717,221.3,1234.5,9.48,60.048
2016,05,06,14,54,56,765174,5.5733,221.3,1235.01,9.45,60.048
2016,05,06,14,54,56,829701,5.5733,221.4,1235.23,9.47,60.048
2016,05,06,14,54,56,965618,5.5749,221.4,1235.92,9.61,60.074
2016,05,06,14,54,57,029211,5.5766,221.5,1236.58,9.54,60.048
2016,05,06,14,54,57,164976,5.579,221.6,1237.75,9.49,60.048
2016,05,06,14,54,57,230217,5.5784,221.5,1237.31,9.7,60.098
2016,05,06,14,54,57,296980,5.5782,221.5,1237.42,9.56,60.074
2016,05,06,14,54,57,433211,5.5767,221.5,1236.46,9.61,60.098
2016,05,06,14,54,57,496290,5.5767,221.5,1236.65,9.6,60.098
2016,05,06,14,54,57,632149,5.5792,221.6,1237.57,9.57,60.098
2016,05,06,14,54,57,696995,5.5784,221.5,1237.5,9.66,60.098
2016,05,06,14,54,57,833274,5.5814,221.7,1238.87,9.48,60.048
2016,05,06,14,54,57,898540,5.5814,221.7,1238.97,9.52,60.048
2016,05,06,14,54,57,963748,5.5806,221.6,1238.4,9.51,60.048
2016,05,06,14,54,58,028366,5.5798,221.6,1237.97,9.48,60.048
2016,05,06,14,54,58,164751,5.5798,221.6,1238.13,9.51,60.048
2016,05,06,14,54,58,229877,5.5808,221.7,1238.67,9.54,60.124
2016,05,06,14,54,58,369681,5.5709,221.3,1234.07,9.62,60.074
2016,05,06,14,54,58,434177,5.5717,221.3,1234.5,9.5,60.048
2016,05,06,14,54,58,498370,5.5709,221.3,1234.12,9.47,60.048
2016,05,06,14,54,58,561706,5.5693,221.2,1233.59,9.44,60.048
2016,05,06,14,54,58,697381,5.5702,221.2,1233.84,9.62,60.098
2016,05,06,14,54,58,762194,5.5711,221.2,1233.99,9.57,60.098
2016,05,06,14,54,58,898535,5.5719,221.3,1234.6,9.56,60.098
2016,05,06,14,54,58,963443,5.5743,221.4,1235.74,9.56,60.098
2016,05,06,14,54,59,099444,5.5767,221.5,1236.76,9.67,60.098
2016,05,06,14,54,59,163144,5.5782,221.6,1237.41,9.63,60.048
2016,05,06,14,54,59,298863,5.579,221.6,1237.58,9.56,60.048
2016,05,06,14,54,59,364614,5.58,221.6,1237.96,9.54,60.098
2016,05,06,14,54,59,452299,5.5767,221.5,1236.73,9.57,60.098
2016,05,06,14,54,59,496037,5.5774,221.5,1236.99,9.55,60.048
2016,05,06,14,54,59,632593,5.5725,221.3,1234.94,9.44,60.048
2016,05,06,14,54,59,697909,5.5701,221.2,1233.86,9.51,60.048
2016,05,06,14,54,59,763519,5.5701,221.2,1233.87,9.42,60.048
2016,05,06,14,54,59,828395,5.5676,221.2,1232.93,9.5,60.048
2016,05,06,14,54,59,965601,5.567,221.1,1232.53,9.65,60.098
2016,05,06,14,55,00,030601,5.5711,221.3,1234.47,9.58,60.098
2016,05,06,14,55,00,095352,5.5727,221.3,1234.99,9.6,60.098
2016,05,06,14,55,00,232195,5.5749,221.4,1235.86,9.56,60.074
2016,05,06,14,55,00,297390,5.5725,221.4,1235.15,9.57,60.074
2016,05,06,14,55,00,362823,5.5725,221.4,1235.16,9.52,60.074
2016,05,06,14,55,00,499283,5.5733,221.4,1235.44,9.57,60.048
2016,05,06,14,55,00,630395,5.5701,221.3,1234.04,9.46,60.048
2016,05,06,14,55,00,694430,5.5693,221.2,1233.64,9.51,60.048
2016,05,06,14,55,00,767621,5.5685,221.2,1233.25,9.47,60.048
2016,05,06,14,55,00,832837,5.5676,221.2,1232.94,9.51,60.048
2016,05,06,14,55,00,897553,5.5668,221.1,1232.59,9.56,60.048
2016,05,06,14,55,00,962472,5.5685,221.2,1233.24,9.47,60.048
2016,05,06,14,55,01,098469,5.5654,221.0,1231.73,9.62,60.098
2016,05,06,14,55,01,162165,5.5662,221.1,1232.23,9.66,60.098
2016,05,06,14,55,01,297872,5.5636,221.0,1231.15,9.58,60.074
2016,05,06,14,55,01,362598,5.5644,221.0,1231.35,9.5,60.074
2016,05,06,14,55,01,498828,5.5644,221.0,1231.28,9.51,60.074
2016,05,06,14,55,01,562764,5.5652,221.1,1231.88,9.54,60.074
2016,05,06,14,55,01,629114,5.5668,221.1,1232.37,9.49,60.048
2016,05,06,14,55,01,765253,5.5644,221.0,1231.41,9.51,60.048
2016,05,06,14,55,01,830112,5.5636,221.0,1231.14,9.57,60.048
2016,05,06,14,55,01,894487,5.566,221.1,1231.96,9.47,60.048
2016,05,06,14,55,02,029868,5.5628,221.0,1230.82,9.47,60.048
2016,05,06,14,55,02,166031,5.5603,220.9,1229.57,9.47,60.048
2016,05,06,14,55,02,230910,5.5595,220.8,1229.1,9.49,60.048
2016,05,06,14,55,02,295277,5.5587,220.8,1228.72,9.5,60.048
2016,05,06,14,55,02,432112,5.5595,220.8,1229.31,9.53,60.048
2016,05,06,14,55,02,497475,5.562,220.9,1230.36,9.51,60.048
2016,05,06,14,55,02,562349,5.5621,220.9,1230.24,9.65,60.098
2016,05,06,14,55,02,711926,5.5628,220.9,1230.67,9.55,60.074
2016,05,06,14,55,02,766411,5.5668,221.1,1232.49,9.54,60.074
2016,05,06,14,55,02,831715,5.5668,221.1,1232.43,9.56,60.074
2016,05,06,14,55,02,896162,5.5644,221.0,1231.13,9.5,60.048
2016,05,06,14,55,03,032225,5.5693,221.2,1233.42,9.48,60.048
2016,05,06,14,55,03,096198,5.5717,221.3,1234.51,9.5,60.048
2016,05,06,14,55,03,231611,5.5709,221.3,1234.12,9.61,60.074
2016,05,06,14,55,03,296687,5.5709,221.3,1234.03,9.54,60.048
2016,05,06,14,55,03,361426,5.5685,221.2,1233.1,9.53,60.048
2016,05,06,14,55,03,497961,5.5676,221.2,1232.89,9.49,60.048
2016,05,06,14,55,03,562575,5.5701,221.2,1233.84,9.51,60.048
2016,05,06,14,55,03,698788,5.5685,221.2,1233.31,9.5,60.048
2016,05,06,14,55,03,763371,5.5693,221.2,1233.52,9.52,60.048
2016,05,06,14,55,03,831229,5.5701,221.2,1233.84,9.54,60.048
2016,05,06,14,55,03,896628,5.5676,221.2,1232.99,9.55,60.048
2016,05,06,14,55,03,961461,5.5676,221.1,1232.68,9.5,60.048
2016,05,06,14,55,04,097885,5.5701,221.2,1233.77,9.52,60.048
2016,05,06,14,55,04,163037,5.5676,221.2,1232.96,9.56,60.048
2016,05,06,14,55,04,298718,5.5676,221.2,1232.86,9.49,60.048
2016,05,06,14,55,04,362276,5.5638,221.0,1231.07,9.71,60.098
2016,05,06,14,55,04,498129,5.5685,221.2,1233.02,9.51,60.048
2016,05,06,14,55,04,562987,5.566,221.1,1232.09,9.55,60.048
2016,05,06,14,55,04,699094,5.5904,221.2,1238.3,7.74,60.048
2016,05,06,14,55,04,762937,5.5896,221.2,1238.07,7.85,60.048
2016,05,06,14,55,04,894811,5.5863,221.1,1236.77,7.83,60.048
2016,05,06,14,55,05,027751,5.5847,221.1,1236.33,7.85,60.048
2016,05,06,14,55,05,164749,5.5855,221.2,1236.79,7.77,60.048
2016,05,06,14,55,05,229882,5.5855,221.2,1236.93,7.8,60.048
2016,05,06,14,55,05,294118,5.5855,221.2,1236.94,7.78,60.048
2016,05,06,14,55,05,429872,5.5839,221.1,1236.05,7.81,60.048
2016,05,06,14,55,05,494546,5.5847,221.2,1236.59,7.74,60.048
2016,05,06,14,55,05,630708,5.5806,221.0,1234.84,7.81,60.048
2016,05,06,14,55,05,695808,5.579,220.9,1234.05,7.77,60.048
2016,05,06,14,55,05,833063,5.5806,221.0,1234.95,7.73,60.048
2016,05,06,14,55,05,898132,5.5814,221.0,1235.39,7.78,60.048
2016,05,06,14,55,05,976932,5.5806,221.0,1234.85,7.73,60.048
2016,05,06,14,55,06,031785,5.5798,221.0,1234.48,7.78,60.048
2016,05,06,14,55,06,096459,5.5823,221.1,1235.77,7.81,60.048
2016,05,06,14,55,06,231385,5.5839,221.2,1236.39,7.82,60.048
2016,05,06,14,55,06,295093,5.5855,221.2,1237.2,7.85,60.048
2016,05,06,14,55,06,431013,5.5855,221.2,1236.99,7.8,60.048
2016,05,06,14,55,06,495705,5.5839,221.2,1236.58,7.85,60.048
2016,05,06,14,55,06,631899,5.5814,221.1,1235.34,7.79,60.024
2016,05,06,14,55,06,697258,5.5814,221.1,1235.5,7.78,60.048
2016,05,06,14,55,06,762057,5.5821,221.1,1235.59,7.69,59.998
2016,05,06,14,55,06,898960,5.5796,221.0,1234.78,7.69,59.998
2016,05,06,14,55,06,963996,5.5805,221.0,1235.1,7.74,59.998
2016,05,06,14,55,07,028545,5.5813,221.1,1235.48,7.72,59.998
2016,05,06,14,55,07,163708,5.5796,221.0,1234.98,7.7,59.998
2016,05,06,14,55,07,229524,5.5831,221.2,1236.34,7.65,60.024
2016,05,06,14,55,07,294519,5.5798,221.0,1234.86,7.79,60.048
2016,05,06,14,55,07,430828,5.5823,221.1,1235.81,7.77,60.048
2016,05,06,14,55,07,495680,5.5798,221.0,1234.84,7.83,60.048
2016,05,06,14,55,07,633268,5.5823,221.1,1235.95,7.65,60.024
2016,05,06,14,55,07,698314,5.5798,221.0,1234.66,7.79,60.024
2016,05,06,14,55,07,763025,5.579,221.0,1234.54,7.66,60.024
2016,05,06,14,55,07,899651,5.5796,221.0,1234.96,7.67,59.998
2016,05,06,14,55,07,964803,5.5796,221.0,1234.68,7.71,59.998
2016,05,06,14,55,08,029241,5.5788,221.0,1234.44,7.69,59.998
2016,05,06,14,55,08,168572,5.5831,221.2,1236.19,7.67,60.024
2016,05,06,14,55,08,233189,5.5806,221.1,1235.32,7.85,60.048
2016,05,06,14,55,08,363602,5.5823,221.1,1236.01,7.76,60.048
2016,05,06,14,55,08,498999,5.5887,221.4,1238.79,7.8,60.048
2016,05,06,14,55,08,564117,5.5879,221.4,1238.52,7.84,60.024
2016,05,06,14,55,08,628536,5.5902,221.4,1239.34,7.72,59.998
2016,05,06,14,55,08,764298,5.5837,221.2,1236.86,7.68,59.998
2016,05,06,14,55,08,828704,5.5847,221.2,1237.03,7.77,60.024
2016,05,06,14,55,08,964127,5.5823,221.2,1236.14,7.81,60.048
2016,05,06,14,55,09,099662,5.5853,221.3,1237.38,7.74,59.998
2016,05,06,14,55,09,164412,5.5845,221.2,1237.03,7.74,59.998
2016,05,06,14,55,09,231157,5.5837,221.2,1236.64,7.69,59.998
2016,05,06,14,55,09,294978,5.5829,221.2,1236.31,7.75,59.998
2016,05,06,14,55,09,432839,5.5821,221.1,1235.9,7.71,59.998
2016,05,06,14,55,09,497906,5.5813,221.1,1235.47,7.68,59.998
2016,05,06,14,55,09,562618,5.5821,221.1,1235.85,7.76,59.998
2016,05,06,14,55,09,699432,5.5805,221.1,1235.19,7.68,59.998
2016,05,06,14,55,09,764241,5.5829,221.2,1236.27,7.67,59.998
2016,05,06,14,55,09,900175,5.5798,221.0,1234.96,7.85,60.048
2016,05,06,14,55,09,964226,5.5806,221.1,1235.37,7.82,60.048
2016,05,06,14,55,10,028834,5.5823,221.1,1235.9,7.8,60.048
2016,05,06,14,55,10,164593,5.5855,221.2,1237.16,7.8,60.048
2016,05,06,14,55,10,311963,5.5831,221.2,1236.19,7.82,60.048
2016,05,06,14,55,10,366952,5.5855,221.3,1237.27,7.74,60.024
2016,05,06,14,55,10,431881,5.5837,221.2,1236.63,7.82,59.998
2016,05,06,14,55,10,495573,5.5813,221.1,1235.56,7.79,59.998
2016,05,06,14,55,10,632490,5.5837,221.2,1236.86,7.73,59.998
2016,05,06,14,55,10,697844,5.5861,221.3,1237.78,7.7,59.998
2016,05,06,14,55,10,762791,5.5837,221.2,1236.56,7.68,59.998
2016,05,06,14,55,10,899981,5.5863,221.3,1237.62,7.8,60.048
2016,05,06,14,55,10,964677,5.5831,221.2,1236.27,7.79,60.048
2016,05,06,14,55,11,029217,5.5814,221.1,1235.67,7.74,60.024
2016,05,06,14,55,11,166079,5.5847,221.2,1237.19,7.78,60.024
2016,05,06,14,55,11,231150,5.5823,221.2,1236.12,7.79,60.048
2016,05,06,14,55,11,367562,5.5831,221.2,1236.47,7.82,60.048
2016,05,06,14,55,11,435420,5.5814,221.1,1235.52,7.8,60.024
2016,05,06,14,55,11,500773,5.5805,221.1,1235.27,7.74,59.998
2016,05,06,14,55,11,565591,5.5821,221.1,1236.04,7.75,59.998
2016,05,06,14,55,11,629838,5.5821,221.1,1235.81,7.69,59.998
2016,05,06,14,55,11,765720,5.5782,221.0,1234.17,7.83,60.048
2016,05,06,14,55,11,829444,5.5814,221.1,1235.58,7.76,60.048
2016,05,06,14,55,11,965862,5.5806,221.1,1235.27,7.86,60.048
2016,05,06,14,55,12,030680,5.5831,221.2,1236.31,7.81,60.024
2016,05,06,14,55,12,166849,5.5839,221.2,1236.76,7.79,60.048
2016,05,06,14,55,12,231629,5.5839,221.2,1236.73,7.82,60.048
2016,05,06,14,55,12,296085,5.5871,221.3,1238.06,7.77,60.024
2016,05,06,14,55,12,433723,5.5855,221.3,1237.46,7.82,60.048
2016,05,06,14,55,12,496269,5.5863,221.3,1237.7,7.86,60.024
2016,05,06,14,55,12,633456,5.5896,221.4,1239.21,7.78,60.024
2016,05,06,14,55,12,697350,5.5863,221.3,1237.83,7.86,60.048
2016,05,06,14,55,12,832599,5.5904,221.5,1239.7,7.82,60.024
2016,05,06,14,55,12,896488,5.5912,221.5,1239.93,7.82,60.024
2016,05,06,14,55,13,034373,5.5878,221.4,1238.49,7.81,59.998
2016,05,06,14,55,13,099335,5.591,221.5,1240.01,7.75,59.998
2016,05,06,14,55,13,163712,5.587,221.3,1238.23,7.68,59.998
2016,05,06,14,55,13,299047,5.5894,221.4,1239.14,7.74,59.998
2016,05,06,14,55,13,363329,5.5861,221.3,1237.95,7.75,59.998
2016,05,06,14,55,13,499090,5.5845,221.3,1237.04,7.8,59.998
2016,05,06,14,55,13,574347,5.5831,221.2,1236.48,7.67,60.024
2016,05,06,14,55,13,702842,5.5798,221.1,1235.05,7.82,60.048
2016,05,06,14,55,13,766260,5.5806,221.1,1235.31,7.78,60.048
2016,05,06,14,55,13,831197,5.579,221.0,1234.68,7.82,60.048
2016,05,06,14,55,13,968204,5.5798,221.1,1235.13,7.83,60.048
2016,05,06,14,55,14,033319,5.5839,221.2,1236.76,7.79,60.048
2016,05,06,14,55,14,097844,5.5839,221.3,1237.01,7.76,60.048
2016,05,06,14,55,14,234590,5.5813,221.2,1235.83,7.68,59.998
2016,05,06,14,55,14,299750,5.5788,221.1,1234.92,7.8,59.998
2016,05,06,14,55,14,363991,5.5764,221.0,1233.8,7.69,59.998
2016,05,06,14,55,14,499290,5.5788,221.0,1234.73,7.67,59.998
2016,05,06,14,55,14,564315,5.5821,221.2,1236.17,7.75,59.998
2016,05,06,14,55,14,700116,5.5805,221.1,1235.51,7.75,59.998
2016,05,06,14,55,14,764314,5.5845,221.3,1237.08,7.72,59.998
2016,05,06,14,55,14,899550,5.587,221.4,1238.22,7.84,59.998
2016,05,06,14,55,14,964558,5.5871,221.4,1238.19,7.72,60.048
2016,05,06,14,55,15,100262,5.5879,221.4,1238.55,7.83,60.048
2016,05,06,14,55,15,164067,5.5847,221.3,1237.47,7.81,60.048
2016,05,06,14,55,15,300154,5.5855,221.3,1237.55,7.83,60.048
2016,05,06,14,55,15,365373,5.5839,221.2,1236.92,7.77,60.048
2016,05,06,14,55,15,501166,5.5847,221.3,1237.14,7.83,60.048
2016,05,06,14,55,15,564849,5.5847,221.3,1237.09,7.84,60.048
2016,05,06,14,55,15,700600,5.5855,221.3,1237.62,7.86,60.048
2016,05,06,14,55,15,769296,5.5871,221.4,1238.38,7.82,60.048
2016,05,06,14,55,15,834530,5.587,221.4,1238.41,7.84,59.998
2016,05,06,14,55,15,898815,5.5871,221.4,1238.48,7.86,60.024
2016,05,06,14,55,16,034943,5.5879,221.4,1238.8,7.88,60.048
2016,05,06,14,55,16,100118,5.5902,221.5,1239.89,7.69,59.972
2016,05,06,14,55,16,164196,5.5837,221.2,1236.85,7.84,59.998
2016,05,06,14,55,16,299860,5.5853,221.3,1237.52,7.85,59.998
2016,05,06,14,55,16,364777,5.5861,221.4,1238.09,7.83,59.998
2016,05,06,14,55,16,500581,5.5683,221.3,1233.86,1.83,59.998
2016,05,06,14,55,16,564486,5.6074,221.2,1241.69,3.32,60.048
2016,05,06,14,55,16,700572,5.6034,221.0,1240.15,3.32,60.048
2016,05,06,14,55,16,765627,5.6017,221.0,1239.8,3.2,60.048
2016,05,06,14,55,16,831170,5.6048,221.1,1240.98,3.11,59.998
2016,05,06,14,55,16,967628,5.6098,221.4,1243.37,3.1,60.048
2016,05,06,14,55,17,031843,5.6115,221.5,1244.19,3.01,60.048
2016,05,06,14,55,17,167476,5.6131,221.6,1245.27,2.94,60.048
2016,05,06,14,55,17,232215,5.6107,221.5,1244.22,3.03,60.048
2016,05,06,14,55,17,369442,5.6058,221.3,1242.01,2.88,60.024
2016,05,06,14,55,17,434187,5.6074,221.4,1243.08,2.89,60.048
2016,05,06,14,55,17,498934,5.6042,221.3,1241.64,2.91,60.024
2016,05,06,14,55,17,635638,5.6017,221.2,1240.79,2.85,60.048
2016,05,06,14,55,17,700898,5.6017,221.2,1240.56,2.8,60.048
2016,05,06,14,55,17,766166,5.5977,221.0,1238.95,2.81,60.048
2016,05,06,14,55,17,904043,5.6017,221.2,1240.51,2.77,60.048
2016,05,06,14,55,17,969222,5.6001,221.2,1240.13,2.76,60.048
2016,05,06,14,55,18,034081,5.596,221.0,1238.29,2.82,60.048
2016,05,06,14,55,18,098326,5.6001,221.1,1239.81,2.83,60.048
2016,05,06,14,55,18,235392,5.6042,221.3,1241.81,2.75,60.048
2016,05,06,14,55,18,299525,5.6025,221.2,1241.1,2.72,60.048
2016,05,06,14,55,18,435889,5.6034,221.3,1241.51,2.74,60.048
2016,05,06,14,55,18,499847,5.5993,221.1,1239.76,2.72,60.048
2016,05,06,14,55,18,635683,5.5977,221.0,1238.82,2.68,60.048
2016,05,06,14,55,18,701179,5.5993,221.1,1239.72,2.77,60.048
2016,05,06,14,55,18,766141,5.6001,221.1,1239.77,2.7,60.048
2016,05,06,14,55,18,901642,5.5977,221.0,1238.92,2.7,60.048
2016,05,06,14,55,18,990532,5.5993,221.1,1239.51,2.82,60.048
2016,05,06,14,55,19,034367,5.6001,221.1,1239.87,2.76,60.048
2016,05,06,14,55,19,099567,5.6009,221.2,1240.2,2.73,60.048
2016,05,06,14,55,19,163928,5.5993,221.1,1239.73,2.79,60.048
2016,05,06,14,55,19,300233,5.6009,221.2,1240.36,2.72,60.048
2016,05,06,14,55,19,364823,5.6009,221.2,1240.19,2.77,60.048
2016,05,06,14,55,19,500753,5.6009,221.2,1240.17,2.77,60.048
2016,05,06,14,55,19,564375,5.592,220.8,1236.4,2.82,60.024
2016,05,06,14,55,19,700073,5.5214,218.0,1205.15,2.67,60.048
2016,05,06,14,55,19,764948,5.5855,220.5,1233.22,2.69,60.024
2016,05,06,14,55,19,900544,5.5823,220.4,1231.98,2.78,60.048
2016,05,06,14,55,19,964375,5.5814,220.4,1231.67,2.78,60.024
2016,05,06,14,55,20,102382,5.5782,220.2,1230.01,2.8,60.024
2016,05,06,14,55,20,167329,5.5782,220.2,1230.2,2.71,60.024
2016,05,06,14,55,20,231950,5.5798,220.3,1230.98,2.81,60.048
2016,05,06,14,55,20,368962,5.579,220.3,1230.42,2.78,60.048
2016,05,06,14,55,20,433577,5.5806,220.3,1231.04,2.73,60.048
2016,05,06,14,55,20,498101,5.5798,220.3,1230.78,2.74,60.024
2016,05,06,14,55,20,635182,5.5823,220.4,1231.9,2.72,60.048
2016,05,06,14,55,20,700159,5.5839,220.4,1232.49,2.78,60.024
2016,05,06,14,55,20,765175,5.5861,220.6,1233.61,2.76,59.998
2016,05,06,14,55,20,901660,5.5837,220.5,1232.6,2.75,59.998
2016,05,06,14,55,20,966869,5.5837,220.5,1232.62,2.7,59.998
2016,05,06,14,55,21,031238,5.5871,220.6,1233.96,2.74,60.048
2016,05,06,14,55,21,169346,5.5831,220.4,1232.23,2.72,60.048
2016,05,06,14,55,21,233781,5.5823,220.4,1232.04,2.75,60.048
2016,05,06,14,55,21,298660,5.5839,220.4,1232.48,2.73,60.048
2016,05,06,14,55,21,434083,5.5839,220.5,1232.75,2.73,60.048
2016,05,06,14,55,21,497951,5.5806,220.3,1231.28,2.73,60.048
2016,05,06,14,55,21,635280,5.5823,220.4,1232.07,2.69,60.048
2016,05,06,14,55,21,700490,5.5831,220.4,1232.32,2.73,60.048
2016,05,06,14,55,21,764597,5.5823,220.4,1231.93,2.71,60.048
2016,05,06,14,55,21,899961,5.5798,220.3,1230.7,2.75,60.048
2016,05,06,14,55,22,035883,5.5814,220.4,1231.52,2.73,60.048
2016,05,06,14,55,22,101214,5.5814,220.4,1231.43,2.73,60.048
2016,05,06,14,55,22,165717,5.5806,220.3,1231.11,2.73,60.048
2016,05,06,14,55,22,242920,5.5798,220.3,1230.94,2.71,60.048
2016,05,06,14,55,22,368597,5.5798,220.3,1230.95,2.74,60.048
2016,05,06,14,55,22,432120,5.5814,220.4,1231.65,2.7,60.048
2016,05,06,14,55,22,568889,5.579,220.3,1230.38,2.72,60.048
2016,05,06,14,55,22,633939,5.5774,220.2,1229.88,2.66,60.048
2016,05,06,14,55,22,698741,5.5774,220.2,1229.83,2.74,60.048
2016,05,06,14,55,22,836233,5.5782,220.3,1230.2,2.65,60.048
2016,05,06,14,55,22,901076,5.579,220.3,1230.59,2.69,60.048
2016,05,06,14,55,22,965942,5.5798,220.3,1230.86,2.75,60.048
2016,05,06,14,55,23,102424,5.5798,220.3,1230.87,2.73,60.048
2016,05,06,14,55,23,167039,5.5806,220.3,1231.11,2.73,60.048
2016,05,06,14,55,23,324759,5.5831,220.4,1232.11,2.79,60.048
2016,05,06,14,55,23,368220,5.5831,220.4,1232.31,2.71,60.024
2016,05,06,14,55,23,432696,5.5806,220.4,1231.34,2.73,60.048
2016,05,06,14,55,23,567218,5.5831,220.4,1232.14,2.79,60.024
2016,05,06,14,55,23,631688,5.5855,220.5,1233.32,2.68,60.024
2016,05,06,14,55,23,768408,5.5871,220.6,1234.16,2.75,60.048
2016,05,06,14,55,23,833418,5.5839,220.4,1232.47,2.78,60.024
2016,05,06,14,55,23,970230,5.5831,220.4,1232.24,2.75,60.048
2016,05,06,14,55,24,034811,5.5831,220.4,1232.14,2.75,60.048
2016,05,06,14,55,24,099205,5.5831,220.4,1232.19,2.78,60.024
2016,05,06,14,55,24,235530,5.5831,220.4,1232.32,2.73,60.048
2016,05,06,14,55,24,300117,5.5831,220.4,1232.31,2.79,60.048
2016,05,06,14,55,24,364704,5.5847,220.5,1233.02,2.74,60.048
2016,05,06,14,55,24,432627,5.5847,220.5,1232.92,2.75,60.048
2016,05,06,14,55,24,570915,5.5823,220.4,1231.89,2.7,60.048
2016,05,06,14,55,24,635134,5.5831,220.4,1232.39,2.75,60.048
2016,05,06,14,55,24,699904,5.5839,220.5,1232.66,2.71,60.048
2016,05,06,14,55,24,836164,5.5814,220.4,1231.46,2.74,60.048
2016,05,06,14,55,24,901132,5.5839,220.5,1232.69,2.68,60.048
2016,05,06,14,55,24,966230,5.5855,220.5,1233.3,2.69,60.048
2016,05,06,14,55,25,103085,5.5871,220.6,1233.97,2.68,60.048
2016,05,06,14,55,25,168019,5.5871,220.6,1233.79,2.74,60.048
2016,05,06,14,55,25,232267,5.5879,220.6,1234.49,2.7,60.048
2016,05,06,14,55,25,367532,5.5806,220.4,1231.4,2.68,60.048
2016,05,06,14,55,25,432127,5.5766,220.2,1229.45,2.67,60.048
2016,05,06,14,55,25,498507,5.5774,220.2,1229.87,2.71,60.048
2016,05,06,14,55,25,635046,5.579,220.3,1230.65,2.75,60.048
2016,05,06,14,55,25,698921,5.5782,220.2,1230.13,2.73,60.048
2016,05,06,14,55,25,836141,5.5774,220.2,1229.8,2.71,60.048
2016,05,06,14,55,25,901383,5.5749,220.1,1228.73,2.69,60.048
2016,05,06,14,55,25,965735,5.5725,220.0,1227.52,2.78,60.048
2016,05,06,14,55,26,102482,5.5709,220.0,1227.06,2.71,60.048
2016,05,06,14,55,26,167321,5.5701,219.9,1226.45,2.71,60.048
2016,05,06,14,55,26,303229,5.5733,220.0,1227.87,2.76,60.048
2016,05,06,14,55,26,366971,5.5766,220.2,1229.43,2.74,60.048
2016,05,06,14,55,26,503259,5.5831,220.4,1232.23,2.7,60.048
2016,05,06,14,55,26,580539,5.5831,220.4,1232.12,2.7,60.048
2016,05,06,14,55,26,634748,5.5863,220.5,1233.63,2.73,60.048
2016,05,06,14,55,26,698872,5.5847,220.5,1232.93,2.79,60.048
2016,05,06,14,55,26,834330,5.5839,220.5,1232.6,2.77,60.048
2016,05,06,14,55,26,969944,5.5749,220.1,1228.78,2.73,60.048
2016,05,06,14,55,27,034757,5.5774,220.2,1229.52,2.76,60.048
2016,05,06,14,55,27,099403,5.5798,220.3,1230.65,2.78,60.048
2016,05,06,14,55,27,236111,5.5798,220.3,1230.85,2.74,60.048
2016,05,06,14,55,27,300784,5.5823,220.4,1231.66,2.77,60.048
2016,05,06,14,55,27,365193,5.579,220.3,1230.56,2.78,60.048
2016,05,06,14,55,27,439198,5.5798,220.3,1230.71,2.77,60.048
2016,05,06,14,55,27,503109,5.5823,220.4,1231.71,2.83,60.048
2016,05,06,14,55,27,567188,5.5839,220.4,1232.54,2.81,60.048
2016,05,06,14,55,27,699707,5.5847,220.5,1232.81,2.78,60.048
2016,05,06,14,55,27,838565,5.5879,220.6,1234.46,2.78,60.048
2016,05,06,14,55,27,903391,5.5871,220.6,1233.78,2.75,60.048
2016,05,06,14,55,27,967808,5.5879,220.6,1234.28,2.8,60.048
2016,05,06,14,55,28,103313,5.5855,220.5,1233.23,2.77,60.048
2016,05,06,14,55,28,167882,5.5847,220.5,1233.11,2.79,60.048
2016,05,06,14,55,28,232598,5.5839,220.4,1232.45,2.73,60.048
2016,05,06,14,55,28,368141,5.5806,220.3,1231.23,2.81,60.048
2016,05,06,14,55,28,432910,5.5798,220.3,1230.69,2.79,60.048
2016,05,06,14,55,28,569461,5.5806,220.3,1231.09,2.77,60.048
2016,05,06,14,55,28,634224,5.579,220.3,1230.56,2.79,60.048
2016,05,06,14,55,28,766205,5.5814,220.4,1231.48,2.81,60.048
2016,05,06,14,55,28,904046,5.5798,220.3,1230.86,2.78,60.048
2016,05,06,14,55,28,969419,5.5798,220.3,1230.76,2.77,60.048
2016,05,06,14,55,29,033630,5.5831,220.4,1232.16,2.75,60.048
2016,05,06,14,55,29,168982,5.5863,220.5,1233.64,2.78,60.048
2016,05,06,14,55,29,233471,5.5863,220.6,1233.7,2.76,60.048
2016,05,06,14,55,29,370023,5.5896,220.7,1235.02,2.76,60.048
2016,05,06,14,55,29,434997,5.5879,220.6,1234.29,2.77,60.048
2016,05,06,14,55,29,499392,5.5887,220.7,1234.93,2.8,60.048
2016,05,06,14,55,29,636055,5.5904,220.7,1235.37,2.87,60.048
2016,05,06,14,55,29,700970,5.5879,220.6,1234.32,2.78,60.048
2016,05,06,14,55,29,766074,5.5879,220.7,1234.57,2.84,60.048
2016,05,06,14,55,29,842317,5.5896,220.7,1235.09,2.8,60.048
2016,05,06,14,55,29,969774,5.5928,220.8,1236.69,2.82,60.048
2016,05,06,14,55,30,033847,5.5912,220.8,1236.04,2.78,60.048
2016,05,06,14,55,30,170432,5.5823,220.4,1231.9,2.76,60.048
2016,05,06,14,55,30,235320,5.5831,220.4,1232.29,2.81,60.048
2016,05,06,14,55,30,299770,5.5823,220.4,1231.98,2.85,60.048
2016,05,06,14,55,30,436306,5.5806,220.4,1231.41,2.75,60.048
2016,05,06,14,55,30,501197,5.5839,220.5,1232.57,2.8,60.048
2016,05,06,14,55,30,638158,5.4329,220.7,1200.3,2.4,60.048
2016,05,06,14,55,30,702994,5.4346,220.7,1201.0,2.36,60.048
2016,05,06,14,55,30,767073,5.4378,220.8,1202.29,2.36,60.048
2016,05,06,14,55,30,924420,5.4337,220.7,1200.74,2.42,60.048
2016,05,06,14,55,30,968446,5.4354,220.8,1201.48,2.38,60.048
2016,05,06,14,55,31,033320,5.4354,220.7,1201.35,2.41,60.048
2016,05,06,14,55,31,168712,5.4354,220.7,1201.35,2.42,60.048
2016,05,06,14,55,31,233843,5.4362,220.8,1201.61,2.4,60.048
2016,05,06,14,55,31,370053,5.4337,220.7,1200.61,2.46,60.048
2016,05,06,14,55,31,434748,5.4337,220.7,1200.71,2.37,60.048
2016,05,06,14,55,31,499406,5.4354,220.8,1201.5,2.43,60.048
2016,05,06,14,55,31,636539,5.437,220.8,1201.97,2.42,60.048
2016,05,06,14,55,31,701567,5.4321,220.6,1199.85,2.36,60.048
2016,05,06,14,55,31,766119,5.4337,220.7,1200.7,2.45,60.048
2016,05,06,14,55,31,903967,5.4402,220.9,1203.45,2.4,60.048
2016,05,06,14,55,31,968641,5.4402,220.9,1203.64,2.39,60.048
2016,05,06,14,55,32,036751,5.4419,221.0,1204.22,2.41,60.048
2016,05,06,14,55,32,100667,5.4411,221.0,1203.95,2.42,60.048
2016,05,06,14,55,32,236127,5.4427,221.0,1204.54,2.41,60.048
2016,05,06,14,55,32,300202,5.4427,221.0,1204.57,2.5,60.048
2016,05,06,14,55,32,436955,5.4402,221.0,1203.78,2.46,60.048
2016,05,06,14,55,32,502259,5.4378,220.9,1202.6,2.42,60.048
2016,05,06,14,55,32,567260,5.437,220.8,1202.16,2.4,60.048
2016,05,06,14,55,32,704151,5.4329,220.7,1200.27,2.38,60.048
2016,05,06,14,55,32,769269,5.4305,220.6,1199.54,2.43,60.048
2016,05,06,14,55,32,833975,5.4329,220.7,1200.45,2.33,60.048
2016,05,06,14,55,32,969852,5.4378,220.9,1202.45,2.44,60.048
2016,05,06,14,55,33,034665,5.4402,220.9,1203.45,2.46,60.048
2016,05,06,14,55,33,170816,5.4411,221.0,1203.76,2.38,60.048
2016,05,06,14,55,33,234682,5.4411,221.0,1204.17,2.37,60.048
2016,05,06,14,55,33,369954,5.4362,220.8,1201.82,2.4,60.048
2016,05,06,14,55,33,434953,5.4362,220.8,1201.82,2.36,60.048
2016,05,06,14,55,33,571081,5.4354,220.8,1201.6,2.39,60.048
2016,05,06,14,55,33,635856,5.4337,220.7,1200.69,2.43,60.048
2016,05,06,14,55,33,700236,5.4346,220.7,1201.22,2.45,60.048
2016,05,06,14,55,33,836574,5.4329,220.7,1200.33,2.38,60.048
2016,05,06,14,55,33,901230,5.4329,220.7,1200.41,2.39,60.048
2016,05,06,14,55,34,036712,5.5376,220.6,1223.25,7.95,60.048
2016,05,06,14,55,34,100851,5.5571,220.7,1227.84,9.72,60.048
2016,05,06,14,55,34,180473,5.5603,220.8,1229.11,9.75,60.048
2016,05,06,14,55,34,234055,5.5612,220.8,1229.42,9.7,60.048
2016,05,06,14,55,34,370090,5.5595,220.8,1228.99,9.66,60.048
2016,05,06,14,55,34,435290,5.5555,220.6,1227.21,9.7,60.048
2016,05,06,14,55,34,500178,5.5547,220.6,1226.72,9.64,60.048
2016,05,06,14,55,34,636633,5.553,220.5,1225.9,9.65,60.048
2016,05,06,14,55,34,701449,5.5506,220.4,1224.94,9.68,60.048
2016,05,06,14,55,34,837703,5.5482,220.3,1223.83,9.64,60.048
2016,05,06,14,55,34,902801,5.549,220.4,1224.38,9.69,60.048
2016,05,06,14,55,34,967472,5.5514,220.5,1225.52,9.63,60.048
2016,05,06,14,55,35,102936,5.5506,220.4,1225.08,9.68,60.048
2016,05,06,14,55,35,167340,5.5506,220.4,1225.1,9.66,60.048
2016,05,06,14,55,35,370258,5.5514,220.5,1225.64,9.62,60.048
2016,05,06,14,55,35,434095,5.5506,220.5,1225.39,9.61,60.048
2016,05,06,14,55,35,570520,5.5522,220.5,1226.15,9.61,60.048
2016,05,06,14,55,35,635353,5.5538,220.6,1226.97,9.63,60.048
2016,05,06,14,55,35,699829,5.5538,220.6,1226.88,9.64,60.048
2016,05,06,14,55,35,836785,5.5538,220.6,1226.97,9.63,60.048
2016,05,06,14,55,35,902034,5.5522,220.6,1226.11,9.62,60.048
2016,05,06,14,55,35,966802,5.5475,220.4,1224.05,9.74,60.098
2016,05,06,14,55,36,104327,5.5522,220.6,1226.23,9.61,60.048
2016,05,06,14,55,36,169439,5.553,220.6,1226.44,9.63,60.048
2016,05,06,14,55,36,233897,5.5498,220.5,1225.32,9.6,60.048
2016,05,06,14,55,36,370772,5.5522,220.6,1226.15,9.63,60.048
2016,05,06,14,55,36,435674,5.5522,220.6,1226.24,9.59,60.048
2016,05,06,14,55,36,502456,5.553,220.6,1226.66,9.62,60.048
2016,05,06,14,55,36,566534,5.5514,220.6,1225.95,9.6,60.048
2016,05,06,14,55,36,703235,5.5498,220.5,1225.32,9.63,60.048
2016,05,06,14,55,36,767537,5.5498,220.5,1225.29,9.64,60.048
2016,05,06,14,55,36,903600,5.5514,220.5,1225.82,9.62,60.048
2016,05,06,14,55,36,968588,5.5449,220.3,1223.02,9.59,60.048
2016,05,06,14,55,37,103304,5.5474,220.4,1224.35,9.59,60.048
2016,05,06,14,55,37,168623,5.5449,220.3,1223.31,9.66,60.048
2016,05,06,14,55,37,233112,5.5457,220.3,1223.4,9.59,60.048
2016,05,06,14,55,37,369092,5.5457,220.3,1223.52,9.64,60.048
2016,05,06,14,55,37,439913,5.5457,220.4,1223.65,9.63,60.048
2016,05,06,14,55,37,504787,5.5457,220.4,1223.67,9.6,60.048
2016,05,06,14,55,37,569301,5.5482,220.4,1224.4,9.64,60.048
2016,05,06,14,55,37,704574,5.5465,220.4,1223.71,9.6,60.048
2016,05,06,14,55,37,768617,5.5441,220.3,1222.72,9.64,60.024
2016,05,06,14,55,37,905622,5.5449,220.3,1223.07,9.62,60.048
2016,05,06,14,55,37,970562,5.5449,220.3,1223.28,9.59,60.048
2016,05,06,14,55,38,035378,5.5457,220.4,1223.56,9.58,60.048
2016,05,06,14,55,38,100527,5.5465,220.4,1223.99,9.61,60.048
2016,05,06,14,55,38,237082,5.5465,220.4,1223.88,9.59,60.048
2016,05,06,14,55,38,302526,5.5474,220.4,1224.27,9.6,60.048
2016,05,06,14,55,38,367115,5.5449,220.3,1223.13,9.64,60.048
2016,05,06,14,55,38,531271,5.5456,220.3,1223.47,9.57,59.998
2016,05,06,14,55,38,638598,5.5425,220.2,1222.11,9.61,60.048
2016,05,06,14,55,38,705172,5.548,220.4,1224.49,9.58,59.998
2016,05,06,14,55,38,769506,5.5474,220.4,1224.29,9.62,60.048
2016,05,06,14,55,38,836224,5.5425,220.2,1222.06,9.62,60.048
2016,05,06,14,55,38,971435,5.5401,220.1,1221.06,9.58,60.024
2016,05,06,14,55,39,035368,5.5368,220.0,1219.52,9.63,60.048
2016,05,06,14,55,39,171316,5.5425,220.2,1221.92,9.61,60.048
2016,05,06,14,55,39,236580,5.5407,220.2,1221.32,9.55,59.998
2016,05,06,14,55,39,301876,5.5376,220.0,1219.96,9.56,60.048
2016,05,06,14,55,39,437523,5.5409,220.2,1221.29,9.49,60.024
2016,05,06,14,55,39,501348,5.5352,219.9,1218.88,9.6,60.048
2016,05,06,14,55,39,638533,5.5409,220.1,1221.19,9.59,60.024
2016,05,06,14,55,39,703692,5.5399,220.1,1220.73,9.45,59.998
2016,05,06,14,55,39,768882,5.5399,220.1,1221.11,9.59,59.998
2016,05,06,14,55,39,903455,5.5465,220.4,1223.87,9.71,60.048
2016,05,06,14,55,40,038776,5.5521,220.6,1226.37,9.59,59.998
2016,05,06,14,55,40,103455,5.5496,220.5,1225.41,9.56,59.998
2016,05,06,14,55,40,167850,5.5545,220.7,1227.43,9.66,59.998
2016,05,06,14,55,40,304615,5.5555,220.8,1228.01,9.64,60.048
2016,05,06,14,55,40,368411,5.5579,220.8,1228.91,9.63,60.048
2016,05,06,14,55,40,504322,5.5506,220.6,1225.83,9.65,60.024
2016,05,06,14,55,40,569321,5.5545,220.7,1227.58,9.6,59.998
2016,05,06,14,55,40,708716,5.5521,220.6,1226.49,9.64,59.998
2016,05,06,14,55,40,774345,5.5537,220.7,1227.12,9.52,59.998
2016,05,06,14,55,40,838512,5.5553,220.8,1227.83,9.55,59.998
2016,05,06,14,55,40,902292,5.5538,220.7,1227.29,9.67,60.048
2016,05,06,14,55,41,038343,5.5538,220.7,1227.02,9.71,60.048
2016,05,06,14,55,41,102228,5.5547,220.7,1227.62,9.66,60.048
2016,05,06,14,55,41,238162,5.5563,220.8,1228.12,9.65,60.048
2016,05,06,14,55,41,302087,5.5545,220.7,1227.39,9.62,59.998
2016,05,06,14,55,41,437715,5.5579,220.8,1228.89,9.7,60.048
2016,05,06,14,55,41,502909,5.5602,221.0,1230.0,9.67,59.998
2016,05,06,14,55,41,638855,5.5586,220.9,1229.43,9.61,59.998
2016,05,06,14,55,41,702979,5.5594,220.9,1229.63,9.52,59.998
2016,05,06,14,55,41,781522,5.5603,221.0,1230.11,9.6,60.048
2016,05,06,14,55,41,835130,5.5555,220.8,1227.87,9.71,60.048
2016,05,06,14,55,41,970998,5.5271,220.9,1222.16,3.27,60.048
2016,05,06,14,55,42,035914,5.579,220.9,1234.05,8.01,60.048
2016,05,06,14,55,42,172661,5.5806,221.0,1235.0,8.01,60.024
2016,05,06,14,55,42,237109,5.5879,221.3,1238.13,7.98,60.024
2016,05,06,14,55,42,301954,5.5845,221.2,1236.8,7.95,59.998
2016,05,06,14,55,42,438478,5.5847,221.2,1236.74,7.98,60.048
2016,05,06,14,55,42,503629,5.5823,221.1,1235.75,7.99,60.048
2016,05,06,14,55,42,568299,5.5806,221.1,1235.24,8.01,60.024
2016,05,06,14,55,42,703968,5.5782,221.0,1234.22,7.91,60.048
2016,05,06,14,55,42,768773,5.5798,221.0,1234.87,7.92,60.048
2016,05,06,14,55,42,907436,5.5758,220.9,1233.04,7.95,60.048
2016,05,06,14,55,42,972469,5.5741,220.8,1232.41,7.94,60.024
2016,05,06,14,55,43,035618,5.5772,221.0,1233.82,7.8,59.998
2016,05,06,14,55,43,171848,5.5758,220.9,1233.26,7.83,60.024
2016,05,06,14,55,43,236561,5.5749,220.9,1232.85,7.91,60.048
2016,05,06,14,55,43,373714,5.5749,220.9,1232.97,7.9,60.048
2016,05,06,14,55,43,438344,5.5717,220.8,1231.7,7.9,60.048
2016,05,06,14,55,43,503229,5.5725,220.8,1232.06,7.88,60.048
2016,05,06,14,55,43,639645,5.5717,220.8,1231.54,7.86,60.048
2016,05,06,14,55,43,704418,5.5717,220.8,1231.67,7.89,60.048
2016,05,06,14,55,43,768677,5.5717,220.8,1231.57,7.81,60.048
2016,05,06,14,55,43,904462,5.5774,221.0,1234.16,7.86,60.048
2016,05,06,14,55,43,974928,5.5766,221.0,1233.66,7.84,60.048
2016,05,06,14,55,44,039971,5.5733,220.9,1232.59,7.86,60.048
2016,05,06,14,55,44,103855,5.5749,220.9,1233.19,7.81,60.048
2016,05,06,14,55,44,239037,5.5685,220.7,1230.16,7.76,60.048
2016,05,06,14,55,44,303063,5.5676,220.6,1229.95,7.87,60.048
2016,05,06,14,55,44,438921,5.5701,220.7,1230.86,7.86,60.048
2016,05,06,14,55,44,504366,5.5676,220.6,1229.9,7.76,60.048
2016,05,06,14,55,44,568789,5.5701,220.7,1230.93,7.77,60.048
2016,05,06,14,55,44,704686,5.5701,220.7,1231.06,7.85,60.048
2016,05,06,14,55,44,769136,5.5709,220.7,1231.15,7.81,60.048
2016,05,06,14,55,44,904759,5.5733,220.8,1232.2,7.8,60.048
2016,05,06,14,55,44,968816,5.5741,220.9,1232.66,7.85,60.048
2016,05,06,14,55,45,036522,5.5741,220.9,1232.83,7.83,60.074
2016,05,06,14,55,45,238385,5.5749,220.9,1233.04,7.88,60.048
2016,05,06,14,55,45,303656,5.5758,220.9,1233.39,7.85,60.048
2016,05,06,14,55,45,439532,5.5776,221.0,1234.19,7.96,60.098
2016,05,06,14,55,45,503266,5.5449,220.9,1226.58,5.14,60.048
2016,05,06,14,55,45,639140,5.5587,221.0,1230.05,9.56,60.048
2016,05,06,14,55,45,703819,5.4475,221.1,1205.73,2.69,60.048
2016,05,06,14,55,45,839328,5.4411,221.0,1204.12,2.3,60.074
2016,05,06,14,55,45,903358,5.4394,221.0,1203.51,2.41,60.048
2016,05,06,14,55,46,039325,5.437,220.9,1202.38,2.51,60.074
2016,05,06,14,55,46,116269,5.4346,220.8,1201.38,2.25,60.074
2016,05,06,14,55,46,170487,5.4354,220.8,1201.42,2.41,60.048
2016,05,06,14,55,46,235146,5.4329,220.7,1200.71,2.5,60.048
2016,05,06,14,55,46,308457,5.4305,220.6,1199.59,2.43,60.074
2016,05,06,14,55,46,372127,5.4323,220.6,1200.02,2.3,60.098
2016,05,06,14,55,46,436286,5.4305,220.6,1199.48,2.37,60.048
2016,05,06,14,55,46,572478,5.4321,220.7,1200.17,2.41,60.048
2016,05,06,14,55,46,637458,5.4321,220.7,1200.07,2.48,60.048
2016,05,06,14,55,46,702015,5.4321,220.6,1200.06,2.44,60.074
2016,05,06,14,55,46,838416,5.4337,220.7,1200.67,2.3,60.048
2016,05,06,14,55,46,903195,5.4354,220.8,1201.52,2.4,60.048
2016,05,06,14,55,47,039147,5.4362,220.8,1202.16,2.45,60.048
2016,05,06,14,55,47,102796,5.4378,220.9,1202.67,2.4,60.048
2016,05,06,14,55,47,304375,5.4378,220.9,1202.61,2.4,60.048
2016,05,06,14,55,47,440615,5.4313,220.6,1199.73,2.41,60.074
2016,05,06,14,55,47,505573,5.4289,220.5,1198.53,2.31,60.048
2016,05,06,14,55,47,570423,5.4305,220.6,1199.27,2.4,60.048
2016,05,06,14,55,47,705735,5.4329,220.7,1200.57,2.42,60.048
2016,05,06,14,55,47,770208,5.4329,220.7,1200.41,2.42,60.048
2016,05,06,14,55,47,906173,5.4354,220.8,1201.67,2.45,60.048
2016,05,06,14,55,47,970996,5.4362,220.8,1201.99,2.38,60.048
2016,05,06,14,55,48,035226,5.4321,220.7,1200.19,2.35,60.048
2016,05,06,14,55,48,109147,5.4346,220.8,1201.36,2.48,60.048
2016,05,06,14,55,48,172702,5.4337,220.7,1200.82,2.39,60.048
2016,05,06,14,55,48,237086,5.4321,220.7,1200.16,2.39,60.048
