Year,Month,Day,Hour,Minute,Second,Millisecond,Current,Voltage,ActivePwr,ReactvPwr,Frequency
2016,05,06,14,53,12,956673,3.0731,224.4,627.86,1.74,60.048
2016,05,06,14,53,13,021454,3.0714,224.3,627.45,1.82,59.998
2016,05,06,14,53,13,093937,3.0731,224.4,627.96,1.82,60.048
2016,05,06,14,53,13,157750,3.0739,224.5,628.27,1.75,60.048
2016,05,06,14,53,13,222636,3.0715,224.4,627.72,1.79,60.024
2016,05,06,14,53,13,359084,3.0722,224.4,627.7,1.77,59.998
2016,05,06,14,53,13,424016,3.0722,224.5,628.01,1.8,59.998
2016,05,06,14,53,13,489062,3.0722,224.5,627.95,1.72,59.998
2016,05,06,14,53,13,625635,3.0714,224.5,627.76,1.78,59.998
2016,05,06,14,53,13,690504,3.0715,224.5,627.93,1.8,60.024
2016,05,06,14,53,13,826402,3.0699,224.3,627.15,1.77,60.048
2016,05,06,14,53,13,891187,3.0682,224.3,626.75,1.77,60.048
2016,05,06,14,53,13,958233,3.069,224.3,627.04,1.81,60.048
2016,05,06,14,53,14,022091,3.069,224.4,627.14,1.76,60.048
2016,05,06,14,53,14,158254,3.0699,224.4,627.36,1.73,60.048
2016,05,06,14,53,14,223415,3.0682,224.4,627.19,1.82,60.024
2016,05,06,14,53,14,359307,3.069,224.4,627.16,1.75,60.048
2016,05,06,14,53,14,423844,3.0682,224.4,627.09,1.8,60.048
2016,05,06,14,53,14,488579,3.069,224.5,627.52,1.69,60.048
2016,05,06,14,53,14,625344,3.0707,224.6,628.18,1.8,60.024
2016,05,06,14,53,14,690383,3.0682,224.4,627.12,1.77,60.048
2016,05,06,14,53,14,754657,3.069,224.6,627.64,1.69,60.024
2016,05,06,14,53,14,890298,3.0674,224.4,626.69,1.79,60.048
2016,05,06,14,53,14,955085,3.0665,224.3,626.54,1.72,59.998
2016,05,06,14,53,15,044620,3.0665,224.3,626.45,1.82,59.998
2016,05,06,14,53,15,088606,3.0658,224.3,626.24,1.8,60.048
2016,05,06,14,53,15,225438,3.065,224.3,626.17,1.86,60.048
2016,05,06,14,53,15,289276,3.0666,224.4,626.79,1.72,60.048
2016,05,06,14,53,15,426117,3.0666,224.4,626.63,1.78,60.048
2016,05,06,14,53,15,490061,3.0658,224.4,626.41,1.71,60.024
2016,05,06,14,53,15,626493,3.065,224.3,626.07,1.79,60.048
2016,05,06,14,53,15,691502,3.0642,224.3,625.98,1.73,60.024
2016,05,06,14,53,15,755735,3.0634,224.2,625.54,1.79,60.048
2016,05,06,14,53,15,891193,3.0634,224.2,625.47,1.8,60.048
2016,05,06,14,53,15,955822,3.0617,224.2,625.02,1.84,60.048
2016,05,06,14,53,16,092574,3.0609,224.1,624.59,1.82,60.024
2016,05,06,14,53,16,161315,3.0625,224.2,625.42,1.76,60.048
2016,05,06,14,53,16,226288,3.0634,224.3,625.72,1.74,60.048
2016,05,06,14,53,16,292559,3.0617,224.2,625.05,1.7,60.048
2016,05,06,14,53,16,356915,3.0609,224.1,624.87,1.72,60.048
2016,05,06,14,53,16,493188,3.0625,224.2,625.44,1.74,60.048
2016,05,06,14,53,16,557510,3.0609,224.2,625.03,1.7,60.048
2016,05,06,14,53,16,622027,3.0634,224.3,625.93,1.76,60.048
2016,05,06,14,53,16,758272,3.065,224.5,626.65,1.75,60.048
2016,05,06,14,53,16,823050,3.0642,224.4,626.06,1.76,60.048
2016,05,06,14,53,16,958851,3.0634,224.4,626.12,1.71,60.048
2016,05,06,14,53,17,022452,3.0625,224.3,625.55,1.65,60.048
2016,05,06,14,53,17,158313,3.0617,224.2,625.1,1.73,60.048
2016,05,06,14,53,17,293489,3.0601,224.1,624.58,1.75,60.048
2016,05,06,14,53,17,358636,3.0577,224.0,623.97,1.77,60.024
2016,05,06,14,53,17,421923,3.0592,224.2,624.73,1.79,59.998
2016,05,06,14,53,17,558434,3.0585,224.1,624.24,1.81,60.048
2016,05,06,14,53,17,622394,3.0585,224.2,624.38,1.77,60.024
2016,05,06,14,53,17,757843,3.0585,224.1,624.4,1.77,60.048
2016,05,06,14,53,17,822413,3.0593,224.2,624.78,1.79,60.024
2016,05,06,14,53,17,958341,3.0609,224.3,625.21,1.73,60.048
2016,05,06,14,53,18,022137,3.0617,224.3,625.65,1.76,60.048
2016,05,06,14,53,18,157817,3.0593,224.2,624.74,1.77,60.024
2016,05,06,14,53,18,222686,3.0601,224.2,624.89,1.74,60.048
2016,05,06,14,53,18,298700,3.0593,224.2,624.62,1.75,60.048
2016,05,06,14,53,18,424904,3.0577,224.1,624.15,1.7,60.048
2016,05,06,14,53,18,489370,3.0569,224.0,623.69,1.8,60.024
2016,05,06,14,53,18,625512,3.0593,224.1,624.63,1.72,60.048
2016,05,06,14,53,18,689331,3.0601,224.2,624.95,1.69,60.048
2016,05,06,14,53,18,825576,3.0585,224.1,624.37,1.74,60.048
2016,05,06,14,53,18,890664,3.0593,224.2,624.7,1.72,60.048
2016,05,06,14,53,18,955275,3.0609,224.3,625.21,1.78,60.048
2016,05,06,14,53,19,091611,3.0609,224.3,625.33,1.72,60.048
2016,05,06,14,53,19,156468,3.0593,224.2,624.72,1.76,60.048
2016,05,06,14,53,19,293155,3.0585,224.2,624.52,1.81,60.048
2016,05,06,14,53,19,383302,3.0569,224.1,623.95,1.8,60.048
2016,05,06,14,53,19,427225,3.0577,224.2,624.3,1.81,60.048
2016,05,06,14,53,19,492346,3.0593,224.2,624.8,1.78,60.048
2016,05,06,14,53,19,555247,3.0577,224.2,624.39,1.79,60.048
2016,05,06,14,53,19,691111,3.0585,224.2,624.54,1.78,60.048
2016,05,06,14,53,19,756040,3.0601,224.3,625.24,1.76,60.048
2016,05,06,14,53,19,892923,3.0577,224.1,624.27,1.82,60.024
2016,05,06,14,53,19,958099,3.0585,224.2,624.48,1.83,60.048
2016,05,06,14,53,20,022525,3.0569,224.1,624.02,1.76,60.024
2016,05,06,14,53,20,157814,3.0561,224.0,623.62,1.77,60.048
2016,05,06,14,53,20,221839,3.0569,224.1,623.98,1.78,60.048
2016,05,06,14,53,20,357679,3.0544,223.9,623.02,1.7,60.048
2016,05,06,14,53,20,422284,3.0561,224.0,623.44,1.71,60.048
2016,05,06,14,53,20,490150,3.0544,223.9,623.04,1.77,60.048
2016,05,06,14,53,20,628184,3.0528,223.9,622.51,1.86,60.024
2016,05,06,14,53,20,693365,3.1485,223.8,646.42,7.84,59.998
2016,05,06,14,53,20,758164,3.1729,223.9,651.89,10.46,60.024
2016,05,06,14,53,20,823149,3.1729,223.9,651.92,10.43,60.048
2016,05,06,14,53,20,959065,3.1729,223.9,652.16,10.43,60.024
2016,05,06,14,53,21,023111,3.1737,223.9,652.24,10.42,60.024
2016,05,06,14,53,21,159237,3.1721,223.8,651.4,10.44,60.048
2016,05,06,14,53,21,224339,3.1721,223.8,651.56,10.53,60.024
2016,05,06,14,53,21,288419,3.1713,223.8,651.52,10.45,60.048
2016,05,06,14,53,21,424052,3.1729,223.9,652.0,10.39,60.048
2016,05,06,14,53,21,562194,3.172,223.9,651.73,10.43,59.998
2016,05,06,14,53,21,627451,3.1728,224.0,652.09,10.41,59.998
2016,05,06,14,53,21,692470,3.1705,223.8,651.26,10.36,60.024
2016,05,06,14,53,21,757134,3.1705,223.8,651.1,10.42,60.048
2016,05,06,14,53,21,893069,3.1713,223.9,651.57,10.45,60.048
2016,05,06,14,53,21,958062,3.1713,224.0,651.8,10.29,60.048
2016,05,06,14,53,22,022015,3.1721,224.0,652.06,10.41,60.048
2016,05,06,14,53,22,158028,3.1729,224.0,652.21,10.35,60.048
2016,05,06,14,53,22,222892,3.1721,224.0,652.19,10.31,60.048
2016,05,06,14,53,22,358752,3.1697,223.9,651.21,10.31,60.048
2016,05,06,14,53,22,422402,3.1705,223.9,651.38,10.44,60.048
2016,05,06,14,53,22,558318,3.1664,223.6,649.79,10.36,60.024
2016,05,06,14,53,22,636068,3.1656,223.6,649.51,10.36,60.048
2016,05,06,14,53,22,690105,3.1664,223.7,649.88,10.42,60.048
2016,05,06,14,53,22,826775,3.1663,223.7,650.14,10.4,59.998
2016,05,06,14,53,22,890756,3.1679,223.8,650.56,10.33,59.998
2016,05,06,14,53,23,025961,3.1705,223.9,651.47,10.41,60.048
2016,05,06,14,53,23,090311,3.1696,224.0,651.45,10.33,59.998
2016,05,06,14,53,23,226333,3.1697,224.0,651.47,10.32,60.048
2016,05,06,14,53,23,290133,3.1689,223.9,651.08,10.34,60.048
2016,05,06,14,53,23,426835,3.1664,223.8,650.36,10.3,60.024
2016,05,06,14,53,23,491134,3.1648,223.7,649.63,10.29,60.048
2016,05,06,14,53,23,626505,3.1648,223.8,649.87,10.24,60.024
2016,05,06,14,53,23,714374,3.1656,223.8,650.13,10.26,60.048
2016,05,06,14,53,23,758063,3.1656,223.8,649.88,10.28,60.048
2016,05,06,14,53,23,822769,3.1664,223.8,650.09,10.33,60.048
2016,05,06,14,53,23,958709,3.168,224.0,650.94,10.41,60.048
2016,05,06,14,53,24,023396,3.168,223.9,650.79,10.4,60.048
2016,05,06,14,53,24,159478,3.1672,223.9,650.62,10.26,60.048
2016,05,06,14,53,24,223186,3.1689,224.0,651.1,10.29,60.048
2016,05,06,14,53,24,359130,3.1672,223.9,650.5,10.31,60.048
2016,05,06,14,53,24,424166,3.1672,223.9,650.62,10.38,60.048
2016,05,06,14,53,24,560149,3.168,224.0,651.02,10.39,60.048
2016,05,06,14,53,24,624123,3.168,224.0,650.95,10.28,60.048
2016,05,06,14,53,24,760093,3.1672,223.9,650.65,10.48,60.048
2016,05,06,14,53,24,828322,3.1672,224.0,650.72,10.42,60.048
2016,05,06,14,53,24,893621,3.1672,224.0,650.81,10.41,60.048
2016,05,06,14,53,24,958032,3.168,224.0,650.98,10.47,60.048
2016,05,06,14,53,25,022770,3.1697,224.1,651.49,10.31,60.048
2016,05,06,14,53,25,158327,3.1689,224.0,651.21,10.4,60.048
2016,05,06,14,53,25,294197,3.168,224.0,651.0,10.38,60.048
2016,05,06,14,53,25,359234,3.1672,223.8,650.51,10.44,60.074
2016,05,06,14,53,25,423879,3.1689,224.0,651.26,10.44,60.048
2016,05,06,14,53,25,560580,3.168,223.9,650.86,10.39,60.048
2016,05,06,14,53,25,625809,3.1697,224.1,651.62,10.37,60.048
2016,05,06,14,53,25,690016,3.1689,224.0,651.27,10.39,60.048
2016,05,06,14,53,25,825696,3.1705,224.1,651.79,10.5,60.074
2016,05,06,14,53,25,896853,3.1713,224.2,652.23,10.37,60.048
2016,05,06,14,53,25,961833,3.1729,224.3,652.81,10.5,60.048
2016,05,06,14,53,26,026078,3.1721,224.2,652.52,10.44,60.048
2016,05,06,14,53,26,089188,3.1737,224.3,653.09,10.4,60.048
2016,05,06,14,53,26,224776,3.1729,224.3,653.0,10.49,60.048
2016,05,06,14,53,26,289332,3.1729,224.3,652.78,10.46,60.048
2016,05,06,14,53,26,425188,3.1729,224.3,652.75,10.42,60.048
2016,05,06,14,53,26,488909,3.1721,224.2,652.49,10.43,60.048
2016,05,06,14,53,26,625238,3.1729,224.3,652.94,10.45,60.048
2016,05,06,14,53,26,690133,3.1729,224.3,652.94,10.45,60.048
2016,05,06,14,53,26,826516,3.1705,224.2,651.92,10.43,60.048
2016,05,06,14,53,26,891428,3.1713,224.3,652.54,10.47,60.048
2016,05,06,14,53,26,967207,3.1713,224.2,652.39,10.42,60.048
2016,05,06,14,53,27,094550,3.1706,224.1,651.82,10.4,60.098
2016,05,06,14,53,27,158324,3.1705,224.2,651.92,10.33,60.048
2016,05,06,14,53,27,223296,3.1705,224.2,652.1,10.3,60.048
2016,05,06,14,53,27,359935,3.1689,224.1,651.55,10.4,60.048
2016,05,06,14,53,27,424894,3.1697,224.2,651.92,10.51,60.048
2016,05,06,14,53,27,489294,3.1697,224.2,651.86,10.39,60.048
2016,05,06,14,53,27,624536,3.1705,224.2,652.19,10.41,60.048
2016,05,06,14,53,27,760709,3.1714,224.2,652.2,10.45,60.098
2016,05,06,14,53,27,825405,3.1697,224.2,651.87,10.43,60.074
2016,05,06,14,53,27,889681,3.1697,224.1,651.81,10.43,60.074
2016,05,06,14,53,28,046165,3.1729,224.4,653.04,10.43,60.074
2016,05,06,14,53,28,089502,3.1737,224.4,653.41,10.56,60.048
2016,05,06,14,53,28,226201,3.1729,224.4,653.26,10.45,60.074
2016,05,06,14,53,28,290782,3.173,224.4,653.27,10.41,60.098
2016,05,06,14,53,28,426523,3.1713,224.3,652.62,10.5,60.048
2016,05,06,14,53,28,491007,3.1721,224.3,652.83,10.47,60.048
2016,05,06,14,53,28,555842,3.1713,224.3,652.51,10.38,60.048
2016,05,06,14,53,28,693669,3.1721,224.4,653.03,10.42,60.048
2016,05,06,14,53,28,758714,3.1729,224.4,653.2,10.43,60.048
2016,05,06,14,53,28,823023,3.1737,224.5,653.5,10.47,60.048
2016,05,06,14,53,28,958968,3.1729,224.5,653.38,10.55,60.048
2016,05,06,14,53,29,023821,3.1737,224.5,653.65,10.57,60.048
2016,05,06,14,53,29,088519,3.1721,224.4,653.07,10.47,60.048
2016,05,06,14,53,29,158391,3.1721,224.4,652.92,10.45,60.048
2016,05,06,14,53,29,223224,3.1721,224.4,653.0,10.43,60.048
2016,05,06,14,53,29,359497,3.1729,224.4,653.28,10.44,60.048
2016,05,06,14,53,29,423478,3.1721,224.3,652.8,10.43,60.048
2016,05,06,14,53,29,559059,3.1713,224.3,652.55,10.45,60.074
2016,05,06,14,53,29,624338,3.1721,224.4,652.92,10.46,60.048
2016,05,06,14,53,29,688742,3.1737,224.5,653.64,10.43,60.074
2016,05,06,14,53,29,824199,3.1729,224.4,653.11,10.47,60.048
2016,05,06,14,53,29,888812,3.1753,224.6,654.29,10.47,60.074
2016,05,06,14,53,30,025618,3.1753,224.6,654.12,10.48,60.074
2016,05,06,14,53,30,090615,3.1737,224.5,653.58,10.49,60.074
2016,05,06,14,53,30,154789,3.1745,224.5,653.93,10.48,60.074
2016,05,06,14,53,30,291220,3.1737,224.6,653.85,10.44,60.074
2016,05,06,14,53,30,355679,3.1738,224.4,653.33,10.48,60.098
2016,05,06,14,53,30,491011,3.1729,224.4,653.24,10.46,60.048
2016,05,06,14,53,30,555924,3.1729,224.5,653.39,10.46,60.048
2016,05,06,14,53,30,693424,3.1722,224.3,652.68,10.53,60.098
2016,05,06,14,53,30,758231,3.1722,224.4,652.8,10.44,60.098
2016,05,06,14,53,30,823169,3.1745,224.6,653.89,10.45,60.074
2016,05,06,14,53,30,888102,3.1737,224.5,653.65,10.54,60.074
2016,05,06,14,53,31,024550,3.1729,224.4,653.08,10.47,60.048
2016,05,06,14,53,31,089212,3.1607,224.4,650.15,9.08,60.048
2016,05,06,14,53,31,225768,3.1916,224.5,657.92,8.66,60.048
2016,05,06,14,53,31,305907,3.1908,224.4,657.65,8.71,60.048
2016,05,06,14,53,31,361170,3.1908,224.4,657.58,8.7,60.048
2016,05,06,14,53,31,425841,3.1909,224.4,657.69,8.68,60.098
2016,05,06,14,53,31,491187,3.1917,224.4,657.66,8.78,60.098
2016,05,06,14,53,31,555142,3.19,224.4,657.28,8.73,60.098
2016,05,06,14,53,31,690792,3.1908,224.5,657.64,8.72,60.048
2016,05,06,14,53,31,755237,3.1916,224.6,658.09,8.65,60.048
2016,05,06,14,53,31,891999,3.1883,224.4,657.06,8.64,60.048
2016,05,06,14,53,31,957355,3.1908,224.6,657.95,8.6,60.048
2016,05,06,14,53,32,021880,3.19,224.5,657.47,8.65,60.074
2016,05,06,14,53,32,158304,3.1868,224.3,656.37,8.63,60.098
2016,05,06,14,53,32,223053,3.1868,224.4,656.52,8.57,60.098
2016,05,06,14,53,32,359047,3.1859,224.3,656.28,8.59,60.048
2016,05,06,14,53,32,425202,3.1867,224.4,656.45,8.47,60.048
2016,05,06,14,53,32,489931,3.1859,224.3,656.31,8.54,60.048
2016,05,06,14,53,32,555005,3.1851,224.3,655.99,8.57,60.048
2016,05,06,14,53,32,691125,3.1875,224.5,657.01,8.54,60.048
2016,05,06,14,53,32,756278,3.1867,224.4,656.68,8.51,60.048
2016,05,06,14,53,32,821186,3.1875,224.4,656.75,8.59,60.074
2016,05,06,14,53,32,958135,3.1859,224.3,656.33,8.6,60.074
2016,05,06,14,53,33,022958,3.1851,224.3,655.9,8.66,60.048
2016,05,06,14,53,33,159083,3.1835,224.2,655.35,8.53,60.048
2016,05,06,14,53,33,223173,3.1851,224.3,655.99,8.58,60.048
2016,05,06,14,53,33,287490,3.186,224.3,656.26,8.58,60.098
2016,05,06,14,53,33,423295,3.1859,224.3,656.06,8.62,60.048
2016,05,06,14,53,33,490745,3.1851,224.3,655.92,8.55,60.048
2016,05,06,14,53,33,555114,3.1867,224.4,656.59,8.56,60.074
2016,05,06,14,53,33,692157,3.1835,224.2,655.2,8.52,60.048
2016,05,06,14,53,33,757326,3.1843,224.2,655.71,8.57,60.048
2016,05,06,14,53,33,822007,3.1851,224.3,655.94,8.56,60.048
2016,05,06,14,53,33,957904,3.1851,224.3,655.91,8.61,60.048
2016,05,06,14,53,34,022106,3.1835,224.2,655.35,8.59,60.048
2016,05,06,14,53,34,158332,3.186,224.3,656.04,8.62,60.098
2016,05,06,14,53,34,222862,3.1851,224.2,655.71,8.56,60.074
2016,05,06,14,53,34,287225,3.1835,224.2,655.5,8.58,60.048
2016,05,06,14,53,34,422678,3.1868,224.3,656.32,8.57,60.098
2016,05,06,14,53,34,487380,3.186,224.3,656.08,8.56,60.098
2016,05,06,14,53,34,561089,3.1852,224.2,655.67,8.56,60.098
2016,05,06,14,53,34,624759,3.1836,224.2,655.28,8.61,60.098
2016,05,06,14,53,34,688771,3.1852,224.2,655.81,8.58,60.098
2016,05,06,14,53,34,823511,3.186,224.3,656.12,8.58,60.098
2016,05,06,14,53,34,887395,3.1844,224.2,655.46,8.52,60.098
2016,05,06,14,53,35,023395,3.1851,224.3,655.98,8.57,60.048
2016,05,06,14,53,35,088355,3.1859,224.4,656.25,8.55,60.048
2016,05,06,14,53,35,224007,3.1859,224.4,656.31,8.54,60.048
2016,05,06,14,53,35,287789,3.1867,224.4,656.57,8.56,60.048
2016,05,06,14,53,35,424141,3.1883,224.5,657.02,8.54,60.048
2016,05,06,14,53,35,489215,3.1868,224.4,656.46,8.6,60.124
2016,05,06,14,53,35,553431,3.1868,224.3,656.23,8.69,60.098
2016,05,06,14,53,35,640250,3.1868,224.4,656.59,8.64,60.098
2016,05,06,14,53,35,757227,3.1867,224.3,656.42,8.59,60.074
2016,05,06,14,53,35,820760,3.1859,224.4,656.22,8.54,60.048
2016,05,06,14,53,35,956434,3.1851,224.3,655.92,8.55,60.048
2016,05,06,14,53,36,021322,3.1859,224.3,656.07,8.59,60.048
2016,05,06,14,53,36,157569,3.186,224.2,655.88,8.57,60.124
2016,05,06,14,53,36,221307,3.1844,224.2,655.51,8.59,60.098
2016,05,06,14,53,36,357276,3.1852,224.3,655.85,8.56,60.098
2016,05,06,14,53,36,422357,3.186,224.4,656.38,8.54,60.098
2016,05,06,14,53,36,557803,3.1844,224.2,655.6,8.64,60.098
2016,05,06,14,53,36,621489,3.1852,224.3,655.85,8.61,60.098
2016,05,06,14,53,36,756791,3.1826,224.2,655.26,8.54,60.048
2016,05,06,14,53,36,821670,3.181,224.2,654.76,8.63,60.048
2016,05,06,14,53,36,956706,3.1826,224.2,655.21,8.58,60.048
2016,05,06,14,53,37,021568,3.1835,224.3,655.53,8.56,60.048
2016,05,06,14,53,37,157510,3.1851,224.4,656.19,8.58,60.048
2016,05,06,14,53,37,221373,3.1844,224.2,655.59,8.62,60.124
2016,05,06,14,53,37,358092,3.1844,224.2,655.4,8.6,60.098
2016,05,06,14,53,37,423111,3.1852,224.3,655.99,8.6,60.098
2016,05,06,14,53,37,487332,3.1844,224.2,655.62,8.66,60.098
2016,05,06,14,53,37,622611,3.1835,224.2,655.36,8.56,60.048
2016,05,06,14,53,37,686776,3.1835,224.3,655.57,8.51,60.048
2016,05,06,14,53,37,821763,3.181,224.1,654.4,8.52,60.048
2016,05,06,14,53,37,958644,3.1835,224.3,655.5,8.58,60.048
2016,05,06,14,53,38,023825,3.1835,224.3,655.52,8.55,60.048
2016,05,06,14,53,38,088208,3.1843,224.3,655.54,8.55,60.048
2016,05,06,14,53,38,223993,3.1867,224.4,656.54,8.66,60.074
2016,05,06,14,53,38,288149,3.1851,224.4,656.06,8.59,60.048
2016,05,06,14,53,38,353196,3.1875,224.5,656.97,8.62,60.048
2016,05,06,14,53,38,490511,3.1892,224.5,657.34,8.62,60.098
2016,05,06,14,53,38,555331,3.1867,224.4,656.46,8.61,60.048
2016,05,06,14,53,38,619778,3.1867,224.5,656.71,8.72,60.048
2016,05,06,14,53,38,756528,3.1891,224.6,657.33,8.63,60.048
2016,05,06,14,53,38,821777,3.1859,224.3,656.03,8.57,60.048
2016,05,06,14,53,38,890674,3.1859,224.3,656.05,8.57,60.048
2016,05,06,14,53,38,955854,3.1875,224.5,656.93,8.71,60.074
2016,05,06,14,53,39,023070,3.1875,224.4,656.65,8.66,60.048
2016,05,06,14,53,39,087215,3.1859,224.4,656.29,8.61,60.048
2016,05,06,14,53,39,224530,3.1851,224.3,655.82,8.59,60.048
2016,05,06,14,53,39,289632,3.1851,224.2,655.67,8.72,60.074
2016,05,06,14,53,39,354647,3.1843,224.3,655.72,8.65,60.048
2016,05,06,14,53,39,419904,3.1851,224.3,656.0,8.67,60.048
2016,05,06,14,53,39,555567,3.1859,224.4,656.21,8.65,60.074
2016,05,06,14,53,39,619827,3.1875,224.5,656.84,8.62,60.048
2016,05,06,14,53,39,756171,3.1859,224.4,656.35,8.7,60.048
2016,05,06,14,53,39,820856,3.1876,224.5,657.03,8.69,60.098
2016,05,06,14,53,39,968413,3.1867,224.4,656.49,8.62,60.048
2016,05,06,14,53,40,021848,3.1851,224.4,656.22,8.7,60.048
2016,05,06,14,53,40,159169,3.1851,224.2,655.79,8.73,60.074
2016,05,06,14,53,40,224558,3.1859,224.3,656.14,8.68,60.048
2016,05,06,14,53,40,289074,3.1851,224.3,655.95,8.61,60.048
2016,05,06,14,53,40,352808,3.1851,224.3,655.87,8.62,60.048
2016,05,06,14,53,40,489373,3.1843,224.3,655.62,8.59,60.074
2016,05,06,14,53,40,554456,3.1835,224.2,655.32,8.63,60.048
2016,05,06,14,53,40,690787,3.1851,224.3,656.0,8.61,60.048
2016,05,06,14,53,40,755851,3.1835,224.2,655.34,8.54,60.048
2016,05,06,14,53,40,820616,3.1843,224.3,655.76,8.64,60.048
2016,05,06,14,53,40,957652,3.1835,224.3,655.69,8.54,60.074
2016,05,06,14,53,41,022682,3.1851,224.3,655.89,8.66,60.048
2016,05,06,14,53,41,090525,3.1851,224.4,656.15,8.6,60.048
2016,05,06,14,53,41,155651,3.1859,224.4,656.42,8.62,60.074
2016,05,06,14,53,41,290849,3.1835,224.3,655.57,8.63,60.048
2016,05,06,14,53,41,356139,3.1835,224.3,655.62,8.7,60.048
2016,05,06,14,53,41,420952,3.1826,224.2,655.07,8.48,60.048
2016,05,06,14,53,41,558565,3.1835,224.3,655.55,8.61,60.048
2016,05,06,14,53,41,623803,3.1851,224.4,656.04,8.61,60.048
2016,05,06,14,53,41,688203,3.1867,224.5,656.72,8.57,60.048
2016,05,06,14,53,41,752965,3.1859,224.4,656.58,8.6,60.048
2016,05,06,14,53,41,888296,3.1843,224.3,655.88,8.62,60.048
2016,05,06,14,53,41,953311,3.1851,224.3,655.89,8.56,60.048
2016,05,06,14,53,42,089633,3.1851,224.3,655.97,8.58,60.048
2016,05,06,14,53,42,158080,3.1851,224.4,656.19,8.6,60.048
2016,05,06,14,53,42,223484,3.1867,224.5,656.7,8.58,60.048
2016,05,06,14,53,42,288241,3.1875,224.5,657.0,8.67,60.048
2016,05,06,14,53,42,423268,3.1875,224.5,656.94,8.66,60.048
2016,05,06,14,53,42,488104,3.1867,224.5,656.73,8.54,60.048
2016,05,06,14,53,42,624084,3.1867,224.5,656.69,8.6,60.048
2016,05,06,14,53,42,688795,3.1851,224.3,655.95,8.64,60.048
2016,05,06,14,53,42,753436,3.1826,224.3,655.36,8.59,60.074
2016,05,06,14,53,42,889821,3.1851,224.3,656.03,8.63,60.048
2016,05,06,14,53,42,954527,3.1859,224.5,656.59,8.64,60.048
2016,05,06,14,53,43,090470,3.1859,224.4,656.34,8.65,60.048
2016,05,06,14,53,43,155143,3.1859,224.4,656.45,8.63,60.048
2016,05,06,14,53,43,234570,3.1867,224.4,656.64,8.67,60.048
2016,05,06,14,53,43,287920,3.1851,224.4,656.06,8.61,60.048
2016,05,06,14,53,43,423820,3.1859,224.4,656.29,8.7,60.048
2016,05,06,14,53,43,489177,3.1153,224.5,638.89,1.91,60.074
2016,05,06,14,53,43,553882,3.0634,224.8,626.85,1.71,60.048
2016,05,06,14,53,43,690279,3.2167,224.7,663.8,3.48,60.048
2016,05,06,14,53,43,755076,3.2159,224.7,664.37,4.09,60.048
2016,05,06,14,53,43,819558,3.2151,224.7,664.1,4.07,60.048
2016,05,06,14,53,43,956560,3.2127,224.6,663.29,4.0,60.048
2016,05,06,14,53,44,021396,3.2094,224.4,662.09,3.89,60.048
2016,05,06,14,53,44,086098,3.2094,224.5,662.36,3.9,60.048
2016,05,06,14,53,44,222718,3.207,224.4,661.55,3.75,60.048
2016,05,06,14,53,44,287825,3.2054,224.3,661.02,3.68,60.048
2016,05,06,14,53,44,354952,3.2054,224.4,661.26,3.69,60.048
2016,05,06,14,53,44,420186,3.2062,224.5,661.42,3.64,60.048
2016,05,06,14,53,44,556045,3.2046,224.4,660.9,3.5,60.048
2016,05,06,14,53,44,621450,3.2037,224.4,660.61,3.47,60.048
2016,05,06,14,53,44,686081,3.2046,224.4,661.02,3.53,60.048
2016,05,06,14,53,44,821539,3.2054,224.5,661.18,3.44,60.048
2016,05,06,14,53,44,885876,3.2037,224.4,660.9,3.37,60.048
2016,05,06,14,53,45,022169,3.207,224.7,662.12,3.42,60.048
2016,05,06,14,53,45,086259,3.207,224.7,662.11,3.33,60.048
2016,05,06,14,53,45,222290,3.2062,224.7,661.98,3.25,60.048
2016,05,06,14,53,45,287140,3.2063,224.7,661.92,3.36,60.098
2016,05,06,14,53,45,423354,3.2054,224.6,661.79,3.31,60.048
2016,05,06,14,53,45,487892,3.2062,224.7,661.99,3.33,60.048
2016,05,06,14,53,45,623754,3.2046,224.6,661.44,3.25,60.048
2016,05,06,14,53,45,689150,3.2037,224.5,660.97,3.35,60.074
2016,05,06,14,53,45,753358,3.2046,224.6,661.2,3.29,60.048
2016,05,06,14,53,45,889061,3.2062,224.7,662.12,3.29,60.048
2016,05,06,14,53,45,953514,3.2078,224.7,662.5,3.32,60.048
2016,05,06,14,53,46,089609,3.2078,224.8,662.75,3.22,60.048
2016,05,06,14,53,46,153995,3.2086,224.8,662.74,3.39,60.048
2016,05,06,14,53,46,290295,3.2078,224.8,662.67,3.25,60.048
2016,05,06,14,53,46,354878,3.2086,224.8,662.87,3.31,60.048
2016,05,06,14,53,46,419735,3.2086,224.9,663.05,3.22,60.048
2016,05,06,14,53,46,487191,3.2078,224.8,662.66,3.23,60.074
2016,05,06,14,53,46,622556,3.2062,224.7,661.96,3.31,60.048
2016,05,06,14,53,46,686744,3.2054,224.6,661.75,3.24,60.048
2016,05,06,14,53,46,822908,3.2029,224.5,660.8,3.29,60.074
2016,05,06,14,53,46,886657,3.2021,224.4,660.37,3.31,60.048
2016,05,06,14,53,47,022590,3.2037,224.6,661.24,3.25,60.074
2016,05,06,14,53,47,087633,3.2046,224.5,661.15,3.32,60.074
2016,05,06,14,53,47,223978,3.2029,224.5,660.79,3.33,60.048
2016,05,06,14,53,47,287767,3.2037,224.5,660.98,3.31,60.048
2016,05,06,14,53,47,423944,3.2037,224.5,660.96,3.33,60.048
2016,05,06,14,53,47,489180,3.2046,224.5,661.18,3.27,60.048
2016,05,06,14,53,47,569691,3.2037,224.5,660.85,3.28,60.048
2016,05,06,14,53,47,624209,3.2021,224.4,660.4,3.27,60.048
2016,05,06,14,53,47,690244,3.2021,224.4,660.23,3.29,60.048
2016,05,06,14,53,47,753271,3.2021,224.3,660.17,3.42,60.048
2016,05,06,14,53,47,889277,3.2021,224.4,660.31,3.38,60.048
2016,05,06,14,53,47,954414,3.2013,224.3,659.93,3.32,60.048
2016,05,06,14,53,48,019148,3.2013,224.3,660.09,3.35,60.048
2016,05,06,14,53,48,155901,3.2021,224.4,660.35,3.31,60.048
2016,05,06,14,53,48,220840,3.2029,224.4,660.6,3.33,60.048
2016,05,06,14,53,48,357334,3.2037,224.5,661.03,3.36,60.048
2016,05,06,14,53,48,421740,3.2046,224.6,661.36,3.29,60.048
2016,05,06,14,53,48,557423,3.2037,224.5,661.18,3.32,60.048
2016,05,06,14,53,48,622653,3.2037,224.5,661.05,3.38,60.048
2016,05,06,14,53,48,756015,3.2029,224.4,660.56,3.32,60.048
2016,05,06,14,53,48,821646,3.2013,224.4,660.17,3.33,60.048
2016,05,06,14,53,48,886156,3.2013,224.3,659.91,3.34,60.048
2016,05,06,14,53,49,022086,3.2005,224.2,659.54,3.32,60.048
2016,05,06,14,53,49,086087,3.1997,224.2,659.49,3.32,60.048
2016,05,06,14,53,49,221946,3.1996,224.3,659.48,3.32,59.998
2016,05,06,14,53,49,287236,3.1988,224.2,659.2,3.33,59.998
2016,05,06,14,53,49,424085,3.2004,224.3,659.65,3.29,59.998
2016,05,06,14,53,49,488895,3.198,224.1,658.72,3.33,59.998
2016,05,06,14,53,49,553272,3.1972,224.1,658.53,3.28,59.998
2016,05,06,14,53,49,689215,3.1973,224.1,658.42,3.3,60.048
2016,05,06,14,53,49,821960,3.1997,224.2,659.28,3.39,60.048
2016,05,06,14,53,49,887468,3.2005,224.3,659.72,3.39,60.048
2016,05,06,14,53,50,022992,3.1997,224.2,659.31,3.36,60.048
2016,05,06,14,53,50,088325,3.1997,224.2,659.32,3.32,60.048
2016,05,06,14,53,50,224368,3.1997,224.2,659.27,3.35,60.024
2016,05,06,14,53,50,288787,3.198,224.2,658.95,3.33,59.998
2016,05,06,14,53,50,353466,3.198,224.2,658.9,3.32,59.998
2016,05,06,14,53,50,489966,3.198,224.2,658.85,3.49,59.998
2016,05,06,14,53,50,554560,3.198,224.1,658.67,3.35,59.998
2016,05,06,14,53,50,691685,3.198,224.1,658.72,3.37,59.998
2016,05,06,14,53,50,757124,3.198,224.1,658.58,3.34,59.998
2016,05,06,14,53,50,834047,3.1988,224.2,659.02,3.35,59.998
2016,05,06,14,53,50,888500,3.198,224.2,658.74,3.3,59.998
2016,05,06,14,53,50,952991,3.1973,224.1,658.53,3.4,60.024
2016,05,06,14,53,51,026176,3.1981,224.1,658.71,3.37,60.048
2016,05,06,14,53,51,089884,3.1981,224.1,658.63,3.38,60.048
2016,05,06,14,53,51,153779,3.1973,224.0,658.33,3.35,60.048
2016,05,06,14,53,51,289608,3.1981,224.2,658.85,3.31,60.048
2016,05,06,14,53,51,354323,3.1989,224.2,659.16,3.4,60.048
2016,05,06,14,53,51,490526,3.1981,224.1,658.88,3.36,60.048
2016,05,06,14,53,51,555391,3.2005,224.3,659.65,3.4,60.048
2016,05,06,14,53,51,619896,3.2005,224.3,659.65,3.39,60.048
2016,05,06,14,53,51,756932,3.1989,224.3,659.36,3.34,60.024
2016,05,06,14,53,51,821980,3.1989,224.2,658.98,3.44,60.048
2016,05,06,14,53,51,886637,3.1988,224.2,659.16,3.38,59.972
2016,05,06,14,53,51,954169,3.1996,224.3,659.44,3.36,59.998
2016,05,06,14,53,52,091564,3.1988,224.2,659.06,3.34,59.998
2016,05,06,14,53,52,156049,3.198,224.2,659.07,3.36,59.998
2016,05,06,14,53,52,220900,3.2004,224.3,659.8,3.37,59.998
2016,05,06,14,53,52,357329,3.198,224.1,658.69,3.4,59.998
2016,05,06,14,53,52,422283,3.1972,224.1,658.61,3.3,59.998
2016,05,06,14,53,52,486999,3.198,224.2,658.91,3.35,59.998
2016,05,06,14,53,52,560838,3.1989,224.2,659.3,3.37,60.074
2016,05,06,14,53,52,624502,3.1989,224.1,658.84,3.41,60.048
2016,05,06,14,53,52,688188,3.1973,224.1,658.44,3.34,60.048
2016,05,06,14,53,52,823767,3.1989,224.2,659.07,3.33,60.048
2016,05,06,14,53,52,889238,3.1989,224.2,659.0,3.38,60.048
2016,05,06,14,53,52,954009,3.1997,224.2,659.4,3.43,60.048
2016,05,06,14,53,53,026862,3.2013,224.3,660.1,3.29,60.048
2016,05,06,14,53,53,092091,3.2004,224.4,659.92,3.37,59.998
2016,05,06,14,53,53,158311,3.2012,224.4,660.17,3.33,59.998
2016,05,06,14,53,53,221856,3.2037,224.6,661.14,3.32,59.998
2016,05,06,14,53,53,357474,3.1915,224.5,657.64,2.82,59.998
2016,05,06,14,53,53,421619,3.1671,224.5,652.05,6.34,59.998
2016,05,06,14,53,53,557843,3.1834,224.5,656.05,8.43,59.998
2016,05,06,14,53,53,622872,3.1835,224.5,656.09,8.51,60.074
2016,05,06,14,53,53,687303,3.1843,224.4,656.0,8.59,60.048
2016,05,06,14,53,53,822806,3.1826,224.3,655.3,8.59,60.048
2016,05,06,14,53,53,959061,3.1818,224.3,655.06,8.65,60.048
2016,05,06,14,53,54,023948,3.1826,224.3,655.29,8.57,60.048
2016,05,06,14,53,54,098526,3.1835,224.3,655.61,8.62,60.024
2016,05,06,14,53,54,224652,3.1834,224.4,655.98,8.74,59.998
2016,05,06,14,53,54,289157,3.185,224.5,656.37,8.73,59.998
2016,05,06,14,53,54,425925,3.1817,224.2,654.96,8.86,59.998
2016,05,06,14,53,54,491147,3.1809,224.2,654.59,8.63,59.998
2016,05,06,14,53,54,555574,3.1809,224.2,654.79,8.79,59.998
2016,05,06,14,53,54,691686,3.1834,224.4,655.73,8.7,59.998
2016,05,06,14,53,54,755608,3.185,224.4,656.11,8.72,59.998
2016,05,06,14,53,54,892118,3.1851,224.4,656.08,8.73,60.024
2016,05,06,14,53,54,956443,3.1826,224.3,655.51,8.74,59.998
2016,05,06,14,53,55,021370,3.1818,224.2,654.76,8.75,60.024
2016,05,06,14,53,55,182450,3.1834,224.3,655.57,8.71,59.998
2016,05,06,14,53,55,226376,3.1843,224.3,655.84,8.73,60.024
2016,05,06,14,53,55,291714,3.1826,224.3,655.34,8.6,60.024
2016,05,06,14,53,55,355115,3.1835,224.3,655.37,8.73,60.048
2016,05,06,14,53,55,491826,3.1826,224.2,655.06,8.69,60.048
2016,05,06,14,53,55,556228,3.1826,224.2,655.1,8.76,60.048
2016,05,06,14,53,55,692825,3.1826,224.2,655.14,8.71,60.048
2016,05,06,14,53,55,757817,3.1826,224.2,655.08,8.74,60.048
2016,05,06,14,53,55,822424,3.1826,224.2,655.19,8.72,60.024
2016,05,06,14,53,55,959052,3.185,224.4,656.07,8.76,59.998
2016,05,06,14,53,56,023871,3.1842,224.4,655.88,8.72,59.998
2016,05,06,14,53,56,088120,3.1842,224.4,656.04,8.78,59.998
2016,05,06,14,53,56,161817,3.185,224.4,656.03,8.74,59.998
2016,05,06,14,53,56,225397,3.1858,224.4,656.27,8.8,59.998
2016,05,06,14,53,56,291527,3.185,224.4,656.11,8.65,59.998
2016,05,06,14,53,56,356349,3.1834,224.3,655.5,8.78,59.998
2016,05,06,14,53,56,421747,3.1826,224.2,655.28,8.76,60.024
2016,05,06,14,53,56,557581,3.1818,224.2,654.72,8.81,60.048
2016,05,06,14,53,56,622388,3.1826,224.2,655.05,8.83,60.048
2016,05,06,14,53,56,759192,3.1835,224.3,655.48,8.8,60.048
2016,05,06,14,53,56,822982,3.1843,224.3,655.5,8.75,60.048
2016,05,06,14,53,56,958727,3.1835,224.2,655.33,8.69,60.048
2016,05,06,14,53,57,023616,3.1851,224.3,655.85,8.8,60.048
2016,05,06,14,53,57,159485,3.1818,224.1,654.59,8.75,60.048
2016,05,06,14,53,57,223136,3.1818,224.1,654.51,8.7,60.048
2016,05,06,14,53,57,360165,3.1818,224.2,654.81,8.7,60.048
2016,05,06,14,53,57,424861,3.181,224.1,654.28,8.7,60.024
2016,05,06,14,53,57,489160,3.1817,224.2,654.73,8.75,59.998
2016,05,06,14,53,57,562990,3.1809,224.1,654.45,8.78,59.998
2016,05,06,14,53,57,627961,3.1809,224.2,654.63,8.76,59.998
2016,05,06,14,53,57,692308,3.1817,224.2,654.66,8.7,59.998
2016,05,06,14,53,57,756948,3.1801,224.0,654.07,8.68,59.998
2016,05,06,14,53,57,892571,3.1817,224.2,654.75,8.72,59.998
2016,05,06,14,53,57,956377,3.1801,224.1,654.34,8.78,59.998
2016,05,06,14,53,58,092979,3.1818,224.1,654.78,8.7,60.074
2016,05,06,14,53,58,158534,3.1835,224.2,655.2,8.77,60.048
2016,05,06,14,53,58,223238,3.1851,224.3,655.64,8.82,60.048
2016,05,06,14,53,58,359636,3.1851,224.3,655.96,8.77,60.048
2016,05,06,14,53,58,436956,3.1843,224.3,655.63,8.75,60.048
2016,05,06,14,53,58,491474,3.1843,224.3,655.58,8.77,60.048
2016,05,06,14,53,58,556989,3.1818,224.1,654.63,8.67,60.048
2016,05,06,14,53,58,692090,3.1817,224.2,654.86,8.77,59.998
2016,05,06,14,53,58,756463,3.1809,224.2,654.63,8.73,59.998
2016,05,06,14,53,58,893456,3.1817,224.2,655.04,8.68,59.998
2016,05,06,14,53,58,958461,3.1834,224.3,655.55,8.79,59.998
2016,05,06,14,53,59,023087,3.1842,224.4,655.98,8.72,59.998
2016,05,06,14,53,59,160336,3.1858,224.5,656.49,8.7,59.998
2016,05,06,14,53,59,225327,3.1859,224.4,656.41,8.77,60.048
2016,05,06,14,53,59,290099,3.1843,224.3,655.71,8.71,60.048
2016,05,06,14,53,59,426420,3.1859,224.4,656.15,8.7,60.048
2016,05,06,14,53,59,491154,3.1867,224.5,656.61,8.82,60.048
2016,05,06,14,53,59,558387,3.1875,224.5,657.04,8.87,60.048
2016,05,06,14,53,59,624138,3.1891,224.6,657.54,8.73,60.048
2016,05,06,14,53,59,761392,3.1883,224.6,657.46,8.8,60.048
2016,05,06,14,53,59,826313,3.1882,224.7,657.59,8.67,59.972
2016,05,06,14,53,59,890987,3.1874,224.6,657.26,8.82,59.998
2016,05,06,14,54,00,027314,3.1851,224.3,655.94,8.76,60.048
2016,05,06,14,54,00,091373,3.1843,224.3,655.64,8.77,60.048
2016,05,06,14,54,00,227714,3.1859,224.4,656.39,8.75,60.048
2016,05,06,14,54,00,292708,3.185,224.4,655.97,8.77,59.998
2016,05,06,14,54,00,357693,3.185,224.4,656.26,8.78,59.998
2016,05,06,14,54,00,493580,3.1858,224.5,656.54,8.73,59.998
2016,05,06,14,54,00,558677,3.1858,224.5,656.54,8.78,59.998
2016,05,06,14,54,00,629352,3.185,224.4,656.14,8.8,59.998
2016,05,06,14,54,00,694386,3.1858,224.4,656.42,8.79,59.998
2016,05,06,14,54,00,759597,3.1874,224.6,657.05,8.78,59.998
2016,05,06,14,54,00,823964,3.1858,224.5,656.6,8.7,59.998
2016,05,06,14,54,00,961442,3.1875,224.5,656.88,8.84,60.048
2016,05,06,14,54,01,026753,3.1891,224.7,657.55,8.7,60.048
2016,05,06,14,54,01,091188,3.1883,224.6,657.47,8.83,60.048
2016,05,06,14,54,01,227388,3.1859,224.5,656.56,8.7,60.048
2016,05,06,14,54,01,291632,3.1851,224.4,656.23,8.73,60.048
2016,05,06,14,54,01,428051,3.1875,224.6,657.16,8.73,60.048
2016,05,06,14,54,01,493145,3.1859,224.6,656.74,8.76,60.024
2016,05,06,14,54,01,558270,3.1867,224.6,657.09,8.81,60.048
2016,05,06,14,54,01,706231,3.1875,224.6,657.13,8.75,60.048
2016,05,06,14,54,01,759983,3.1875,224.6,657.29,8.74,60.024
2016,05,06,14,54,01,824115,3.1874,224.7,657.46,8.67,59.998
2016,05,06,14,54,01,960175,3.1866,224.5,656.77,8.7,59.998
2016,05,06,14,54,02,025157,3.1858,224.6,656.67,8.72,59.998
2016,05,06,14,54,02,161807,3.1883,224.6,657.37,8.8,60.048
2016,05,06,14,54,02,225569,3.1883,224.6,657.53,8.78,60.048
2016,05,06,14,54,02,361498,3.19,224.7,658.03,8.82,60.048
2016,05,06,14,54,02,426482,3.19,224.7,658.12,8.85,60.048
2016,05,06,14,54,02,491017,3.1891,224.7,657.87,8.78,60.024
2016,05,06,14,54,02,627529,3.1908,224.8,658.43,8.82,60.048
2016,05,06,14,54,02,692219,3.1908,224.8,658.36,8.8,60.024
2016,05,06,14,54,02,757375,3.19,224.8,658.11,8.74,60.024
2016,05,06,14,54,02,895173,3.1883,224.6,657.57,8.8,60.048
2016,05,06,14,54,02,958980,3.189,224.7,657.9,8.77,59.998
2016,05,06,14,54,03,094797,3.1883,224.7,657.61,8.79,60.048
2016,05,06,14,54,03,158771,3.1891,224.7,657.73,8.78,60.048
2016,05,06,14,54,03,294071,3.1859,224.6,656.77,8.66,60.024
2016,05,06,14,54,03,358833,3.1867,224.6,657.08,8.77,60.048
2016,05,06,14,54,03,495212,3.1859,224.5,656.46,8.8,60.048
2016,05,06,14,54,03,560194,3.1859,224.5,656.65,8.83,60.048
2016,05,06,14,54,03,624724,3.1875,224.6,657.08,8.73,60.048
2016,05,06,14,54,03,761398,3.1883,224.6,657.59,8.79,60.048
2016,05,06,14,54,03,826287,3.1858,224.5,656.72,8.76,59.998
2016,05,06,14,54,03,893887,3.1867,224.5,656.66,8.87,60.048
2016,05,06,14,54,03,958663,3.1859,224.5,656.57,8.79,60.048
2016,05,06,14,54,04,094056,3.1859,224.5,656.6,8.78,60.048
2016,05,06,14,54,04,159140,3.1843,224.5,656.24,8.82,60.024
2016,05,06,14,54,04,223696,3.1835,224.4,655.86,8.69,60.024
2016,05,06,14,54,04,360823,3.1859,224.5,656.48,8.73,60.048
2016,05,06,14,54,04,425827,3.1835,224.4,655.81,8.7,60.048
2016,05,06,14,54,04,561831,3.1851,224.5,656.37,8.73,60.048
2016,05,06,14,54,04,625502,3.1851,224.4,656.22,8.68,60.048
2016,05,06,14,54,04,760803,3.1802,224.1,654.47,8.68,60.048
2016,05,06,14,54,04,825461,3.1818,224.2,654.98,8.72,60.048
2016,05,06,14,54,05,026302,3.1826,224.3,655.21,8.67,60.048
2016,05,06,14,54,05,095187,3.1835,224.3,655.44,8.75,60.048
2016,05,06,14,54,05,157971,3.1826,224.3,655.35,8.77,60.048
2016,05,06,14,54,05,294439,3.1826,224.3,655.24,8.79,60.048
2016,05,06,14,54,05,359074,3.1843,224.3,655.76,8.77,60.048
2016,05,06,14,54,05,494934,3.1802,224.1,654.12,8.76,60.048
2016,05,06,14,54,05,558527,3.1826,224.3,655.27,8.75,60.048
2016,05,06,14,54,05,693690,3.1826,224.3,655.13,8.79,60.048
2016,05,06,14,54,05,758273,3.181,224.2,654.59,8.73,60.048
2016,05,06,14,54,05,894796,3.1794,224.0,653.82,8.8,60.048
2016,05,06,14,54,05,960154,3.1802,224.1,654.31,8.7,60.048
2016,05,06,14,54,06,039608,3.1786,224.0,653.75,8.72,60.048
2016,05,06,14,54,06,093771,3.1786,224.0,653.5,8.8,60.048
2016,05,06,14,54,06,158217,3.1794,224.0,653.86,8.76,60.048
2016,05,06,14,54,06,294290,3.181,224.1,654.31,8.72,60.048
2016,05,06,14,54,06,359476,3.1713,224.1,651.65,7.32,60.048
2016,05,06,14,54,06,424588,3.112,224.2,637.27,3.47,60.048
2016,05,06,14,54,06,560007,3.1648,224.1,650.51,10.52,60.048
2016,05,06,14,54,06,623576,3.1648,224.1,650.28,10.59,60.048
2016,05,06,14,54,06,759654,3.1656,224.2,650.62,10.61,60.048
2016,05,06,14,54,06,825344,3.1664,224.2,651.13,10.61,60.048
2016,05,06,14,54,06,961051,3.1664,224.2,651.03,10.66,60.048
2016,05,06,14,54,07,024659,3.1689,224.3,651.91,10.62,60.048
2016,05,06,14,54,07,162505,3.1705,224.4,652.53,10.63,60.048
2016,05,06,14,54,07,227162,3.1705,224.5,652.49,10.63,60.048
2016,05,06,14,54,07,361894,3.168,224.3,651.67,10.61,60.024
2016,05,06,14,54,07,426609,3.1664,224.3,651.27,10.61,60.024
2016,05,06,14,54,07,490912,3.1656,224.2,650.76,10.6,60.048
2016,05,06,14,54,07,626980,3.1656,224.2,650.86,10.6,60.024
2016,05,06,14,54,07,691768,3.1655,224.2,650.8,10.67,59.998
2016,05,06,14,54,07,828116,3.1632,224.0,649.88,10.61,60.048
2016,05,06,14,54,07,891938,3.1616,223.9,649.1,10.61,60.048
2016,05,06,14,54,08,027598,3.1607,223.8,648.85,10.59,60.048
2016,05,06,14,54,08,092212,3.159,223.7,648.27,10.66,59.998
2016,05,06,14,54,08,225160,3.1624,224.0,649.55,10.54,60.048
2016,05,06,14,54,08,362878,3.1648,224.0,650.26,10.69,60.048
2016,05,06,14,54,08,428071,3.1664,224.1,650.68,10.66,60.048
2016,05,06,14,54,08,492328,3.1656,224.1,650.47,10.73,60.048
2016,05,06,14,54,08,628041,3.1664,224.2,651.02,10.63,60.024
2016,05,06,14,54,08,692854,3.1656,224.1,650.75,10.75,60.048
2016,05,06,14,54,08,757526,3.1664,224.2,651.05,10.66,60.048
2016,05,06,14,54,08,893180,3.1655,224.1,650.6,10.7,59.998
2016,05,06,14,54,08,957771,3.1664,224.2,651.0,10.74,60.024
2016,05,06,14,54,09,093843,3.1671,224.2,651.29,10.64,59.998
2016,05,06,14,54,09,158792,3.1679,224.2,651.41,10.67,59.998
2016,05,06,14,54,09,295802,3.1655,224.1,650.68,10.62,59.998
2016,05,06,14,54,09,359593,3.1647,224.0,650.15,10.71,59.998
2016,05,06,14,54,09,495610,3.1655,224.1,650.6,10.65,59.998
2016,05,06,14,54,09,560395,3.1647,224.1,650.5,10.66,59.998
2016,05,06,14,54,09,624610,3.1631,224.0,649.65,10.65,59.998
2016,05,06,14,54,09,760042,3.1639,224.1,650.15,10.62,59.998
2016,05,06,14,54,09,824771,3.1655,224.2,650.81,10.64,59.998
2016,05,06,14,54,09,961161,3.1664,224.2,650.9,10.73,60.048
2016,05,06,14,54,10,025778,3.1664,224.2,650.98,10.7,60.048
2016,05,06,14,54,10,161656,3.168,224.3,651.6,10.74,60.048
2016,05,06,14,54,10,225361,3.1672,224.2,651.31,10.68,60.048
2016,05,06,14,54,10,365854,3.1664,224.2,650.89,10.62,60.048
2016,05,06,14,54,10,430960,3.1648,224.1,650.52,10.65,60.048
2016,05,06,14,54,10,496190,3.1648,224.0,650.41,10.74,60.048
2016,05,06,14,54,10,560340,3.1655,224.1,650.66,10.78,59.998
2016,05,06,14,54,10,624732,3.1655,224.1,650.72,10.61,59.998
2016,05,06,14,54,10,761262,3.1655,224.2,650.74,10.72,59.998
2016,05,06,14,54,10,826306,3.1663,224.1,650.79,10.76,59.998
2016,05,06,14,54,10,962609,3.1647,224.0,650.3,10.6,59.998
2016,05,06,14,54,11,026409,3.1647,224.1,650.28,10.59,59.998
2016,05,06,14,54,11,161720,3.1655,224.1,650.61,10.74,59.998
2016,05,06,14,54,11,225884,3.1664,224.2,650.95,10.61,60.024
2016,05,06,14,54,11,361851,3.168,224.2,651.32,10.68,60.048
2016,05,06,14,54,11,452154,3.168,224.2,651.43,10.71,60.048
2016,05,06,14,54,11,496364,3.1689,224.3,651.69,10.69,60.048
2016,05,06,14,54,11,561893,3.1689,224.3,651.7,10.75,60.048
2016,05,06,14,54,11,626031,3.1672,224.2,651.16,10.65,60.048
2016,05,06,14,54,11,762473,3.1672,224.2,651.07,10.64,60.048
2016,05,06,14,54,11,827244,3.1664,224.1,650.8,10.79,60.048
2016,05,06,14,54,11,891389,3.168,224.2,651.32,10.72,60.048
2016,05,06,14,54,12,026888,3.1705,224.3,652.25,10.72,60.024
2016,05,06,14,54,12,091518,3.1704,224.4,652.52,10.72,59.998
2016,05,06,14,54,12,227489,3.172,224.6,653.35,10.69,59.998
2016,05,06,14,54,12,291562,3.1737,224.6,653.74,10.72,60.024
2016,05,06,14,54,12,428408,3.1705,224.4,652.59,10.74,60.048
2016,05,06,14,54,12,492592,3.1713,224.4,652.83,10.71,60.048
2016,05,06,14,54,12,629290,3.1696,224.4,652.27,10.67,59.998
2016,05,06,14,54,12,695409,3.1696,224.4,652.1,10.65,59.998
2016,05,06,14,54,12,759150,3.1689,224.2,651.65,10.67,60.048
2016,05,06,14,54,12,895679,3.1696,224.3,652.06,10.72,59.998
2016,05,06,14,54,12,960532,3.1689,224.2,651.66,10.74,60.048
2016,05,06,14,54,13,025610,3.168,224.3,651.65,10.72,60.024
2016,05,06,14,54,13,161976,3.168,224.2,651.47,10.73,60.048
2016,05,06,14,54,13,226759,3.1664,224.1,650.87,10.7,60.048
2016,05,06,14,54,13,362637,3.1688,224.3,652.01,10.85,59.998
2016,05,06,14,54,13,426285,3.1688,224.3,652.03,10.74,59.998
2016,05,06,14,54,13,561836,3.1672,224.2,651.11,10.73,60.048
2016,05,06,14,54,13,628341,3.1688,224.3,651.93,10.75,59.998
2016,05,06,14,54,13,693140,3.1672,224.2,651.21,10.68,60.048
2016,05,06,14,54,13,829401,3.1689,224.3,652.08,10.79,60.048
2016,05,06,14,54,13,894556,3.1689,224.3,651.84,10.63,60.024
2016,05,06,14,54,13,959101,3.1679,224.3,651.83,10.79,59.998
2016,05,06,14,54,14,095335,3.0601,224.6,625.84,1.77,60.048
2016,05,06,14,54,14,160361,3.0609,224.6,625.98,1.74,60.048
2016,05,06,14,54,14,296202,3.0585,224.5,625.29,1.75,60.048
2016,05,06,14,54,14,360113,3.0609,224.7,626.2,1.75,60.048
2016,05,06,14,54,14,495565,3.0585,224.5,625.33,1.77,60.048
2016,05,06,14,54,14,560458,3.0593,224.6,625.69,1.86,60.048
2016,05,06,14,54,14,625406,3.0601,224.6,625.91,1.78,60.048
2016,05,06,14,54,14,702365,3.0593,224.6,625.51,1.77,60.048
2016,05,06,14,54,14,830178,3.0609,224.6,625.97,1.71,60.024
2016,05,06,14,54,14,893580,3.0617,224.7,626.53,1.75,60.024
2016,05,06,14,54,14,958612,3.0625,224.7,626.66,1.7,60.048
2016,05,06,14,54,15,094919,3.0609,224.6,626.15,1.79,60.048
2016,05,06,14,54,15,160126,3.0617,224.7,626.35,1.76,60.048
2016,05,06,14,54,15,296222,3.0634,224.8,626.9,1.72,60.048
2016,05,06,14,54,15,361461,3.0642,224.9,627.37,1.77,60.048
2016,05,06,14,54,15,426147,3.065,224.9,627.53,1.82,60.048
2016,05,06,14,54,15,562376,3.0658,224.9,627.85,1.72,60.048
2016,05,06,14,54,15,626958,3.0658,224.9,627.82,1.76,60.048
2016,05,06,14,54,15,691544,3.0658,225.0,627.96,1.79,60.048
2016,05,06,14,54,15,828859,3.065,224.9,627.73,1.79,60.048
2016,05,06,14,54,15,893397,3.0625,224.8,626.9,1.8,60.048
2016,05,06,14,54,16,028765,3.0651,224.9,627.69,1.76,60.098
2016,05,06,14,54,16,093828,3.0651,224.9,627.75,1.79,60.098
2016,05,06,14,54,16,158594,3.0659,224.9,627.62,1.7,60.098
2016,05,06,14,54,16,294934,3.0659,224.9,627.68,1.75,60.098
2016,05,06,14,54,16,359435,3.065,224.8,627.41,1.71,60.074
2016,05,06,14,54,16,424737,3.0634,224.8,627.06,1.81,60.048
2016,05,06,14,54,16,560235,3.0625,224.8,626.76,1.75,60.048
2016,05,06,14,54,16,624961,3.0634,224.8,627.03,1.75,60.048
2016,05,06,14,54,16,761148,3.0625,224.8,626.71,1.77,60.048
2016,05,06,14,54,16,825088,3.0635,224.8,626.93,1.71,60.098
2016,05,06,14,54,16,898362,3.0625,224.7,626.39,1.73,60.074
2016,05,06,14,54,16,963545,3.0625,224.8,626.67,1.73,60.048
2016,05,06,14,54,17,029434,3.0625,224.8,626.79,1.77,60.048
2016,05,06,14,54,17,094595,3.0634,224.8,626.91,1.7,60.048
2016,05,06,14,54,17,159574,3.0625,224.8,626.77,1.74,60.048
2016,05,06,14,54,17,225198,3.0609,224.6,625.99,1.72,60.048
2016,05,06,14,54,17,361246,3.0601,224.6,625.57,1.75,60.048
2016,05,06,14,54,17,425070,3.0585,224.5,625.23,1.79,60.048
2016,05,06,14,54,17,560813,3.0617,224.6,626.13,1.79,60.074
2016,05,06,14,54,17,625745,3.0617,224.7,626.4,1.77,60.048
2016,05,06,14,54,17,761906,3.0601,224.5,625.46,1.72,60.074
2016,05,06,14,54,17,825493,3.0569,224.4,624.69,1.69,60.048
