Year,Month,Day,Hour,Minute,Second,Millisecond,Current,Voltage,ActivePwr,ReactvPwr,Frequency
2016,05,06,14,45,44,223144,0.0048,226.7,0.9,0.0,60.048
2016,05,06,14,45,44,287963,0.0048,226.6,0.92,0.0,60.048
2016,05,06,14,45,44,425271,0.0048,226.6,0.9,0.02,59.998
2016,05,06,14,45,44,490227,0.0048,226.7,0.91,0.04,60.048
2016,05,06,14,45,44,554725,0.0048,226.7,0.9,0.05,60.024
2016,05,06,14,45,44,690408,0.0048,226.7,0.92,0.04,59.998
2016,05,06,14,45,44,755469,0.0048,226.7,0.9,0.01,59.998
2016,05,06,14,45,44,891912,0.0048,226.8,0.96,0.01,59.998
2016,05,06,14,45,44,957184,0.0048,226.9,0.94,0.02,59.998
2016,05,06,14,45,45,021816,0.0048,226.8,0.95,0.02,60.048
2016,05,06,14,45,45,159603,0.0056,226.9,0.93,0.04,60.048
2016,05,06,14,45,45,224975,0.0056,226.8,0.95,0.03,60.048
2016,05,06,14,45,45,357796,0.0048,226.9,0.94,0.03,60.048
2016,05,06,14,45,45,422197,0.0048,226.9,0.92,0.02,60.048
2016,05,06,14,45,45,557934,0.0048,226.8,0.95,0.01,60.048
2016,05,06,14,45,45,623022,0.0048,226.8,0.94,0.02,60.048
2016,05,06,14,45,45,688048,0.0048,226.8,0.93,0.04,60.048
2016,05,06,14,45,45,824093,0.0048,226.7,0.91,0.04,60.048
2016,05,06,14,45,45,888959,0.0056,226.6,0.92,0.04,60.048
2016,05,06,14,45,46,025332,0.0048,226.7,0.92,0.03,59.998
2016,05,06,14,45,46,089765,0.0048,226.8,0.9,0.0,60.024
2016,05,06,14,45,46,154478,0.0048,226.8,0.92,0.01,60.048
2016,05,06,14,45,46,291378,0.0048,226.8,0.92,0.01,60.048
2016,05,06,14,45,46,360403,0.0056,226.8,0.93,0.01,60.048
2016,05,06,14,45,46,425299,0.0048,226.8,0.95,0.01,59.998
2016,05,06,14,45,46,490069,0.0048,226.8,0.92,0.01,60.048
2016,05,06,14,45,46,624566,0.0048,226.9,0.91,0.01,60.024
2016,05,06,14,45,46,689409,0.0048,226.9,0.93,0.04,60.024
2016,05,06,14,45,46,824897,0.0048,226.8,0.92,0.03,60.024
2016,05,06,14,45,46,888807,0.0048,226.9,0.94,0.02,59.998
2016,05,06,14,45,47,024445,0.0048,226.9,0.93,0.01,60.024
2016,05,06,14,45,47,089392,0.0048,226.9,0.91,0.01,60.024
2016,05,06,14,45,47,225609,0.0056,227.1,0.97,0.0,60.024
2016,05,06,14,45,47,290510,0.0048,227.0,0.91,0.0,60.048
2016,05,06,14,45,47,443165,0.0056,227.1,0.97,0.06,59.998
2016,05,06,14,45,47,561454,0.0048,226.9,0.93,0.01,60.048
2016,05,06,14,45,47,625975,0.0056,227.0,0.94,0.02,60.024
2016,05,06,14,45,47,690197,0.0056,227.0,0.97,0.03,60.024
2016,05,06,14,45,47,825765,0.0048,226.8,0.9,0.01,60.048
2016,05,06,14,45,47,890248,0.0048,226.7,0.93,0.02,60.048
2016,05,06,14,45,48,026136,0.0048,226.7,0.97,0.03,60.048
2016,05,06,14,45,48,089947,0.0048,226.6,0.91,0.0,60.048
2016,05,06,14,45,48,226757,0.0056,226.7,0.98,0.02,59.998
2016,05,06,14,45,48,290676,0.0048,226.6,0.88,0.0,60.024
2016,05,06,14,45,48,425902,0.0048,226.6,0.92,0.03,60.048
2016,05,06,14,45,48,490729,0.0048,226.6,0.92,0.01,60.048
2016,05,06,14,45,48,561638,0.0056,226.7,0.95,0.04,60.024
2016,05,06,14,45,48,627061,0.0048,226.8,0.88,0.01,60.048
2016,05,06,14,45,48,691783,0.0048,226.9,0.91,0.0,60.048
2016,05,06,14,45,48,756825,0.0048,227.0,0.9,0.05,60.048
2016,05,06,14,45,48,822081,0.0048,227.0,0.94,0.02,60.024
2016,05,06,14,45,48,958913,0.0056,227.0,0.99,0.01,60.048
2016,05,06,14,45,49,023902,0.0048,226.9,0.94,0.0,60.048
2016,05,06,14,45,49,160045,0.0056,226.8,0.98,0.01,59.998
2016,05,06,14,45,49,224091,0.0048,226.8,0.93,0.05,59.998
2016,05,06,14,45,49,360977,0.5282,226.4,68.65,2.95,59.998
2016,05,06,14,45,49,426077,0.921,226.0,208.39,1.32,60.048
2016,05,06,14,45,49,490414,0.8983,225.9,203.21,1.72,60.048
2016,05,06,14,45,49,628239,0.8707,225.9,196.81,1.56,60.048
2016,05,06,14,45,49,693254,0.8634,225.9,195.18,1.54,60.048
2016,05,06,14,45,49,758060,0.8577,226.0,193.99,1.51,60.048
2016,05,06,14,45,49,893349,0.8504,226.1,192.44,1.4,60.048
2016,05,06,14,45,49,957432,0.8488,226.2,192.19,1.41,60.048
2016,05,06,14,45,50,092660,0.8463,226.2,191.55,1.41,60.048
2016,05,06,14,45,50,158331,0.8455,226.2,191.39,1.39,60.048
2016,05,06,14,45,50,222649,0.8439,226.2,191.14,1.34,60.048
2016,05,06,14,45,50,359710,0.8439,226.4,191.24,1.39,60.048
2016,05,06,14,45,50,424760,0.8439,226.4,191.17,1.33,60.048
2016,05,06,14,45,50,489369,0.8423,226.3,190.88,1.35,60.048
2016,05,06,14,45,50,625423,0.8439,226.5,191.23,1.38,60.048
2016,05,06,14,45,50,708925,0.8431,226.4,191.02,1.34,60.048
2016,05,06,14,45,50,763294,0.8423,226.4,190.82,1.32,60.048
2016,05,06,14,45,50,828734,0.8423,226.3,190.78,1.37,60.048
2016,05,06,14,45,50,892256,0.8423,226.4,190.78,1.35,60.048
2016,05,06,14,45,50,956776,0.8423,226.5,190.87,1.37,60.048
2016,05,06,14,45,51,093612,0.8415,226.5,190.75,1.33,60.048
2016,05,06,14,45,51,159602,0.8407,226.5,190.55,1.36,60.048
2016,05,06,14,45,51,223877,0.8407,226.6,190.58,1.43,60.048
2016,05,06,14,45,51,359499,0.839,226.6,190.26,1.31,60.048
2016,05,06,14,45,51,423417,0.839,226.6,190.19,1.4,60.048
2016,05,06,14,45,51,559987,0.8382,226.7,190.12,1.38,60.048
2016,05,06,14,45,51,625262,0.8374,226.7,190.05,1.37,60.048
2016,05,06,14,45,51,689671,0.8366,226.7,189.83,1.4,60.048
2016,05,06,14,45,51,827722,0.8358,226.7,189.58,1.36,60.048
2016,05,06,14,45,51,892832,0.8358,226.7,189.56,1.41,60.048
2016,05,06,14,45,51,959249,0.835,226.7,189.47,1.38,60.048
2016,05,06,14,45,52,024430,0.8342,226.6,189.22,1.4,60.048
2016,05,06,14,45,52,160367,0.8334,226.5,188.98,1.42,60.048
2016,05,06,14,45,52,224599,0.8334,226.5,188.84,1.37,60.048
2016,05,06,14,45,52,361180,0.8325,226.4,188.68,1.29,60.048
2016,05,06,14,45,52,426414,0.8325,226.5,188.65,1.27,60.048
2016,05,06,14,45,52,491921,0.8325,226.5,188.69,1.36,60.048
2016,05,06,14,45,52,557158,0.8325,226.6,188.74,1.39,60.048
2016,05,06,14,45,52,693509,0.8325,226.7,188.88,1.32,60.048
2016,05,06,14,45,52,758615,0.8317,226.6,188.66,1.31,60.048
2016,05,06,14,45,52,822806,0.8317,226.5,188.53,1.38,60.048
2016,05,06,14,45,52,960114,0.8309,226.5,188.39,1.3,60.048
2016,05,06,14,45,53,024314,0.8309,226.4,188.23,1.29,60.048
2016,05,06,14,45,53,158779,0.8301,226.3,187.91,1.32,60.048
2016,05,06,14,45,53,223568,0.8293,226.3,187.83,1.32,60.048
2016,05,06,14,45,53,359595,0.8293,226.2,187.7,1.3,60.048
2016,05,06,14,45,53,423517,0.8293,226.3,187.77,1.39,60.048
2016,05,06,14,45,53,559380,0.8285,226.1,187.48,1.34,60.048
2016,05,06,14,45,53,624008,0.8285,226.2,187.56,1.34,60.048
2016,05,06,14,45,53,760265,0.8277,226.1,187.24,1.33,60.048
2016,05,06,14,45,53,824272,0.8277,226.2,187.31,1.34,60.048
2016,05,06,14,45,53,966226,0.8269,226.2,187.27,1.3,60.048
2016,05,06,14,45,54,093554,0.8269,226.3,187.35,1.31,60.024
2016,05,06,14,45,54,157602,0.8269,226.3,187.21,1.34,60.048
2016,05,06,14,45,54,223359,0.8269,226.2,187.12,1.36,60.048
2016,05,06,14,45,54,359342,0.8252,226.0,186.69,1.26,60.048
2016,05,06,14,45,54,422978,0.8252,226.0,186.73,1.36,60.048
2016,05,06,14,45,54,559122,0.8252,226.0,186.63,1.33,60.048
2016,05,06,14,45,54,624673,0.8252,226.1,186.77,1.34,60.048
2016,05,06,14,45,54,760709,0.8261,226.3,186.97,1.33,60.048
2016,05,06,14,45,54,824725,0.8252,226.3,187.04,1.28,60.048
2016,05,06,14,45,54,960790,0.8261,226.4,187.15,1.29,60.048
2016,05,06,14,45,55,053782,0.8261,226.5,187.32,1.33,60.048
2016,05,06,14,45,55,162587,0.8261,226.6,187.34,1.32,60.048
2016,05,06,14,45,55,227631,0.8261,226.6,187.27,1.4,60.048
2016,05,06,14,45,55,292150,0.8261,226.6,187.3,1.29,60.024
2016,05,06,14,45,55,428172,0.8252,226.5,187.06,1.27,60.048
2016,05,06,14,45,55,493260,0.8252,226.5,186.98,1.25,60.048
2016,05,06,14,45,55,558443,0.8244,226.2,186.6,1.33,60.048
2016,05,06,14,45,55,623526,0.8236,226.1,186.33,1.31,59.998
2016,05,06,14,45,55,760204,0.8228,226.0,186.2,1.32,60.048
2016,05,06,14,45,55,824129,0.8228,226.1,186.23,1.34,60.048
2016,05,06,14,45,55,959251,0.8228,226.1,186.17,1.27,59.998
2016,05,06,14,45,56,023999,0.8228,226.1,186.16,1.32,60.048
2016,05,06,14,45,56,161793,0.8236,226.3,186.43,1.29,59.998
2016,05,06,14,45,56,225695,0.8228,226.3,186.35,1.26,59.998
2016,05,06,14,45,56,361894,0.8228,226.2,186.19,1.27,59.998
2016,05,06,14,45,56,427119,0.822,226.2,186.16,1.27,59.998
2016,05,06,14,45,56,491091,0.822,226.1,186.1,1.25,59.998
2016,05,06,14,45,56,627048,0.822,226.1,186.0,1.28,59.998
2016,05,06,14,45,56,691123,0.822,226.0,185.89,1.28,59.998
2016,05,06,14,45,56,827087,0.8212,226.1,185.89,1.34,59.998
2016,05,06,14,45,56,892133,0.8212,226.1,185.93,1.34,59.998
2016,05,06,14,45,56,957547,0.8212,226.1,185.92,1.28,60.024
2016,05,06,14,45,57,094109,0.822,226.2,186.06,1.28,60.048
2016,05,06,14,45,57,159396,0.8212,226.3,186.02,1.33,60.048
2016,05,06,14,45,57,227961,0.822,226.3,186.11,1.26,60.048
2016,05,06,14,45,57,293097,0.8212,226.1,185.83,1.33,60.048
2016,05,06,14,45,57,357722,0.8204,226.1,185.7,1.28,60.048
2016,05,06,14,45,57,431067,0.8212,226.1,185.82,1.32,60.048
2016,05,06,14,45,57,495976,0.8212,226.1,185.8,1.31,60.048
2016,05,06,14,45,57,560717,0.8204,226.1,185.63,1.31,60.048
2016,05,06,14,45,57,625644,0.8204,226.0,185.65,1.37,60.048
2016,05,06,14,45,57,761511,0.8204,226.1,185.61,1.35,60.048
2016,05,06,14,45,57,825277,0.8204,226.1,185.73,1.33,59.998
2016,05,06,14,45,57,961321,0.8204,226.0,185.56,1.32,60.024
2016,05,06,14,45,58,026358,0.8204,226.1,185.61,1.29,60.048
2016,05,06,14,45,58,090635,0.8204,226.1,185.7,1.33,60.024
2016,05,06,14,45,58,226258,0.8204,226.2,185.79,1.32,59.998
2016,05,06,14,45,58,314733,0.8204,226.2,185.71,1.32,60.048
2016,05,06,14,45,58,358832,0.8196,226.2,185.58,1.29,60.048
2016,05,06,14,45,58,495247,0.8195,226.1,185.51,1.26,59.998
2016,05,06,14,45,58,559191,0.8195,226.1,185.42,1.28,59.998
2016,05,06,14,45,58,694892,0.8187,226.0,185.26,1.33,59.998
2016,05,06,14,45,58,759371,0.8195,226.0,185.36,1.34,59.998
2016,05,06,14,45,58,824414,0.8195,226.1,185.45,1.29,59.998
2016,05,06,14,45,58,960978,0.8187,226.0,185.29,1.25,59.998
2016,05,06,14,45,59,026098,0.8196,226.1,185.35,1.33,60.024
2016,05,06,14,45,59,162075,0.8188,226.1,185.32,1.27,60.048
2016,05,06,14,45,59,225621,0.8196,226.1,185.43,1.35,60.048
2016,05,06,14,45,59,360879,0.8196,226.1,185.45,1.26,60.048
2016,05,06,14,45,59,429757,0.8196,226.2,185.59,1.3,60.048
2016,05,06,14,45,59,494901,0.8195,226.4,185.77,1.33,59.998
2016,05,06,14,45,59,559385,0.8196,226.3,185.65,1.31,60.024
2016,05,06,14,45,59,624679,0.8196,226.3,185.62,1.31,60.048
2016,05,06,14,45,59,761270,0.8196,226.4,185.77,1.3,60.024
2016,05,06,14,45,59,825193,0.8196,226.4,185.68,1.29,60.048
2016,05,06,14,45,59,960428,0.8196,226.3,185.53,1.26,60.024
2016,05,06,14,46,00,025743,0.8196,226.4,185.7,1.33,60.048
2016,05,06,14,46,00,162431,0.8196,226.4,185.75,1.34,60.048
2016,05,06,14,46,00,226306,0.8196,226.4,185.78,1.33,60.048
2016,05,06,14,46,00,362200,0.8188,226.3,185.51,1.36,60.048
2016,05,06,14,46,00,427653,0.8188,226.3,185.56,1.31,60.048
2016,05,06,14,46,00,495952,0.8187,226.4,185.55,1.28,59.998
2016,05,06,14,46,00,559923,0.8196,226.4,185.61,1.35,60.048
2016,05,06,14,46,00,695596,0.8179,226.2,185.25,1.32,60.048
2016,05,06,14,46,00,759760,0.8188,226.3,185.46,1.26,60.048
2016,05,06,14,46,00,896019,0.8188,226.4,185.53,1.29,60.048
2016,05,06,14,46,00,961148,0.8188,226.4,185.55,1.34,60.048
2016,05,06,14,46,01,025780,0.8188,226.4,185.61,1.3,60.048
2016,05,06,14,46,01,161055,0.8188,226.5,185.61,1.37,60.048
2016,05,06,14,46,01,225674,0.8196,226.6,185.86,1.32,60.048
2016,05,06,14,46,01,362253,0.8188,226.5,185.55,1.32,60.048
2016,05,06,14,46,01,426130,0.8179,226.3,185.35,1.27,60.048
2016,05,06,14,46,01,565237,0.8179,226.4,185.37,1.28,59.998
2016,05,06,14,46,01,630281,0.8179,226.4,185.28,1.32,59.998
2016,05,06,14,46,01,694659,0.8187,226.4,185.47,1.31,59.998
2016,05,06,14,46,01,829520,0.8188,226.4,185.47,1.26,60.048
2016,05,06,14,46,01,893317,0.8188,226.5,185.49,1.3,60.048
2016,05,06,14,46,02,031249,0.8188,226.6,185.76,1.33,60.048
2016,05,06,14,46,02,096818,0.8188,226.7,185.8,1.29,60.048
2016,05,06,14,46,02,161416,0.8188,226.7,185.85,1.33,60.048
2016,05,06,14,46,02,226379,0.8188,226.6,185.77,1.3,60.048
2016,05,06,14,46,02,362348,0.8188,226.5,185.57,1.3,60.048
2016,05,06,14,46,02,426343,0.8188,226.6,185.58,1.35,60.048
2016,05,06,14,46,02,562472,0.8179,226.5,185.44,1.31,60.048
2016,05,06,14,46,02,655025,0.8179,226.5,185.49,1.37,60.048
2016,05,06,14,46,02,698512,0.8188,226.6,185.65,1.33,60.048
2016,05,06,14,46,02,763675,0.5388,226.9,81.93,7.03,60.048
2016,05,06,14,46,02,826832,0.0089,227.2,0.96,0.22,60.048
2016,05,06,14,46,02,962444,0.0048,227.2,0.96,0.03,60.048
2016,05,06,14,46,03,026275,0.0056,227.2,0.93,0.01,60.048
2016,05,06,14,46,03,162682,0.0048,227.2,0.95,0.03,60.048
2016,05,06,14,46,03,227764,0.0056,227.3,0.95,0.0,60.048
2016,05,06,14,46,03,292075,0.0056,227.3,0.96,0.04,60.048
2016,05,06,14,46,03,366127,0.0048,227.3,0.91,0.02,60.048
2016,05,06,14,46,03,430299,0.0048,227.3,0.95,0.03,60.048
2016,05,06,14,46,03,494211,0.0056,227.2,0.95,0.0,60.048
2016,05,06,14,46,03,630234,0.0048,227.3,0.95,0.01,60.048
2016,05,06,14,46,03,695798,0.0056,227.4,0.95,0.02,60.048
2016,05,06,14,46,03,765096,0.0056,227.4,0.96,0.03,60.048
2016,05,06,14,46,03,829191,0.0048,227.4,0.95,0.01,60.048
2016,05,06,14,46,03,894542,0.0048,227.5,0.92,0.01,60.048
2016,05,06,14,46,04,029900,0.0048,227.6,0.95,0.03,60.048
2016,05,06,14,46,04,094043,0.0048,227.5,0.96,0.08,60.048
2016,05,06,14,46,04,229815,0.0056,227.4,0.98,0.03,60.048
2016,05,06,14,46,04,293838,0.0056,227.3,0.98,0.04,60.048
2016,05,06,14,46,04,429902,0.0048,227.3,0.97,0.03,60.048
2016,05,06,14,46,04,495301,0.0048,227.3,0.93,0.0,60.048
2016,05,06,14,46,04,560314,0.0048,227.2,0.91,0.03,60.098
2016,05,06,14,46,04,697257,0.0056,227.3,0.96,0.03,60.098
2016,05,06,14,46,04,762134,0.0056,227.4,0.93,0.02,60.098
2016,05,06,14,46,04,828390,0.0048,227.3,0.92,0.01,60.098
2016,05,06,14,46,04,892011,0.0048,227.3,0.88,0.05,60.098
2016,05,06,14,46,05,027769,0.0048,227.3,0.92,0.0,60.074
2016,05,06,14,46,05,164017,0.0048,227.3,0.92,0.01,60.048
2016,05,06,14,46,05,229376,0.0048,227.4,0.91,0.07,60.048
2016,05,06,14,46,05,294766,0.0056,227.4,0.97,0.01,60.048
2016,05,06,14,46,05,360060,0.0048,227.3,0.9,0.01,60.048
2016,05,06,14,46,05,496203,0.0048,227.2,0.94,0.03,60.124
2016,05,06,14,46,05,560041,0.0048,227.3,0.92,0.05,60.098
2016,05,06,14,46,05,696183,0.0048,227.2,0.92,0.0,60.098
2016,05,06,14,46,05,761442,0.0048,227.3,0.95,0.01,60.098
2016,05,06,14,46,05,825814,0.0048,227.3,0.93,0.02,60.098
2016,05,06,14,46,05,910645,0.0048,227.4,0.9,0.01,60.098
2016,05,06,14,46,05,964134,0.0048,227.4,0.98,0.0,60.048
2016,05,06,14,46,06,028074,0.0048,227.4,0.93,0.01,60.074
2016,05,06,14,46,06,091688,0.0048,227.4,0.89,0.0,60.098
2016,05,06,14,46,06,227269,0.0056,227.6,0.95,0.01,60.048
2016,05,06,14,46,06,292432,0.0056,227.6,0.95,0.03,60.048
2016,05,06,14,46,06,428642,0.0056,227.5,0.95,0.0,60.048
2016,05,06,14,46,06,494057,0.0048,227.5,0.91,0.05,60.048
2016,05,06,14,46,06,558928,0.0048,227.4,0.93,0.02,60.048
2016,05,06,14,46,06,695017,0.0056,227.3,0.99,0.08,60.048
2016,05,06,14,46,06,758911,0.0048,227.1,0.93,0.02,60.124
2016,05,06,14,46,06,894624,0.0056,227.0,0.98,0.04,60.098
2016,05,06,14,46,06,959704,0.0056,226.8,0.92,0.01,60.098
2016,05,06,14,46,07,028050,0.0048,226.8,0.93,0.02,60.098
2016,05,06,14,46,07,093301,0.0048,226.9,0.95,0.0,60.098
2016,05,06,14,46,07,229441,0.0048,227.0,0.96,0.04,60.098
2016,05,06,14,46,07,294866,0.0056,227.0,0.97,0.01,60.074
2016,05,06,14,46,07,359601,0.0048,227.0,0.92,0.02,60.048
2016,05,06,14,46,07,424721,0.0048,227.0,0.96,0.03,60.048
2016,05,06,14,46,07,561095,0.0048,227.0,0.94,0.01,60.048
2016,05,06,14,46,07,625130,0.0048,227.0,0.89,0.05,60.048
2016,05,06,14,46,07,761317,0.0048,227.0,0.93,0.05,60.048
2016,05,06,14,46,07,826357,0.0048,226.9,0.95,0.02,60.048
2016,05,06,14,46,07,962346,0.0048,227.0,0.94,0.02,60.048
2016,05,06,14,46,08,026224,0.0056,227.0,0.95,0.04,60.048
2016,05,06,14,46,08,092046,0.0056,227.1,0.95,0.0,60.048
2016,05,06,14,46,08,228991,0.0048,227.0,0.91,0.02,60.098
2016,05,06,14,46,08,293366,0.0048,227.1,0.9,0.01,60.098
2016,05,06,14,46,08,358153,0.0048,227.1,0.97,0.04,60.098
2016,05,06,14,46,08,494543,0.0056,226.9,0.95,0.0,60.098
2016,05,06,14,46,08,559166,0.0048,226.9,0.94,0.0,60.098
2016,05,06,14,46,08,624130,0.0048,227.0,0.9,0.02,60.098
2016,05,06,14,46,08,762002,0.0048,226.9,0.91,0.04,60.098
2016,05,06,14,46,08,827429,0.0048,227.0,0.88,0.04,60.098
2016,05,06,14,46,08,891594,0.0048,227.0,0.96,0.0,60.098
2016,05,06,14,46,09,026972,0.0056,226.9,0.94,0.01,60.048
2016,05,06,14,46,09,091873,0.0056,227.0,0.95,0.01,60.048
2016,05,06,14,46,09,165590,0.0048,227.1,0.94,0.01,60.048
2016,05,06,14,46,09,229431,0.0056,227.2,0.97,0.02,60.048
2016,05,06,14,46,09,293596,0.0056,227.2,0.95,0.01,60.048
2016,05,06,14,46,09,428224,0.0048,227.1,0.93,0.0,60.098
2016,05,06,14,46,09,493334,0.0048,227.2,0.93,0.03,60.024
2016,05,06,14,46,09,557747,0.0048,227.1,0.99,0.04,60.048
2016,05,06,14,46,09,693499,0.0048,227.0,0.92,0.05,60.048
2016,05,06,14,46,09,757459,0.0048,226.9,0.91,0.03,60.048
2016,05,06,14,46,09,893791,0.0056,226.7,0.91,0.02,60.074
2016,05,06,14,46,09,958939,0.0048,226.6,0.91,0.04,60.098
2016,05,06,14,46,10,023777,0.4666,226.5,55.5,0.32,60.098
2016,05,06,14,46,10,159109,0.8691,225.9,196.63,1.64,60.098
2016,05,06,14,46,10,244715,0.8561,225.9,193.62,1.5,60.098
2016,05,06,14,46,10,360898,0.8399,226.1,190.24,1.52,60.098
2016,05,06,14,46,10,425405,0.8358,226.2,189.28,1.4,60.098
2016,05,06,14,46,10,560737,0.8309,226.3,188.1,1.34,60.048
2016,05,06,14,46,10,624738,0.8293,226.3,187.83,1.38,60.048
2016,05,06,14,46,10,760075,0.8261,226.2,187.04,1.38,60.098
2016,05,06,14,46,10,824979,0.8261,226.2,187.06,1.43,60.098
2016,05,06,14,46,10,961174,0.8252,226.2,186.75,1.32,60.074
2016,05,06,14,46,11,025113,0.8245,226.1,186.46,1.35,60.098
2016,05,06,14,46,11,161729,0.8236,226.2,186.49,1.37,60.048
2016,05,06,14,46,11,226792,0.8244,226.4,186.86,1.36,60.048
2016,05,06,14,46,11,290849,0.8244,226.4,186.84,1.34,60.048
2016,05,06,14,46,11,426766,0.8236,226.3,186.65,1.35,60.048
2016,05,06,14,46,11,490744,0.8236,226.3,186.51,1.37,60.048
2016,05,06,14,46,11,626324,0.8236,226.4,186.71,1.31,60.074
2016,05,06,14,46,11,690200,0.8236,226.3,186.51,1.33,60.098
2016,05,06,14,46,11,826537,0.8236,226.4,186.52,1.29,60.098
2016,05,06,14,46,11,892178,0.8236,226.4,186.68,1.38,60.098
2016,05,06,14,46,11,957128,0.8228,226.3,186.48,1.3,60.098
2016,05,06,14,46,12,093983,0.8228,226.4,186.47,1.31,60.098
2016,05,06,14,46,12,158816,0.8228,226.4,186.39,1.25,60.098
2016,05,06,14,46,12,223413,0.822,226.3,186.25,1.35,60.098
2016,05,06,14,46,12,360296,0.8212,226.1,185.92,1.39,60.048
2016,05,06,14,46,12,427351,0.822,226.1,185.95,1.34,60.048
2016,05,06,14,46,12,491891,0.8212,226.1,185.88,1.34,60.074
2016,05,06,14,46,12,556893,0.8204,226.0,185.65,1.42,60.098
2016,05,06,14,46,12,692017,0.8212,226.1,185.72,1.34,60.048
2016,05,06,14,46,12,827665,0.8212,226.1,185.78,1.31,60.048
2016,05,06,14,46,12,893187,0.8212,226.2,185.9,1.32,60.098
2016,05,06,14,46,12,957920,0.8212,226.1,185.82,1.31,60.098
2016,05,06,14,46,13,023087,0.8212,226.1,185.78,1.32,60.074
2016,05,06,14,46,13,159157,0.8204,226.1,185.64,1.32,60.048
2016,05,06,14,46,13,222908,0.8204,226.2,185.75,1.36,60.048
2016,05,06,14,46,13,358642,0.8196,226.0,185.38,1.36,60.048
2016,05,06,14,46,13,423510,0.8204,226.1,185.54,1.33,60.048
2016,05,06,14,46,13,496660,0.8196,226.1,185.43,1.32,60.048
2016,05,06,14,46,13,560908,0.8196,226.0,185.4,1.35,60.048
2016,05,06,14,46,13,625736,0.8196,226.1,185.54,1.33,60.048
2016,05,06,14,46,13,760857,0.8204,226.1,185.63,1.33,60.098
2016,05,06,14,46,13,824870,0.8188,226.0,185.3,1.32,60.098
2016,05,06,14,46,13,960103,0.8196,226.0,185.35,1.34,60.098
2016,05,06,14,46,14,025182,0.8196,226.1,185.36,1.33,60.098
2016,05,06,14,46,14,089500,0.8196,226.1,185.46,1.3,60.098
2016,05,06,14,46,14,225238,0.8188,226.0,185.29,1.35,60.098
2016,05,06,14,46,14,289753,0.8196,226.2,185.6,1.26,60.024
2016,05,06,14,46,14,425447,0.8196,226.2,185.51,1.35,60.048
2016,05,06,14,46,14,490521,0.8196,226.2,185.48,1.3,60.048
2016,05,06,14,46,14,568076,0.8196,226.2,185.54,1.37,60.048
2016,05,06,14,46,14,695266,0.8196,226.2,185.49,1.33,60.048
2016,05,06,14,46,14,759974,0.8196,226.2,185.55,1.35,60.048
2016,05,06,14,46,14,825177,0.8188,226.2,185.38,1.31,60.074
2016,05,06,14,46,14,890241,0.8188,226.2,185.48,1.33,60.048
2016,05,06,14,46,15,025845,0.8188,226.1,185.24,1.29,60.098
2016,05,06,14,46,15,089671,0.8188,226.0,185.15,1.36,60.098
2016,05,06,14,46,15,225370,0.818,226.0,185.02,1.35,60.098
2016,05,06,14,46,15,290443,0.818,225.9,184.92,1.28,60.098
2016,05,06,14,46,15,427014,0.818,226.0,185.0,1.31,60.098
2016,05,06,14,46,15,490792,0.8179,226.0,184.97,1.3,60.024
2016,05,06,14,46,15,650405,0.8179,226.1,185.18,1.31,60.048
2016,05,06,14,46,15,694911,0.8179,226.0,185.04,1.32,60.048
2016,05,06,14,46,15,760892,0.8179,226.1,185.06,1.32,60.048
2016,05,06,14,46,15,824289,0.8179,226.1,185.21,1.3,60.048
2016,05,06,14,46,15,961150,0.8188,226.1,185.18,1.32,60.048
2016,05,06,14,46,16,026319,0.8171,226.1,184.98,1.34,60.074
2016,05,06,14,46,16,090629,0.818,226.0,184.99,1.36,60.098
2016,05,06,14,46,16,226270,0.818,226.0,185.08,1.33,60.098
2016,05,06,14,46,16,290627,0.818,226.1,185.05,1.29,60.098
2016,05,06,14,46,16,427017,0.818,226.2,185.22,1.34,60.098
2016,05,06,14,46,16,491955,0.8188,226.3,185.4,1.32,60.098
2016,05,06,14,46,16,556860,0.818,226.3,185.33,1.32,60.098
2016,05,06,14,46,16,694067,0.8179,226.3,185.35,1.27,60.048
2016,05,06,14,46,16,824876,0.8188,226.4,185.51,1.31,60.048
2016,05,06,14,46,16,889471,0.8188,226.4,185.46,1.27,60.048
2016,05,06,14,46,17,025134,0.8188,226.4,185.45,1.37,60.048
2016,05,06,14,46,17,089979,0.8179,226.4,185.34,1.3,60.048
2016,05,06,14,46,17,226482,0.8179,226.4,185.37,1.31,60.048
2016,05,06,14,46,17,290390,0.818,226.3,185.18,1.3,60.098
2016,05,06,14,46,17,426074,0.8179,226.4,185.4,1.29,60.048
2016,05,06,14,46,17,491064,0.8179,226.3,185.29,1.38,60.074
2016,05,06,14,46,17,555724,0.8179,226.4,185.35,1.33,60.074
2016,05,06,14,46,17,691955,0.8179,226.3,185.17,1.36,60.048
2016,05,06,14,46,17,755822,0.8172,226.3,185.18,1.29,60.098
2016,05,06,14,46,17,825765,0.818,226.4,185.3,1.33,60.098
2016,05,06,14,46,17,890241,0.8188,226.4,185.47,1.36,60.098
2016,05,06,14,46,18,026438,0.818,226.3,185.2,1.3,60.098
2016,05,06,14,46,18,090455,0.818,226.3,185.27,1.36,60.098
2016,05,06,14,46,18,225555,0.818,226.4,185.38,1.35,60.098
2016,05,06,14,46,18,290480,0.818,226.4,185.39,1.32,60.098
2016,05,06,14,46,18,427464,0.8188,226.6,185.81,1.34,60.048
2016,05,06,14,46,18,492461,0.8188,226.6,185.59,1.3,60.048
2016,05,06,14,46,18,557222,0.8188,226.6,185.68,1.29,60.048
2016,05,06,14,46,18,693542,0.8188,226.7,185.81,1.38,60.048
2016,05,06,14,46,18,758730,0.8188,226.7,185.72,1.34,60.048
2016,05,06,14,46,18,823449,0.8188,226.7,185.86,1.33,60.048
2016,05,06,14,46,18,912589,0.8196,226.7,185.91,1.32,60.098
2016,05,06,14,46,18,956287,0.8188,226.7,185.79,1.28,60.074
2016,05,06,14,46,19,026085,0.8188,226.7,185.87,1.4,60.048
2016,05,06,14,46,19,090453,0.8196,226.7,185.92,1.36,60.048
2016,05,06,14,46,19,224972,0.8188,226.6,185.66,1.37,60.098
2016,05,06,14,46,19,290156,0.8188,226.6,185.68,1.31,60.098
2016,05,06,14,46,19,426257,0.8188,226.8,185.87,1.32,60.098
2016,05,06,14,46,19,489938,0.8188,226.7,185.77,1.32,60.098
2016,05,06,14,46,19,626541,0.818,226.7,185.7,1.37,60.098
2016,05,06,14,46,19,691837,0.8188,226.7,185.74,1.29,60.024
2016,05,06,14,46,19,756562,0.8188,226.7,185.71,1.32,60.048
2016,05,06,14,46,19,892691,0.8188,226.7,185.66,1.34,60.048
2016,05,06,14,46,19,957920,0.8188,226.7,185.7,1.37,60.048
2016,05,06,14,46,20,022681,0.8188,226.8,185.8,1.36,60.048
2016,05,06,14,46,20,158874,0.8188,226.8,185.78,1.38,60.048
2016,05,06,14,46,20,222350,0.8188,226.8,185.87,1.35,60.074
2016,05,06,14,46,20,358020,0.818,226.7,185.6,1.36,60.098
2016,05,06,14,46,20,422942,0.8172,226.6,185.41,1.31,60.098
2016,05,06,14,46,20,558796,0.8172,226.5,185.2,1.34,60.098
2016,05,06,14,46,20,622466,0.8163,226.5,185.17,1.3,60.098
2016,05,06,14,46,20,758892,0.8163,226.5,185.14,1.31,60.098
2016,05,06,14,46,20,823863,0.8171,226.6,185.28,1.32,60.048
2016,05,06,14,46,20,960089,0.8171,226.6,185.38,1.3,60.074
2016,05,06,14,46,21,023930,0.8163,226.5,185.15,1.43,60.098
2016,05,06,14,46,21,088913,0.8172,226.6,185.26,1.32,60.098
2016,05,06,14,46,21,227243,0.8171,226.6,185.31,1.29,60.048
2016,05,06,14,46,21,291570,0.8171,226.6,185.23,1.35,60.048
2016,05,06,14,46,21,355971,0.8171,226.5,185.26,1.28,60.048
2016,05,06,14,46,21,491435,0.8163,226.5,185.11,1.33,60.048
2016,05,06,14,46,21,556102,0.8163,226.5,185.11,1.35,60.048
2016,05,06,14,46,21,692255,0.8171,226.7,185.35,1.36,60.048
2016,05,06,14,46,21,757229,0.8163,226.6,185.26,1.36,60.098
2016,05,06,14,46,21,892884,0.8163,226.6,185.21,1.28,60.098
2016,05,06,14,46,21,957346,0.8163,226.6,185.24,1.32,60.074
2016,05,06,14,46,22,021964,0.8171,226.7,185.49,1.3,60.074
2016,05,06,14,46,22,158058,0.8171,226.7,185.38,1.36,60.074
2016,05,06,14,46,22,222552,0.8171,226.7,185.51,1.36,60.048
2016,05,06,14,46,22,289229,0.8171,226.6,185.24,1.39,60.048
2016,05,06,14,46,22,424696,0.8171,226.7,185.39,1.31,60.048
2016,05,06,14,46,22,489345,0.8171,226.6,185.35,1.32,60.048
2016,05,06,14,46,22,625476,0.8163,226.6,185.2,1.34,60.048
2016,05,06,14,46,22,689440,0.8163,226.5,185.1,1.3,60.048
2016,05,06,14,46,22,826491,0.8163,226.5,185.01,1.33,60.124
2016,05,06,14,46,22,892069,0.8163,226.4,184.92,1.31,60.098
2016,05,06,14,46,22,956743,0.8163,226.4,184.94,1.34,60.098
2016,05,06,14,46,23,021759,0.8155,226.4,184.8,1.33,60.098
2016,05,06,14,46,23,158183,0.8155,226.2,184.67,1.34,60.098
2016,05,06,14,46,23,244120,0.8155,226.3,184.74,1.34,60.098
2016,05,06,14,46,23,288209,0.8163,226.3,184.86,1.33,60.098
2016,05,06,14,46,23,426636,0.8155,226.2,184.59,1.33,60.098
2016,05,06,14,46,23,491942,0.8155,226.2,184.57,1.33,60.098
2016,05,06,14,46,23,556568,0.8155,226.1,184.57,1.3,60.074
2016,05,06,14,46,23,621090,0.8163,226.3,184.87,1.34,60.048
2016,05,06,14,46,23,757410,0.8155,226.2,184.59,1.32,60.048
2016,05,06,14,46,23,822069,0.8155,226.1,184.5,1.34,60.048
2016,05,06,14,46,23,958541,0.8155,226.2,184.63,1.33,60.048
2016,05,06,14,46,24,023463,0.8155,226.2,184.57,1.32,60.048
2016,05,06,14,46,24,087928,0.8147,226.1,184.45,1.35,60.048
2016,05,06,14,46,24,223722,0.8155,226.4,184.83,1.29,60.048
2016,05,06,14,46,24,288235,0.8163,226.4,184.88,1.35,60.098
2016,05,06,14,46,24,356004,0.8163,226.4,184.98,1.34,60.098
2016,05,06,14,46,24,492211,0.8155,226.3,184.68,1.34,60.098
2016,05,06,14,46,24,556626,0.8155,226.2,184.62,1.28,60.098
2016,05,06,14,46,24,621387,0.8155,226.3,184.67,1.33,60.098
2016,05,06,14,46,24,758598,0.8155,226.2,184.52,1.31,60.098
2016,05,06,14,46,24,823106,0.8147,226.1,184.37,1.35,60.074
2016,05,06,14,46,24,887717,0.8147,226.1,184.5,1.32,60.048
2016,05,06,14,46,25,023701,0.8155,226.3,184.84,1.37,60.048
2016,05,06,14,46,25,088421,0.8155,226.2,184.62,1.29,60.048
2016,05,06,14,46,25,224114,0.8155,226.3,184.81,1.35,60.048
2016,05,06,14,46,25,288163,0.8155,226.3,184.76,1.35,60.048
2016,05,06,14,46,25,492313,0.8155,226.3,184.75,1.33,60.098
2016,05,06,14,46,25,556629,0.8155,226.3,184.71,1.33,60.098
2016,05,06,14,46,25,690327,0.8147,226.0,184.27,1.28,60.098
2016,05,06,14,46,25,755054,0.8147,226.0,184.32,1.32,60.098
2016,05,06,14,46,25,891883,0.8155,226.1,184.52,1.33,60.048
2016,05,06,14,46,25,957175,0.8155,226.1,184.51,1.28,60.048
2016,05,06,14,46,26,022070,0.8155,226.1,184.54,1.31,60.048
2016,05,06,14,46,26,158334,0.8147,226.1,184.36,1.3,60.048
2016,05,06,14,46,26,222872,0.8147,226.1,184.31,1.34,60.048
2016,05,06,14,46,26,287641,0.8139,226.0,184.18,1.35,60.048
2016,05,06,14,46,26,423580,0.8139,226.0,184.15,1.37,60.048
2016,05,06,14,46,26,501471,0.8139,226.0,184.16,1.32,60.048
2016,05,06,14,46,26,555273,0.8139,226.0,184.06,1.36,60.048
2016,05,06,14,46,26,691582,0.8147,226.0,184.19,1.27,60.048
2016,05,06,14,46,26,755621,0.8139,225.9,183.99,1.33,60.074
2016,05,06,14,46,26,892193,0.8139,225.8,183.91,1.21,60.098
2016,05,06,14,46,26,957474,0.8139,225.9,184.05,1.33,60.074
2016,05,06,14,46,27,022373,0.8139,226.0,184.15,1.32,60.098
2016,05,06,14,46,27,159010,0.8147,226.0,184.28,1.29,60.074
2016,05,06,14,46,27,224085,0.8139,226.0,184.19,1.3,60.098
2016,05,06,14,46,27,288791,0.8139,225.9,184.05,1.33,60.098
2016,05,06,14,46,27,425169,0.8147,226.1,184.31,1.32,60.098
2016,05,06,14,46,27,489536,0.8147,226.1,184.3,1.34,60.048
2016,05,06,14,46,27,624729,0.8147,226.1,184.42,1.28,60.048
2016,05,06,14,46,27,690172,0.8147,226.1,184.39,1.36,60.048
2016,05,06,14,46,27,755471,0.8147,226.1,184.27,1.29,60.048
2016,05,06,14,46,27,892767,0.8147,226.0,184.25,1.3,60.048
2016,05,06,14,46,27,957709,0.8139,226.1,184.22,1.35,60.048
2016,05,06,14,46,28,022734,0.8147,226.0,184.26,1.31,60.048
2016,05,06,14,46,28,158707,0.8147,226.1,184.28,1.34,60.048
2016,05,06,14,46,28,222402,0.8147,226.1,184.38,1.34,60.048
2016,05,06,14,46,28,358471,0.8139,226.0,184.15,1.36,60.048
2016,05,06,14,46,28,423791,0.8139,226.0,184.18,1.33,60.048
2016,05,06,14,46,28,488335,0.8139,226.0,184.14,1.3,60.048
2016,05,06,14,46,28,624475,0.8147,226.1,184.37,1.31,60.048
2016,05,06,14,46,28,694020,0.8139,226.1,184.25,1.34,60.048
2016,05,06,14,46,28,758961,0.8147,226.0,184.23,1.3,60.048
2016,05,06,14,46,28,823710,0.8139,226.0,184.13,1.34,60.048
2016,05,06,14,46,28,887877,0.8139,226.0,184.22,1.36,60.048
2016,05,06,14,46,29,024032,0.8147,226.1,184.37,1.27,60.048
2016,05,06,14,46,29,088014,0.8147,226.1,184.4,1.3,60.048
2016,05,06,14,46,29,224581,0.8147,226.1,184.4,1.37,60.048
2016,05,06,14,46,29,289435,0.8147,226.2,184.55,1.32,60.048
2016,05,06,14,46,29,425151,0.8147,226.3,184.62,1.32,60.048
2016,05,06,14,46,29,489306,0.8147,226.3,184.61,1.34,60.048
2016,05,06,14,46,29,624914,0.8155,226.4,184.69,1.34,60.048
2016,05,06,14,46,29,689681,0.8155,226.4,184.79,1.27,60.048
2016,05,06,14,46,29,755808,0.8155,226.3,184.66,1.3,60.048
2016,05,06,14,46,29,891825,0.8155,226.3,184.67,1.31,60.098
2016,05,06,14,46,29,955333,0.8155,226.3,184.65,1.3,60.048
2016,05,06,14,46,30,090827,0.8147,226.3,184.54,1.34,60.048
2016,05,06,14,46,30,155901,0.8155,226.4,184.77,1.31,60.048
2016,05,06,14,46,30,292701,0.8155,226.5,184.85,1.33,60.048
2016,05,06,14,46,30,357743,0.8155,226.5,184.97,1.35,60.048
2016,05,06,14,46,30,423466,0.8155,226.5,184.84,1.33,60.048
2016,05,06,14,46,30,559187,0.8155,226.4,184.81,1.29,60.074
2016,05,06,14,46,30,623365,0.8155,226.5,184.91,1.3,60.048
2016,05,06,14,46,30,759326,0.8155,226.5,184.98,1.28,60.048
2016,05,06,14,46,30,839953,0.8163,226.5,185.05,1.4,60.048
2016,05,06,14,46,30,894387,0.8155,226.5,184.95,1.35,60.048
2016,05,06,14,46,30,959513,0.8155,226.4,184.83,1.3,60.074
2016,05,06,14,46,31,022388,0.8155,226.4,184.82,1.36,60.048
2016,05,06,14,46,31,158982,0.8155,226.3,184.61,1.33,60.048
2016,05,06,14,46,31,223759,0.8155,226.3,184.68,1.3,60.048
2016,05,06,14,46,31,288086,0.8155,226.3,184.63,1.33,60.048
2016,05,06,14,46,31,423512,0.8155,226.3,184.64,1.3,60.048
2016,05,06,14,46,31,559422,0.8155,226.4,184.78,1.28,60.048
2016,05,06,14,46,31,624713,0.8155,226.4,184.86,1.33,60.048
2016,05,06,14,46,31,689279,0.8163,226.6,185.21,1.4,60.048
2016,05,06,14,46,31,824568,0.8163,226.5,184.99,1.29,60.048
2016,05,06,14,46,31,889631,0.8163,226.5,184.96,1.37,60.048
2016,05,06,14,46,31,957503,0.8163,226.5,185.01,1.28,60.074
2016,05,06,14,46,32,022714,0.8163,226.5,185.12,1.28,60.048
2016,05,06,14,46,32,158765,0.8163,226.5,185.03,1.28,60.098
2016,05,06,14,46,32,223335,0.8163,226.5,185.13,1.31,60.098
2016,05,06,14,46,32,287812,0.8155,226.4,184.89,1.35,60.098
2016,05,06,14,46,32,423396,0.8155,226.3,184.67,1.28,60.098
2016,05,06,14,46,32,487882,0.8155,226.4,184.84,1.33,60.074
2016,05,06,14,46,32,623669,0.8155,226.5,184.94,1.38,60.048
2016,05,06,14,46,32,759485,0.8163,226.5,184.99,1.33,60.048
2016,05,06,14,46,32,824151,0.8163,226.5,185.02,1.36,60.048
2016,05,06,14,46,32,888528,0.8155,226.4,184.89,1.33,60.048
2016,05,06,14,46,33,023581,0.8155,226.4,184.78,1.34,60.074
2016,05,06,14,46,33,088125,0.8155,226.4,184.91,1.36,60.048
2016,05,06,14,46,33,225077,0.8155,226.4,184.82,1.37,60.048
2016,05,06,14,46,33,290338,0.8155,226.3,184.68,1.26,60.048
2016,05,06,14,46,33,355239,0.8155,226.3,184.63,1.27,60.074
2016,05,06,14,46,33,492467,0.8147,226.3,184.51,1.31,60.048
2016,05,06,14,46,33,557417,0.8147,226.3,184.6,1.3,60.048
2016,05,06,14,46,33,621805,0.8155,226.4,184.71,1.35,60.098
2016,05,06,14,46,33,757326,0.8155,226.4,184.88,1.36,60.098
2016,05,06,14,46,33,821879,0.8155,226.4,184.81,1.28,60.098
2016,05,06,14,46,33,957964,0.8155,226.4,184.72,1.35,60.098
2016,05,06,14,46,34,023090,0.8155,226.4,184.82,1.28,60.098
2016,05,06,14,46,34,158900,0.8163,226.6,185.21,1.32,60.048
2016,05,06,14,46,34,223443,0.8163,226.6,185.13,1.33,60.048
2016,05,06,14,46,34,358255,0.8155,226.5,184.96,1.34,60.048
2016,05,06,14,46,34,423217,0.8155,226.4,184.9,1.33,60.048
2016,05,06,14,46,34,487550,0.8155,226.5,184.87,1.4,60.048
2016,05,06,14,46,34,623442,0.8155,226.5,184.93,1.35,60.048
2016,05,06,14,46,34,688084,0.8155,226.4,184.88,1.28,60.124
2016,05,06,14,46,34,823754,0.4455,226.8,57.33,5.31,60.098
2016,05,06,14,46,34,887701,0.0064,226.9,0.95,0.13,60.098
2016,05,06,14,46,35,025596,0.0056,226.9,0.98,0.02,60.098
2016,05,06,14,46,35,089625,0.0048,226.9,0.94,0.0,60.098
2016,05,06,14,46,35,164777,0.0048,226.9,0.93,0.02,60.074
2016,05,06,14,46,35,293232,0.0048,226.8,0.94,0.02,60.048
2016,05,06,14,46,35,357944,0.0048,226.8,0.94,0.0,60.048
2016,05,06,14,46,35,422880,0.0048,226.9,0.94,0.05,60.048
2016,05,06,14,46,35,487531,0.0048,226.9,0.93,0.0,60.048
2016,05,06,14,46,35,623582,0.0048,227.0,0.92,0.02,60.048
2016,05,06,14,46,35,759054,0.0048,227.0,0.9,0.03,60.048
2016,05,06,14,46,35,823505,0.0056,226.9,0.97,0.04,60.098
2016,05,06,14,46,35,887681,0.0048,226.9,0.93,0.0,60.074
2016,05,06,14,46,36,023242,0.0048,226.9,0.91,0.0,60.048
2016,05,06,14,46,36,088030,0.0048,226.9,0.92,0.02,60.074
2016,05,06,14,46,36,243399,0.0056,227.4,0.95,0.01,60.074
2016,05,06,14,46,36,359495,0.0048,227.3,0.93,0.05,60.074
2016,05,06,14,46,36,423008,0.0048,227.3,0.94,0.05,60.098
2016,05,06,14,46,36,488563,0.0048,227.2,0.94,0.0,60.074
2016,05,06,14,46,36,625134,0.0048,227.1,0.94,0.03,60.098
2016,05,06,14,46,36,687090,0.0048,227.0,0.97,0.04,60.074
2016,05,06,14,46,36,823109,0.0048,227.1,0.95,0.03,60.048
2016,05,06,14,46,36,888335,0.0048,227.1,0.94,0.01,60.048
2016,05,06,14,46,37,024174,0.0056,227.1,0.94,0.01,60.048
2016,05,06,14,46,37,088748,0.0048,227.1,0.93,0.01,60.048
2016,05,06,14,46,37,224930,0.0048,227.1,0.95,0.0,60.048
2016,05,06,14,46,37,290303,0.0048,227.0,0.92,0.0,60.048
2016,05,06,14,46,37,423171,0.0048,227.2,0.95,0.05,60.074
2016,05,06,14,46,37,489228,0.0048,227.2,0.92,0.03,60.048
2016,05,06,14,46,37,553812,0.0048,227.2,0.91,0.02,60.048
2016,05,06,14,46,37,690893,0.0048,227.2,0.94,0.0,60.098
2016,05,06,14,46,37,756320,0.0048,227.2,0.97,0.02,60.098
2016,05,06,14,46,37,820896,0.0048,227.2,0.92,0.0,60.098
2016,05,06,14,46,37,957632,0.0048,227.3,0.93,0.05,60.074
2016,05,06,14,46,38,022640,0.0048,227.3,0.95,0.0,60.074
2016,05,06,14,46,38,086937,0.0048,227.2,0.9,0.02,60.074
2016,05,06,14,46,38,223506,0.0048,227.1,0.94,0.05,60.098
2016,05,06,14,46,38,288152,0.0048,227.2,0.91,0.0,60.074
2016,05,06,14,46,38,426248,0.0048,227.2,0.93,0.0,60.048
2016,05,06,14,46,38,490196,0.0048,227.1,0.92,0.03,60.048
2016,05,06,14,46,38,554242,0.0048,227.1,0.92,0.01,60.048
2016,05,06,14,46,38,690257,0.0048,227.1,0.94,0.06,60.048
2016,05,06,14,46,38,754941,0.0048,227.0,0.91,0.01,60.048
2016,05,06,14,46,38,891672,0.0056,227.0,0.93,0.0,60.098
2016,05,06,14,46,38,956972,0.0048,226.9,0.94,0.03,60.098
2016,05,06,14,46,39,021683,0.0048,227.0,0.94,0.01,60.098
2016,05,06,14,46,39,086623,0.0048,226.9,0.92,0.03,60.098
2016,05,06,14,46,39,222361,0.0056,226.9,0.95,0.03,60.098
2016,05,06,14,46,39,357950,0.0048,226.9,0.92,0.0,60.074
2016,05,06,14,46,39,422643,0.0048,227.0,0.96,0.0,60.098
2016,05,06,14,46,39,501774,0.0048,227.0,0.91,0.04,60.098
2016,05,06,14,46,39,555552,0.0048,226.9,0.94,0.0,60.074
2016,05,06,14,46,39,619900,0.0048,227.0,0.91,0.03,60.048
2016,05,06,14,46,39,693479,0.0048,226.9,0.93,0.01,60.048
2016,05,06,14,46,39,757348,0.0056,227.0,0.99,0.02,60.048
2016,05,06,14,46,39,821136,0.0048,227.0,0.94,0.03,60.048
2016,05,06,14,46,39,957207,0.0048,227.0,0.91,0.02,60.048
2016,05,06,14,46,40,022003,0.0048,227.0,0.95,0.0,60.048
2016,05,06,14,46,40,086809,0.0048,226.9,0.87,0.01,60.048
2016,05,06,14,46,40,224293,0.0048,226.8,0.91,0.01,60.074
2016,05,06,14,46,40,289517,0.0048,226.8,0.9,0.02,60.048
2016,05,06,14,46,40,353711,0.0048,226.8,0.94,0.02,60.048
2016,05,06,14,46,40,489477,0.0048,226.8,0.94,0.0,60.048
2016,05,06,14,46,40,554358,0.0048,226.9,0.88,0.03,60.074
2016,05,06,14,46,40,626176,0.0048,226.8,0.89,0.02,60.048
2016,05,06,14,46,40,691040,0.0048,226.8,0.94,0.01,60.074
2016,05,06,14,46,40,755651,0.0048,226.7,0.87,0.02,60.048
2016,05,06,14,46,40,819007,0.0048,226.7,0.9,0.0,60.074
2016,05,06,14,46,40,955458,0.0056,226.8,0.96,0.0,60.048
2016,05,06,14,46,41,020560,0.0056,226.8,0.94,0.02,60.074
2016,05,06,14,46,41,156982,0.0048,227.0,0.93,0.01,60.048
2016,05,06,14,46,41,222273,0.0056,227.0,0.95,0.04,60.098
2016,05,06,14,46,41,286496,0.0056,227.1,0.95,0.05,60.098
2016,05,06,14,46,41,422645,0.0048,227.1,0.91,0.0,60.098
2016,05,06,14,46,41,487219,0.0048,227.0,0.9,0.0,60.098
2016,05,06,14,46,41,622869,0.0056,227.1,0.96,0.02,60.098
2016,05,06,14,46,41,688896,0.0048,227.1,0.93,0.03,60.048
2016,05,06,14,46,41,753661,0.0048,227.2,0.88,0.04,60.048
2016,05,06,14,46,41,890694,0.0048,227.3,0.93,0.0,60.048
2016,05,06,14,46,41,955701,0.0048,227.3,0.92,0.03,60.048
2016,05,06,14,46,42,020505,0.0048,227.2,0.92,0.02,60.048
2016,05,06,14,46,42,157189,0.0048,227.2,0.95,0.05,60.074
2016,05,06,14,46,42,222371,0.0048,227.1,0.93,0.03,60.098
2016,05,06,14,46,42,286944,0.0048,227.0,0.93,0.01,60.098
2016,05,06,14,46,42,422463,0.0056,226.9,0.95,0.04,60.098
2016,05,06,14,46,42,486987,0.0048,226.9,0.94,0.02,60.098
2016,05,06,14,46,42,622693,0.0048,226.7,0.91,0.06,60.098
2016,05,06,14,46,42,686503,0.0048,226.7,0.89,0.01,60.098
2016,05,06,14,46,42,765545,0.0048,226.7,0.92,0.03,60.098
2016,05,06,14,46,42,819904,0.0048,226.8,0.93,0.01,60.048
2016,05,06,14,46,42,886449,0.0048,226.9,0.94,0.01,60.048
2016,05,06,14,46,43,021390,0.0048,226.9,0.92,0.0,60.048
2016,05,06,14,46,43,086395,0.0048,226.9,0.93,0.0,60.048
2016,05,06,14,46,43,222313,0.0056,227.1,0.94,0.03,60.048
2016,05,06,14,46,43,286021,0.0048,227.1,0.95,0.0,60.098
2016,05,06,14,46,43,421856,0.0048,227.1,0.92,0.0,60.098
2016,05,06,14,46,43,486779,0.0048,227.1,0.93,0.01,60.098
2016,05,06,14,46,43,622559,0.0056,227.0,0.99,0.02,60.098
2016,05,06,14,46,43,686556,0.0048,227.0,0.91,0.01,60.098
2016,05,06,14,46,43,846243,0.0048,227.1,0.93,0.03,60.048
2016,05,06,14,46,43,889904,0.0048,227.1,0.93,0.02,60.048
2016,05,06,14,46,43,954458,0.0048,227.1,0.91,0.01,60.048
2016,05,06,14,46,44,089854,0.0048,227.0,0.91,0.01,60.048
2016,05,06,14,46,44,154573,0.0056,226.9,0.97,0.03,60.048
2016,05,06,14,46,44,219846,0.0048,227.0,0.93,0.0,60.048
2016,05,06,14,46,44,285427,0.0048,227.0,0.92,0.01,60.098
2016,05,06,14,46,44,421518,0.0056,227.1,0.94,0.0,60.074
2016,05,06,14,46,44,485402,0.0048,227.0,0.92,0.0,60.048
2016,05,06,14,46,44,621927,0.0048,227.2,0.93,0.04,60.124
2016,05,06,14,46,44,686470,0.0056,227.2,0.97,0.0,60.048
2016,05,06,14,46,44,822466,0.0048,227.2,0.96,0.01,60.048
2016,05,06,14,46,44,886354,0.0048,227.2,0.93,0.05,60.098
2016,05,06,14,46,45,022456,0.0048,227.2,0.9,0.03,60.098
2016,05,06,14,46,45,086957,0.0048,227.2,0.91,0.02,60.098
2016,05,06,14,46,45,222595,0.0048,227.2,0.92,0.03,60.048
2016,05,06,14,46,45,287901,0.0048,227.2,0.91,0.02,60.048
2016,05,06,14,46,45,352304,0.8699,226.5,192.16,3.13,60.048
2016,05,06,14,46,45,488998,0.8618,226.5,195.57,1.56,60.048
2016,05,06,14,46,45,553531,0.8512,226.5,193.06,1.52,60.124
2016,05,06,14,46,45,618702,0.8431,226.5,191.14,1.43,60.098
2016,05,06,14,46,45,755562,0.8334,226.4,188.98,1.4,60.098
2016,05,06,14,46,45,820954,0.831,226.5,188.42,1.36,60.098
2016,05,06,14,46,45,885931,0.8293,226.5,188.1,1.36,60.098
2016,05,06,14,46,46,025148,0.8277,226.6,187.65,1.37,60.048
2016,05,06,14,46,46,090354,0.8269,226.6,187.65,1.39,60.048
2016,05,06,14,46,46,154753,0.8261,226.6,187.45,1.37,60.048
2016,05,06,14,46,46,218002,0.8261,226.6,187.34,1.33,60.048
2016,05,06,14,46,46,355626,0.8261,226.6,187.41,1.38,60.048
2016,05,06,14,46,46,420949,0.8261,226.7,187.36,1.37,60.048
2016,05,06,14,46,46,485634,0.8252,226.6,187.24,1.35,60.048
2016,05,06,14,46,46,621228,0.8253,226.7,187.26,1.33,60.098
2016,05,06,14,46,46,685502,0.8253,226.7,187.26,1.35,60.098
2016,05,06,14,46,46,821510,0.8245,226.6,186.96,1.34,60.098
2016,05,06,14,46,46,885781,0.8253,226.5,187.05,1.32,60.098
2016,05,06,14,46,47,022237,0.8236,226.5,186.74,1.34,60.098
2016,05,06,14,46,47,100473,0.8236,226.6,186.84,1.28,60.074
2016,05,06,14,46,47,155347,0.8236,226.6,186.89,1.34,60.048
2016,05,06,14,46,47,221245,0.8244,226.6,186.91,1.34,60.048
2016,05,06,14,46,47,284640,0.8236,226.6,186.84,1.32,60.048
2016,05,06,14,46,47,420099,0.8236,226.6,186.73,1.33,60.048
2016,05,06,14,46,47,484264,0.8236,226.6,186.74,1.38,60.048
2016,05,06,14,46,47,620203,0.8228,226.5,186.58,1.31,60.098
2016,05,06,14,46,47,685216,0.822,226.4,186.35,1.27,60.098
2016,05,06,14,46,47,821071,0.8228,226.4,186.4,1.3,60.074
2016,05,06,14,46,47,885527,0.822,226.5,186.39,1.29,60.048
2016,05,06,14,46,48,021367,0.8228,226.5,186.46,1.35,60.048
2016,05,06,14,46,48,086162,0.8228,226.5,186.46,1.31,60.048
2016,05,06,14,46,48,150554,0.822,226.4,186.32,1.33,60.098
2016,05,06,14,46,48,218297,0.822,226.4,186.34,1.33,60.098
2016,05,06,14,46,48,354683,0.822,226.4,186.21,1.32,60.098
2016,05,06,14,46,48,419155,0.8212,226.5,186.15,1.3,60.098
2016,05,06,14,46,48,484139,0.8212,226.5,186.16,1.36,60.098
2016,05,06,14,46,48,620317,0.8204,226.4,185.99,1.29,60.074
2016,05,06,14,46,48,685422,0.8212,226.5,186.2,1.37,60.048
2016,05,06,14,46,48,749858,0.8212,226.4,186.04,1.28,60.048
2016,05,06,14,46,48,885402,0.8212,226.4,186.05,1.28,60.048
2016,05,06,14,46,48,950149,0.8212,226.5,186.16,1.33,60.048
2016,05,06,14,46,49,085864,0.8204,226.4,186.0,1.31,60.048
2016,05,06,14,46,49,221207,0.8204,226.4,185.84,1.3,60.098
